EESchema Schematic File Version 4
LIBS:polymer-cache
EELAYER 29 0
EELAYER END
$Descr A 11000 8500
encoding utf-8
Sheet 2 2
Title "Polymer-Matrix"
Date ""
Rev ""
Comp ""
Comment1 ""
Comment2 ""
Comment3 ""
Comment4 ""
$EndDescr
$Comp
L polymer:SW SW1
U 1 1 5BD01BE8
P 3300 2900
AR Path="/5BD01BE8" Ref="SW1"  Part="1" 
AR Path="/5BCB8B3B/5BD01BE8" Ref="SW1"  Part="1" 
F 0 "SW1" H 3300 3100 50  0000 C CNN
F 1 "~" H 3300 3094 50  0000 C CNN
F 2 "keebio:Hybrid_PCB_100H_hole" H 3300 3100 50  0001 C CNN
F 3 "" H 3300 3100 50  0001 C CNN
	1    3300 2900
	1    0    0    -1  
$EndComp
$Comp
L polymer:DIODE D1
U 1 1 5BD01BEF
P 3500 3050
F 0 "D1" V 3546 2971 50  0000 R CNN
F 1 "D" V 3455 2971 50  0000 R CNN
F 2 "polymer:D_SOD123_axial" H 3500 3050 50  0001 C CNN
F 3 "~" H 3500 3050 50  0001 C CNN
	1    3500 3050
	0    -1   -1   0   
$EndComp
$Comp
L polymer:SW SW2
U 1 1 5BD02D5E
P 3300 3500
AR Path="/5BD02D5E" Ref="SW2"  Part="1" 
AR Path="/5BCB8B3B/5BD02D5E" Ref="SW2"  Part="1" 
F 0 "SW2" H 3300 3700 50  0000 C CNN
F 1 "~" H 3300 3694 50  0000 C CNN
F 2 "keebio:Hybrid_PCB_100H_hole" H 3300 3700 50  0001 C CNN
F 3 "" H 3300 3700 50  0001 C CNN
	1    3300 3500
	1    0    0    -1  
$EndComp
$Comp
L polymer:DIODE D2
U 1 1 5BD02D65
P 3500 3650
F 0 "D2" V 3546 3571 50  0000 R CNN
F 1 "D" V 3455 3571 50  0000 R CNN
F 2 "polymer:D_SOD123_axial" H 3500 3650 50  0001 C CNN
F 3 "~" H 3500 3650 50  0001 C CNN
	1    3500 3650
	0    -1   -1   0   
$EndComp
$Comp
L polymer:SW SW3
U 1 1 5BD03FF8
P 3300 4100
AR Path="/5BD03FF8" Ref="SW3"  Part="1" 
AR Path="/5BCB8B3B/5BD03FF8" Ref="SW3"  Part="1" 
F 0 "SW3" H 3300 4300 50  0000 C CNN
F 1 "~" H 3300 4294 50  0000 C CNN
F 2 "keebio:Hybrid_PCB_100H_hole" H 3300 4300 50  0001 C CNN
F 3 "" H 3300 4300 50  0001 C CNN
	1    3300 4100
	1    0    0    -1  
$EndComp
$Comp
L polymer:DIODE D3
U 1 1 5BD03FFF
P 3500 4250
F 0 "D3" V 3546 4171 50  0000 R CNN
F 1 "D" V 3455 4171 50  0000 R CNN
F 2 "polymer:D_SOD123_axial" H 3500 4250 50  0001 C CNN
F 3 "~" H 3500 4250 50  0001 C CNN
	1    3500 4250
	0    -1   -1   0   
$EndComp
$Comp
L polymer:SW SW4
U 1 1 5BD05176
P 3300 4700
AR Path="/5BD05176" Ref="SW4"  Part="1" 
AR Path="/5BCB8B3B/5BD05176" Ref="SW4"  Part="1" 
F 0 "SW4" H 3300 4900 50  0000 C CNN
F 1 "~" H 3300 4894 50  0000 C CNN
F 2 "keebio:Hybrid_PCB_100H_hole" H 3300 4900 50  0001 C CNN
F 3 "" H 3300 4900 50  0001 C CNN
	1    3300 4700
	1    0    0    -1  
$EndComp
$Comp
L polymer:DIODE D4
U 1 1 5BD0517D
P 3500 4850
F 0 "D4" V 3546 4771 50  0000 R CNN
F 1 "D" V 3455 4771 50  0000 R CNN
F 2 "polymer:D_SOD123_axial" H 3500 4850 50  0001 C CNN
F 3 "~" H 3500 4850 50  0001 C CNN
	1    3500 4850
	0    -1   -1   0   
$EndComp
$Comp
L polymer:SW SW5
U 1 1 5BD075DC
P 3300 5300
AR Path="/5BD075DC" Ref="SW5"  Part="1" 
AR Path="/5BCB8B3B/5BD075DC" Ref="SW5"  Part="1" 
F 0 "SW5" H 3300 5500 50  0000 C CNN
F 1 "~" H 3300 5494 50  0000 C CNN
F 2 "keebio:Hybrid_PCB_100H_hole" H 3300 5500 50  0001 C CNN
F 3 "" H 3300 5500 50  0001 C CNN
	1    3300 5300
	1    0    0    -1  
$EndComp
$Comp
L polymer:DIODE D5
U 1 1 5BD075E3
P 3500 5450
F 0 "D5" V 3546 5371 50  0000 R CNN
F 1 "D" V 3455 5371 50  0000 R CNN
F 2 "polymer:D_SOD123_axial" H 3500 5450 50  0001 C CNN
F 3 "~" H 3500 5450 50  0001 C CNN
	1    3500 5450
	0    -1   -1   0   
$EndComp
$Comp
L polymer:SW SW6
U 1 1 5BD08772
P 4000 2900
AR Path="/5BD08772" Ref="SW6"  Part="1" 
AR Path="/5BCB8B3B/5BD08772" Ref="SW6"  Part="1" 
F 0 "SW6" H 4000 3100 50  0000 C CNN
F 1 "~" H 4000 3094 50  0000 C CNN
F 2 "keebio:Hybrid_PCB_100H_hole" H 4000 3100 50  0001 C CNN
F 3 "" H 4000 3100 50  0001 C CNN
	1    4000 2900
	1    0    0    -1  
$EndComp
$Comp
L polymer:DIODE D6
U 1 1 5BD08779
P 4200 3050
F 0 "D6" V 4246 2971 50  0000 R CNN
F 1 "D" V 4155 2971 50  0000 R CNN
F 2 "polymer:D_SOD123_axial" H 4200 3050 50  0001 C CNN
F 3 "~" H 4200 3050 50  0001 C CNN
	1    4200 3050
	0    -1   -1   0   
$EndComp
$Comp
L polymer:SW SW7
U 1 1 5BD0A56A
P 4000 3500
AR Path="/5BD0A56A" Ref="SW7"  Part="1" 
AR Path="/5BCB8B3B/5BD0A56A" Ref="SW7"  Part="1" 
F 0 "SW7" H 4000 3700 50  0000 C CNN
F 1 "~" H 4000 3694 50  0000 C CNN
F 2 "keebio:Hybrid_PCB_100H_hole" H 4000 3700 50  0001 C CNN
F 3 "" H 4000 3700 50  0001 C CNN
	1    4000 3500
	1    0    0    -1  
$EndComp
$Comp
L polymer:DIODE D7
U 1 1 5BD0A571
P 4200 3650
F 0 "D7" V 4246 3571 50  0000 R CNN
F 1 "D" V 4155 3571 50  0000 R CNN
F 2 "polymer:D_SOD123_axial" H 4200 3650 50  0001 C CNN
F 3 "~" H 4200 3650 50  0001 C CNN
	1    4200 3650
	0    -1   -1   0   
$EndComp
$Comp
L polymer:SW SW8
U 1 1 5BD1359C
P 4000 4100
AR Path="/5BD1359C" Ref="SW8"  Part="1" 
AR Path="/5BCB8B3B/5BD1359C" Ref="SW8"  Part="1" 
F 0 "SW8" H 4000 4300 50  0000 C CNN
F 1 "~" H 4000 4294 50  0000 C CNN
F 2 "keebio:Hybrid_PCB_100H_hole" H 4000 4300 50  0001 C CNN
F 3 "" H 4000 4300 50  0001 C CNN
	1    4000 4100
	1    0    0    -1  
$EndComp
$Comp
L polymer:DIODE D8
U 1 1 5BD135A3
P 4200 4250
F 0 "D8" V 4246 4171 50  0000 R CNN
F 1 "D" V 4155 4171 50  0000 R CNN
F 2 "polymer:D_SOD123_axial" H 4200 4250 50  0001 C CNN
F 3 "~" H 4200 4250 50  0001 C CNN
	1    4200 4250
	0    -1   -1   0   
$EndComp
$Comp
L polymer:SW SW9
U 1 1 5BD135AA
P 4000 4700
AR Path="/5BD135AA" Ref="SW9"  Part="1" 
AR Path="/5BCB8B3B/5BD135AA" Ref="SW9"  Part="1" 
F 0 "SW9" H 4000 4900 50  0000 C CNN
F 1 "~" H 4000 4894 50  0000 C CNN
F 2 "keebio:Hybrid_PCB_100H_hole" H 4000 4900 50  0001 C CNN
F 3 "" H 4000 4900 50  0001 C CNN
	1    4000 4700
	1    0    0    -1  
$EndComp
$Comp
L polymer:DIODE D9
U 1 1 5BD135B1
P 4200 4850
F 0 "D9" V 4246 4771 50  0000 R CNN
F 1 "D" V 4155 4771 50  0000 R CNN
F 2 "polymer:D_SOD123_axial" H 4200 4850 50  0001 C CNN
F 3 "~" H 4200 4850 50  0001 C CNN
	1    4200 4850
	0    -1   -1   0   
$EndComp
$Comp
L polymer:SW SW10
U 1 1 5BD135B8
P 4000 5300
AR Path="/5BD135B8" Ref="SW10"  Part="1" 
AR Path="/5BCB8B3B/5BD135B8" Ref="SW10"  Part="1" 
F 0 "SW10" H 4000 5500 50  0000 C CNN
F 1 "~" H 4000 5494 50  0000 C CNN
F 2 "keebio:Hybrid_PCB_100H_hole" H 4000 5500 50  0001 C CNN
F 3 "" H 4000 5500 50  0001 C CNN
	1    4000 5300
	1    0    0    -1  
$EndComp
$Comp
L polymer:DIODE D10
U 1 1 5BD135BF
P 4200 5450
F 0 "D10" V 4246 5371 50  0000 R CNN
F 1 "D" V 4155 5371 50  0000 R CNN
F 2 "polymer:D_SOD123_axial" H 4200 5450 50  0001 C CNN
F 3 "~" H 4200 5450 50  0001 C CNN
	1    4200 5450
	0    -1   -1   0   
$EndComp
$Comp
L polymer:SW SW11
U 1 1 5BD13D1E
P 4700 2900
AR Path="/5BD13D1E" Ref="SW11"  Part="1" 
AR Path="/5BCB8B3B/5BD13D1E" Ref="SW11"  Part="1" 
F 0 "SW11" H 4700 3100 50  0000 C CNN
F 1 "~" H 4700 3094 50  0000 C CNN
F 2 "keebio:Hybrid_PCB_100H_hole" H 4700 3100 50  0001 C CNN
F 3 "" H 4700 3100 50  0001 C CNN
	1    4700 2900
	1    0    0    -1  
$EndComp
$Comp
L polymer:DIODE D11
U 1 1 5BD13D25
P 4900 3050
F 0 "D11" V 4946 2971 50  0000 R CNN
F 1 "D" V 4855 2971 50  0000 R CNN
F 2 "polymer:D_SOD123_axial" H 4900 3050 50  0001 C CNN
F 3 "~" H 4900 3050 50  0001 C CNN
	1    4900 3050
	0    -1   -1   0   
$EndComp
$Comp
L polymer:SW SW12
U 1 1 5BD13D2C
P 4700 3500
AR Path="/5BD13D2C" Ref="SW12"  Part="1" 
AR Path="/5BCB8B3B/5BD13D2C" Ref="SW12"  Part="1" 
F 0 "SW12" H 4700 3700 50  0000 C CNN
F 1 "~" H 4700 3694 50  0000 C CNN
F 2 "keebio:Hybrid_PCB_100H_hole" H 4700 3700 50  0001 C CNN
F 3 "" H 4700 3700 50  0001 C CNN
	1    4700 3500
	1    0    0    -1  
$EndComp
$Comp
L polymer:DIODE D12
U 1 1 5BD13D33
P 4900 3650
F 0 "D12" V 4946 3571 50  0000 R CNN
F 1 "D" V 4855 3571 50  0000 R CNN
F 2 "polymer:D_SOD123_axial" H 4900 3650 50  0001 C CNN
F 3 "~" H 4900 3650 50  0001 C CNN
	1    4900 3650
	0    -1   -1   0   
$EndComp
$Comp
L polymer:SW SW13
U 1 1 5BD13D3A
P 4700 4100
AR Path="/5BD13D3A" Ref="SW13"  Part="1" 
AR Path="/5BCB8B3B/5BD13D3A" Ref="SW13"  Part="1" 
F 0 "SW13" H 4700 4300 50  0000 C CNN
F 1 "~" H 4700 4294 50  0000 C CNN
F 2 "keebio:Hybrid_PCB_100H_hole" H 4700 4300 50  0001 C CNN
F 3 "" H 4700 4300 50  0001 C CNN
	1    4700 4100
	1    0    0    -1  
$EndComp
$Comp
L polymer:DIODE D13
U 1 1 5BD13D41
P 4900 4250
F 0 "D13" V 4946 4171 50  0000 R CNN
F 1 "D" V 4855 4171 50  0000 R CNN
F 2 "polymer:D_SOD123_axial" H 4900 4250 50  0001 C CNN
F 3 "~" H 4900 4250 50  0001 C CNN
	1    4900 4250
	0    -1   -1   0   
$EndComp
$Comp
L polymer:SW SW14
U 1 1 5BD13D48
P 4700 4700
AR Path="/5BD13D48" Ref="SW14"  Part="1" 
AR Path="/5BCB8B3B/5BD13D48" Ref="SW14"  Part="1" 
F 0 "SW14" H 4700 4900 50  0000 C CNN
F 1 "~" H 4700 4894 50  0000 C CNN
F 2 "keebio:Hybrid_PCB_100H_hole" H 4700 4900 50  0001 C CNN
F 3 "" H 4700 4900 50  0001 C CNN
	1    4700 4700
	1    0    0    -1  
$EndComp
$Comp
L polymer:DIODE D14
U 1 1 5BD13D4F
P 4900 4850
F 0 "D14" V 4946 4771 50  0000 R CNN
F 1 "D" V 4855 4771 50  0000 R CNN
F 2 "polymer:D_SOD123_axial" H 4900 4850 50  0001 C CNN
F 3 "~" H 4900 4850 50  0001 C CNN
	1    4900 4850
	0    -1   -1   0   
$EndComp
$Comp
L polymer:SW SW15
U 1 1 5BD13D56
P 4700 5300
AR Path="/5BD13D56" Ref="SW15"  Part="1" 
AR Path="/5BCB8B3B/5BD13D56" Ref="SW15"  Part="1" 
F 0 "SW15" H 4700 5500 50  0000 C CNN
F 1 "~" H 4700 5494 50  0000 C CNN
F 2 "keebio:Hybrid_PCB_100H_hole" H 4700 5500 50  0001 C CNN
F 3 "" H 4700 5500 50  0001 C CNN
	1    4700 5300
	1    0    0    -1  
$EndComp
$Comp
L polymer:DIODE D15
U 1 1 5BD13D5D
P 4900 5450
F 0 "D15" V 4946 5371 50  0000 R CNN
F 1 "D" V 4855 5371 50  0000 R CNN
F 2 "polymer:D_SOD123_axial" H 4900 5450 50  0001 C CNN
F 3 "~" H 4900 5450 50  0001 C CNN
	1    4900 5450
	0    -1   -1   0   
$EndComp
$Comp
L polymer:SW SW16
U 1 1 5BD13D64
P 5400 2900
AR Path="/5BD13D64" Ref="SW16"  Part="1" 
AR Path="/5BCB8B3B/5BD13D64" Ref="SW16"  Part="1" 
F 0 "SW16" H 5400 3100 50  0000 C CNN
F 1 "~" H 5400 3094 50  0000 C CNN
F 2 "keebio:Hybrid_PCB_100H_hole" H 5400 3100 50  0001 C CNN
F 3 "" H 5400 3100 50  0001 C CNN
	1    5400 2900
	1    0    0    -1  
$EndComp
$Comp
L polymer:DIODE D16
U 1 1 5BD13D6B
P 5600 3050
F 0 "D16" V 5646 2971 50  0000 R CNN
F 1 "D" V 5555 2971 50  0000 R CNN
F 2 "polymer:D_SOD123_axial" H 5600 3050 50  0001 C CNN
F 3 "~" H 5600 3050 50  0001 C CNN
	1    5600 3050
	0    -1   -1   0   
$EndComp
$Comp
L polymer:SW SW17
U 1 1 5BD13D72
P 5400 3500
AR Path="/5BD13D72" Ref="SW17"  Part="1" 
AR Path="/5BCB8B3B/5BD13D72" Ref="SW17"  Part="1" 
F 0 "SW17" H 5400 3700 50  0000 C CNN
F 1 "~" H 5400 3694 50  0000 C CNN
F 2 "keebio:Hybrid_PCB_100H_hole" H 5400 3700 50  0001 C CNN
F 3 "" H 5400 3700 50  0001 C CNN
	1    5400 3500
	1    0    0    -1  
$EndComp
$Comp
L polymer:DIODE D17
U 1 1 5BD13D79
P 5600 3650
F 0 "D17" V 5646 3571 50  0000 R CNN
F 1 "D" V 5555 3571 50  0000 R CNN
F 2 "polymer:D_SOD123_axial" H 5600 3650 50  0001 C CNN
F 3 "~" H 5600 3650 50  0001 C CNN
	1    5600 3650
	0    -1   -1   0   
$EndComp
$Comp
L polymer:SW SW18
U 1 1 5BD13D80
P 5400 4100
AR Path="/5BD13D80" Ref="SW18"  Part="1" 
AR Path="/5BCB8B3B/5BD13D80" Ref="SW18"  Part="1" 
F 0 "SW18" H 5400 4300 50  0000 C CNN
F 1 "~" H 5400 4294 50  0000 C CNN
F 2 "keebio:Hybrid_PCB_100H_hole" H 5400 4300 50  0001 C CNN
F 3 "" H 5400 4300 50  0001 C CNN
	1    5400 4100
	1    0    0    -1  
$EndComp
$Comp
L polymer:DIODE D18
U 1 1 5BD13D87
P 5600 4250
F 0 "D18" V 5646 4171 50  0000 R CNN
F 1 "D" V 5555 4171 50  0000 R CNN
F 2 "polymer:D_SOD123_axial" H 5600 4250 50  0001 C CNN
F 3 "~" H 5600 4250 50  0001 C CNN
	1    5600 4250
	0    -1   -1   0   
$EndComp
$Comp
L polymer:SW SW19
U 1 1 5BD13D8E
P 5400 4700
AR Path="/5BD13D8E" Ref="SW19"  Part="1" 
AR Path="/5BCB8B3B/5BD13D8E" Ref="SW19"  Part="1" 
F 0 "SW19" H 5400 4900 50  0000 C CNN
F 1 "~" H 5400 4894 50  0000 C CNN
F 2 "keebio:Hybrid_PCB_100H_hole" H 5400 4900 50  0001 C CNN
F 3 "" H 5400 4900 50  0001 C CNN
	1    5400 4700
	1    0    0    -1  
$EndComp
$Comp
L polymer:DIODE D19
U 1 1 5BD13D95
P 5600 4850
F 0 "D19" V 5646 4771 50  0000 R CNN
F 1 "D" V 5555 4771 50  0000 R CNN
F 2 "polymer:D_SOD123_axial" H 5600 4850 50  0001 C CNN
F 3 "~" H 5600 4850 50  0001 C CNN
	1    5600 4850
	0    -1   -1   0   
$EndComp
$Comp
L polymer:SW SW20
U 1 1 5BD13D9C
P 5400 5300
AR Path="/5BD13D9C" Ref="SW20"  Part="1" 
AR Path="/5BCB8B3B/5BD13D9C" Ref="SW20"  Part="1" 
F 0 "SW20" H 5400 5500 50  0000 C CNN
F 1 "~" H 5400 5494 50  0000 C CNN
F 2 "keebio:Hybrid_PCB_100H_hole" H 5400 5500 50  0001 C CNN
F 3 "" H 5400 5500 50  0001 C CNN
	1    5400 5300
	1    0    0    -1  
$EndComp
$Comp
L polymer:DIODE D20
U 1 1 5BD13DA3
P 5600 5450
F 0 "D20" V 5646 5371 50  0000 R CNN
F 1 "D" V 5555 5371 50  0000 R CNN
F 2 "polymer:D_SOD123_axial" H 5600 5450 50  0001 C CNN
F 3 "~" H 5600 5450 50  0001 C CNN
	1    5600 5450
	0    -1   -1   0   
$EndComp
$Comp
L polymer:SW SW21
U 1 1 5BD147FA
P 6100 2900
AR Path="/5BD147FA" Ref="SW21"  Part="1" 
AR Path="/5BCB8B3B/5BD147FA" Ref="SW21"  Part="1" 
F 0 "SW21" H 6100 3100 50  0000 C CNN
F 1 "~" H 6100 3094 50  0000 C CNN
F 2 "keebio:Hybrid_PCB_100H_hole" H 6100 3100 50  0001 C CNN
F 3 "" H 6100 3100 50  0001 C CNN
	1    6100 2900
	1    0    0    -1  
$EndComp
$Comp
L polymer:DIODE D21
U 1 1 5BD14801
P 6300 3050
F 0 "D21" V 6346 2971 50  0000 R CNN
F 1 "D" V 6255 2971 50  0000 R CNN
F 2 "polymer:D_SOD123_axial" H 6300 3050 50  0001 C CNN
F 3 "~" H 6300 3050 50  0001 C CNN
	1    6300 3050
	0    -1   -1   0   
$EndComp
$Comp
L polymer:SW SW22
U 1 1 5BD14808
P 6100 3500
AR Path="/5BD14808" Ref="SW22"  Part="1" 
AR Path="/5BCB8B3B/5BD14808" Ref="SW22"  Part="1" 
F 0 "SW22" H 6100 3700 50  0000 C CNN
F 1 "~" H 6100 3694 50  0000 C CNN
F 2 "keebio:Hybrid_PCB_100H_hole" H 6100 3700 50  0001 C CNN
F 3 "" H 6100 3700 50  0001 C CNN
	1    6100 3500
	1    0    0    -1  
$EndComp
$Comp
L polymer:DIODE D22
U 1 1 5BD1480F
P 6300 3650
F 0 "D22" V 6346 3571 50  0000 R CNN
F 1 "D" V 6255 3571 50  0000 R CNN
F 2 "polymer:D_SOD123_axial" H 6300 3650 50  0001 C CNN
F 3 "~" H 6300 3650 50  0001 C CNN
	1    6300 3650
	0    -1   -1   0   
$EndComp
$Comp
L polymer:SW SW23
U 1 1 5BD14816
P 6100 4100
AR Path="/5BD14816" Ref="SW23"  Part="1" 
AR Path="/5BCB8B3B/5BD14816" Ref="SW23"  Part="1" 
F 0 "SW23" H 6100 4300 50  0000 C CNN
F 1 "~" H 6100 4294 50  0000 C CNN
F 2 "keebio:Hybrid_PCB_100H_hole" H 6100 4300 50  0001 C CNN
F 3 "" H 6100 4300 50  0001 C CNN
	1    6100 4100
	1    0    0    -1  
$EndComp
$Comp
L polymer:DIODE D23
U 1 1 5BD1481D
P 6300 4250
F 0 "D23" V 6346 4171 50  0000 R CNN
F 1 "D" V 6255 4171 50  0000 R CNN
F 2 "polymer:D_SOD123_axial" H 6300 4250 50  0001 C CNN
F 3 "~" H 6300 4250 50  0001 C CNN
	1    6300 4250
	0    -1   -1   0   
$EndComp
$Comp
L polymer:SW SW24
U 1 1 5BD14824
P 6100 4700
AR Path="/5BD14824" Ref="SW24"  Part="1" 
AR Path="/5BCB8B3B/5BD14824" Ref="SW24"  Part="1" 
F 0 "SW24" H 6100 4900 50  0000 C CNN
F 1 "~" H 6100 4894 50  0000 C CNN
F 2 "keebio:Hybrid_PCB_100H_hole" H 6100 4900 50  0001 C CNN
F 3 "" H 6100 4900 50  0001 C CNN
	1    6100 4700
	1    0    0    -1  
$EndComp
$Comp
L polymer:DIODE D24
U 1 1 5BD1482B
P 6300 4850
F 0 "D24" V 6346 4771 50  0000 R CNN
F 1 "D" V 6255 4771 50  0000 R CNN
F 2 "polymer:D_SOD123_axial" H 6300 4850 50  0001 C CNN
F 3 "~" H 6300 4850 50  0001 C CNN
	1    6300 4850
	0    -1   -1   0   
$EndComp
$Comp
L polymer:SW SW25
U 1 1 5BD14832
P 6100 5300
AR Path="/5BD14832" Ref="SW25"  Part="1" 
AR Path="/5BCB8B3B/5BD14832" Ref="SW25"  Part="1" 
F 0 "SW25" H 6100 5500 50  0000 C CNN
F 1 "~" H 6100 5494 50  0000 C CNN
F 2 "keebio:Hybrid_PCB_100H_hole" H 6100 5500 50  0001 C CNN
F 3 "" H 6100 5500 50  0001 C CNN
	1    6100 5300
	1    0    0    -1  
$EndComp
$Comp
L polymer:DIODE D25
U 1 1 5BD14839
P 6300 5450
F 0 "D25" V 6346 5371 50  0000 R CNN
F 1 "D" V 6255 5371 50  0000 R CNN
F 2 "polymer:D_SOD123_axial" H 6300 5450 50  0001 C CNN
F 3 "~" H 6300 5450 50  0001 C CNN
	1    6300 5450
	0    -1   -1   0   
$EndComp
$Comp
L polymer:SW SW26
U 1 1 5BD14840
P 6800 2900
AR Path="/5BD14840" Ref="SW26"  Part="1" 
AR Path="/5BCB8B3B/5BD14840" Ref="SW26"  Part="1" 
F 0 "SW26" H 6800 3100 50  0000 C CNN
F 1 "~" H 6800 3094 50  0000 C CNN
F 2 "keebio:Hybrid_PCB_100H_hole" H 6800 3100 50  0001 C CNN
F 3 "" H 6800 3100 50  0001 C CNN
	1    6800 2900
	1    0    0    -1  
$EndComp
$Comp
L polymer:DIODE D26
U 1 1 5BD14847
P 7000 3050
F 0 "D26" V 7046 2971 50  0000 R CNN
F 1 "D" V 6955 2971 50  0000 R CNN
F 2 "polymer:D_SOD123_axial" H 7000 3050 50  0001 C CNN
F 3 "~" H 7000 3050 50  0001 C CNN
	1    7000 3050
	0    -1   -1   0   
$EndComp
$Comp
L polymer:SW SW27
U 1 1 5BD1484E
P 6800 3500
AR Path="/5BD1484E" Ref="SW27"  Part="1" 
AR Path="/5BCB8B3B/5BD1484E" Ref="SW27"  Part="1" 
F 0 "SW27" H 6800 3700 50  0000 C CNN
F 1 "~" H 6800 3694 50  0000 C CNN
F 2 "keebio:Hybrid_PCB_100H_hole" H 6800 3700 50  0001 C CNN
F 3 "" H 6800 3700 50  0001 C CNN
	1    6800 3500
	1    0    0    -1  
$EndComp
$Comp
L polymer:DIODE D27
U 1 1 5BD14855
P 7000 3650
F 0 "D27" V 7046 3571 50  0000 R CNN
F 1 "D" V 6955 3571 50  0000 R CNN
F 2 "polymer:D_SOD123_axial" H 7000 3650 50  0001 C CNN
F 3 "~" H 7000 3650 50  0001 C CNN
	1    7000 3650
	0    -1   -1   0   
$EndComp
$Comp
L polymer:SW SW28
U 1 1 5BD1485C
P 6800 4100
AR Path="/5BD1485C" Ref="SW28"  Part="1" 
AR Path="/5BCB8B3B/5BD1485C" Ref="SW28"  Part="1" 
F 0 "SW28" H 6800 4300 50  0000 C CNN
F 1 "~" H 6800 4294 50  0000 C CNN
F 2 "keebio:Hybrid_PCB_100H_hole" H 6800 4300 50  0001 C CNN
F 3 "" H 6800 4300 50  0001 C CNN
	1    6800 4100
	1    0    0    -1  
$EndComp
$Comp
L polymer:DIODE D28
U 1 1 5BD14863
P 7000 4250
F 0 "D28" V 7046 4171 50  0000 R CNN
F 1 "D" V 6955 4171 50  0000 R CNN
F 2 "polymer:D_SOD123_axial" H 7000 4250 50  0001 C CNN
F 3 "~" H 7000 4250 50  0001 C CNN
	1    7000 4250
	0    -1   -1   0   
$EndComp
$Comp
L polymer:SW SW29
U 1 1 5BD1486A
P 6800 4700
AR Path="/5BD1486A" Ref="SW29"  Part="1" 
AR Path="/5BCB8B3B/5BD1486A" Ref="SW29"  Part="1" 
F 0 "SW29" H 6800 4900 50  0000 C CNN
F 1 "~" H 6800 4894 50  0000 C CNN
F 2 "keebio:Hybrid_PCB_100H_hole" H 6800 4900 50  0001 C CNN
F 3 "" H 6800 4900 50  0001 C CNN
	1    6800 4700
	1    0    0    -1  
$EndComp
$Comp
L polymer:DIODE D29
U 1 1 5BD14871
P 7000 4850
F 0 "D29" V 7046 4771 50  0000 R CNN
F 1 "D" V 6955 4771 50  0000 R CNN
F 2 "polymer:D_SOD123_axial" H 7000 4850 50  0001 C CNN
F 3 "~" H 7000 4850 50  0001 C CNN
	1    7000 4850
	0    -1   -1   0   
$EndComp
$Comp
L polymer:SW SW30
U 1 1 5BD14878
P 6800 5300
AR Path="/5BD14878" Ref="SW30"  Part="1" 
AR Path="/5BCB8B3B/5BD14878" Ref="SW30"  Part="1" 
F 0 "SW30" H 6800 5500 50  0000 C CNN
F 1 "~" H 6800 5494 50  0000 C CNN
F 2 "keebio:Hybrid_PCB_100H_hole" H 6800 5500 50  0001 C CNN
F 3 "" H 6800 5500 50  0001 C CNN
	1    6800 5300
	1    0    0    -1  
$EndComp
$Comp
L polymer:DIODE D30
U 1 1 5BD1487F
P 7000 5450
F 0 "D30" V 7046 5371 50  0000 R CNN
F 1 "D" V 6955 5371 50  0000 R CNN
F 2 "polymer:D_SOD123_axial" H 7000 5450 50  0001 C CNN
F 3 "~" H 7000 5450 50  0001 C CNN
	1    7000 5450
	0    -1   -1   0   
$EndComp
$Comp
L polymer:SW SW31
U 1 1 5BD14EC6
P 7500 2900
AR Path="/5BD14EC6" Ref="SW31"  Part="1" 
AR Path="/5BCB8B3B/5BD14EC6" Ref="SW31"  Part="1" 
F 0 "SW31" H 7500 3100 50  0000 C CNN
F 1 "~" H 7500 3094 50  0000 C CNN
F 2 "keebio:Hybrid_PCB_100H_hole" H 7500 3100 50  0001 C CNN
F 3 "" H 7500 3100 50  0001 C CNN
	1    7500 2900
	1    0    0    -1  
$EndComp
$Comp
L polymer:DIODE D31
U 1 1 5BD14ECD
P 7700 3050
F 0 "D31" V 7746 2971 50  0000 R CNN
F 1 "D" V 7655 2971 50  0000 R CNN
F 2 "polymer:D_SOD123_axial" H 7700 3050 50  0001 C CNN
F 3 "~" H 7700 3050 50  0001 C CNN
	1    7700 3050
	0    -1   -1   0   
$EndComp
$Comp
L polymer:SW SW32
U 1 1 5BD14ED4
P 7500 3500
AR Path="/5BD14ED4" Ref="SW32"  Part="1" 
AR Path="/5BCB8B3B/5BD14ED4" Ref="SW32"  Part="1" 
F 0 "SW32" H 7500 3700 50  0000 C CNN
F 1 "~" H 7500 3694 50  0000 C CNN
F 2 "keebio:Hybrid_PCB_100H_hole" H 7500 3700 50  0001 C CNN
F 3 "" H 7500 3700 50  0001 C CNN
	1    7500 3500
	1    0    0    -1  
$EndComp
$Comp
L polymer:DIODE D32
U 1 1 5BD14EDB
P 7700 3650
F 0 "D32" V 7746 3571 50  0000 R CNN
F 1 "D" V 7655 3571 50  0000 R CNN
F 2 "polymer:D_SOD123_axial" H 7700 3650 50  0001 C CNN
F 3 "~" H 7700 3650 50  0001 C CNN
	1    7700 3650
	0    -1   -1   0   
$EndComp
$Comp
L polymer:SW SW33
U 1 1 5BD14EE2
P 7500 4100
AR Path="/5BD14EE2" Ref="SW33"  Part="1" 
AR Path="/5BCB8B3B/5BD14EE2" Ref="SW33"  Part="1" 
F 0 "SW33" H 7500 4300 50  0000 C CNN
F 1 "~" H 7500 4294 50  0000 C CNN
F 2 "keebio:Hybrid_PCB_100H_hole" H 7500 4300 50  0001 C CNN
F 3 "" H 7500 4300 50  0001 C CNN
	1    7500 4100
	1    0    0    -1  
$EndComp
$Comp
L polymer:DIODE D33
U 1 1 5BD14EE9
P 7700 4250
F 0 "D33" V 7746 4171 50  0000 R CNN
F 1 "D" V 7655 4171 50  0000 R CNN
F 2 "polymer:D_SOD123_axial" H 7700 4250 50  0001 C CNN
F 3 "~" H 7700 4250 50  0001 C CNN
	1    7700 4250
	0    -1   -1   0   
$EndComp
$Comp
L polymer:SW SW34
U 1 1 5BD14EF0
P 7500 4700
AR Path="/5BD14EF0" Ref="SW34"  Part="1" 
AR Path="/5BCB8B3B/5BD14EF0" Ref="SW34"  Part="1" 
F 0 "SW34" H 7500 4900 50  0000 C CNN
F 1 "~" H 7500 4894 50  0000 C CNN
F 2 "keebio:Hybrid_PCB_100H_hole" H 7500 4900 50  0001 C CNN
F 3 "" H 7500 4900 50  0001 C CNN
	1    7500 4700
	1    0    0    -1  
$EndComp
$Comp
L polymer:DIODE D34
U 1 1 5BD14EF7
P 7700 4850
F 0 "D34" V 7746 4771 50  0000 R CNN
F 1 "D" V 7655 4771 50  0000 R CNN
F 2 "polymer:D_SOD123_axial" H 7700 4850 50  0001 C CNN
F 3 "~" H 7700 4850 50  0001 C CNN
	1    7700 4850
	0    -1   -1   0   
$EndComp
$Comp
L polymer:SW SW35
U 1 1 5BD14EFE
P 7500 5300
AR Path="/5BD14EFE" Ref="SW35"  Part="1" 
AR Path="/5BCB8B3B/5BD14EFE" Ref="SW35"  Part="1" 
F 0 "SW35" H 7500 5500 50  0000 C CNN
F 1 "~" H 7500 5494 50  0000 C CNN
F 2 "keebio:Hybrid_PCB_100H_hole" H 7500 5500 50  0001 C CNN
F 3 "" H 7500 5500 50  0001 C CNN
	1    7500 5300
	1    0    0    -1  
$EndComp
$Comp
L polymer:DIODE D35
U 1 1 5BD14F05
P 7700 5450
F 0 "D35" V 7746 5371 50  0000 R CNN
F 1 "D" V 7655 5371 50  0000 R CNN
F 2 "polymer:D_SOD123_axial" H 7700 5450 50  0001 C CNN
F 3 "~" H 7700 5450 50  0001 C CNN
	1    7700 5450
	0    -1   -1   0   
$EndComp
Wire Wire Line
	3100 5300 3100 4700
Connection ~ 3100 2900
Wire Wire Line
	3100 2900 3100 2200
Connection ~ 3100 3500
Wire Wire Line
	3100 3500 3100 2900
Connection ~ 3100 4100
Wire Wire Line
	3100 4100 3100 3500
Connection ~ 3100 4700
Wire Wire Line
	3100 4700 3100 4100
Wire Wire Line
	3800 2200 3800 2900
Connection ~ 3800 2900
Wire Wire Line
	3800 2900 3800 3500
Connection ~ 3800 3500
Wire Wire Line
	3800 3500 3800 4100
Connection ~ 3800 4100
Wire Wire Line
	3800 4100 3800 4700
Connection ~ 3800 4700
Wire Wire Line
	3800 4700 3800 5300
Wire Wire Line
	4500 5300 4500 4700
Connection ~ 4500 2900
Wire Wire Line
	4500 2900 4500 2200
Connection ~ 4500 3500
Wire Wire Line
	4500 3500 4500 2900
Connection ~ 4500 4100
Wire Wire Line
	4500 4100 4500 3500
Connection ~ 4500 4700
Wire Wire Line
	4500 4700 4500 4100
Wire Wire Line
	5200 5300 5200 4700
Connection ~ 5200 2900
Wire Wire Line
	5200 2900 5200 2200
Connection ~ 5200 3500
Wire Wire Line
	5200 3500 5200 2900
Connection ~ 5200 4100
Wire Wire Line
	5200 4100 5200 3500
Connection ~ 5200 4700
Wire Wire Line
	5200 4700 5200 4100
Wire Wire Line
	5900 5300 5900 4700
Connection ~ 5900 2900
Wire Wire Line
	5900 2900 5900 2200
Connection ~ 5900 3500
Wire Wire Line
	5900 3500 5900 2900
Connection ~ 5900 4100
Wire Wire Line
	5900 4100 5900 3500
Connection ~ 5900 4700
Wire Wire Line
	5900 4700 5900 4100
Wire Wire Line
	6600 5300 6600 4700
Connection ~ 6600 2900
Wire Wire Line
	6600 2900 6600 2200
Connection ~ 6600 3500
Wire Wire Line
	6600 3500 6600 2900
Connection ~ 6600 4100
Wire Wire Line
	6600 4100 6600 3500
Connection ~ 6600 4700
Wire Wire Line
	6600 4700 6600 4100
Wire Wire Line
	7300 5300 7300 4700
Connection ~ 7300 2900
Wire Wire Line
	7300 2900 7300 2200
Connection ~ 7300 3500
Wire Wire Line
	7300 3500 7300 2900
Connection ~ 7300 4100
Wire Wire Line
	7300 4100 7300 3500
Connection ~ 7300 4700
Wire Wire Line
	7300 4700 7300 4100
Wire Wire Line
	3500 3200 4200 3200
Connection ~ 4200 3200
Wire Wire Line
	4200 3200 4900 3200
Connection ~ 4900 3200
Wire Wire Line
	4900 3200 5600 3200
Connection ~ 5600 3200
Wire Wire Line
	5600 3200 6300 3200
Connection ~ 6300 3200
Wire Wire Line
	6300 3200 7000 3200
Connection ~ 7000 3200
Wire Wire Line
	7000 3200 7700 3200
Connection ~ 7700 3200
Wire Wire Line
	7700 3200 8250 3200
Wire Wire Line
	3500 3800 4200 3800
Connection ~ 4200 3800
Wire Wire Line
	4200 3800 4900 3800
Connection ~ 4900 3800
Wire Wire Line
	4900 3800 5600 3800
Connection ~ 5600 3800
Wire Wire Line
	5600 3800 6300 3800
Connection ~ 6300 3800
Wire Wire Line
	6300 3800 7000 3800
Connection ~ 7000 3800
Wire Wire Line
	7000 3800 7700 3800
Connection ~ 7700 3800
Wire Wire Line
	7700 3800 8250 3800
Wire Wire Line
	3500 4400 4200 4400
Connection ~ 4200 4400
Wire Wire Line
	4200 4400 4900 4400
Connection ~ 4900 4400
Wire Wire Line
	4900 4400 5600 4400
Connection ~ 5600 4400
Wire Wire Line
	5600 4400 6300 4400
Connection ~ 6300 4400
Wire Wire Line
	6300 4400 7000 4400
Connection ~ 7000 4400
Wire Wire Line
	7000 4400 7700 4400
Connection ~ 7700 4400
Wire Wire Line
	7700 4400 8250 4400
Wire Wire Line
	3500 5000 4200 5000
Connection ~ 4200 5000
Wire Wire Line
	4200 5000 4900 5000
Connection ~ 4900 5000
Wire Wire Line
	4900 5000 5600 5000
Connection ~ 5600 5000
Wire Wire Line
	5600 5000 6300 5000
Connection ~ 6300 5000
Wire Wire Line
	6300 5000 7000 5000
Connection ~ 7000 5000
Wire Wire Line
	7000 5000 7700 5000
Connection ~ 7700 5000
Wire Wire Line
	7700 5000 8250 5000
Wire Wire Line
	3500 5600 4200 5600
Connection ~ 4200 5600
Wire Wire Line
	4200 5600 4900 5600
Connection ~ 4900 5600
Wire Wire Line
	4900 5600 5600 5600
Connection ~ 5600 5600
Wire Wire Line
	5600 5600 6300 5600
Connection ~ 6300 5600
Wire Wire Line
	6300 5600 7000 5600
Connection ~ 7000 5600
Wire Wire Line
	7000 5600 7700 5600
Connection ~ 7700 5600
Wire Wire Line
	7700 5600 8250 5600
Text HLabel 3100 2200 1    50   Input ~ 0
COL1
Text HLabel 3800 2200 1    50   Input ~ 0
COL2
Text HLabel 4500 2200 1    50   Input ~ 0
COL3
Text HLabel 5200 2200 1    50   Input ~ 0
COL4
Text HLabel 5900 2200 1    50   Input ~ 0
COL5
Text HLabel 6600 2200 1    50   Input ~ 0
COL6
Text HLabel 7300 2200 1    50   Input ~ 0
COL7
Text HLabel 8250 3200 2    50   Input ~ 0
ROW1
Text HLabel 8250 3800 2    50   Input ~ 0
ROW2
Text HLabel 8250 4400 2    50   Input ~ 0
ROW3
Text HLabel 8250 5000 2    50   Input ~ 0
ROW4
Text HLabel 8250 5600 2    50   Input ~ 0
ROW5
$EndSCHEMATC
