M48
; DRILL file {KiCad 5.1.2} date Wed 19 Jun 2019 05:46:58 PM EDT
; FORMAT={-:-/ absolute / inch / decimal}
; #@! TF.CreationDate,2019-06-19T17:46:58-04:00
; #@! TF.GenerationSoftware,Kicad,Pcbnew,5.1.2
; #@! TF.FileFunction,Plated,1,2,PTH
FMAT,2
INCH
T1C0.0000
T2C0.0157
T3C0.0276
T4C0.0430
T5C0.0600
%
G90
G05
T1
X6.6081Y-5.1075
X6.8315Y-5.0476
X4.364Y-5.1075
X4.5874Y-5.0476
X5.112Y-2.8634
X5.3354Y-2.8035
X5.86Y-5.1075
X6.0835Y-5.0476
X3.6159Y-2.8634
X3.8394Y-2.8035
X7.3561Y-2.8634
X7.5795Y-2.8035
X5.112Y-3.6114
X5.3354Y-3.5516
X8.1041Y-5.1075
X8.3276Y-5.0476
X7.3561Y-2.1154
X7.5795Y-2.0555
X7.3561Y-3.6114
X7.5795Y-3.5516
X5.86Y-3.6114
X6.0835Y-3.5516
X3.6159Y-4.3594
X3.8394Y-4.2996
X3.6159Y-5.1075
X3.8394Y-5.0476
X4.364Y-2.8634
X4.5874Y-2.8035
X8.1041Y-2.8634
X8.3276Y-2.8035
X4.364Y-3.6114
X4.5874Y-3.5516
X6.6081Y-2.8634
X6.8315Y-2.8035
X8.1041Y-3.6114
X8.3276Y-3.5516
X5.112Y-5.1075
X5.3354Y-5.0476
X5.112Y-2.1154
X5.3354Y-2.0555
X6.6081Y-2.1154
X6.8315Y-2.0555
X7.3561Y-4.3594
X7.5795Y-4.2996
X4.364Y-4.3594
X4.5874Y-4.2996
X5.112Y-4.3594
X5.3354Y-4.2996
X8.1041Y-2.1154
X8.3276Y-2.0555
X7.3561Y-5.1075
X7.5795Y-5.0476
X4.364Y-2.1154
X4.5874Y-2.0555
X6.6081Y-4.3594
X6.8315Y-4.2996
X3.6159Y-2.1154
X3.8394Y-2.0555
X5.86Y-2.1154
X6.0835Y-2.0555
X8.1041Y-4.3594
X8.3276Y-4.2996
X5.86Y-2.8634
X6.0835Y-2.8035
X5.86Y-4.3594
X6.0835Y-4.2996
X3.6159Y-3.6114
X3.8394Y-3.5516
X6.6081Y-3.6114
X6.8315Y-3.5516
T2
X5.5246Y-1.9557
X5.563Y-1.8898
X5.611Y-1.9835
X7.4587Y-1.8435
T3
X6.5787Y-4.1142
X6.8858Y-4.1142
X7.3268Y-2.6181
X7.6339Y-2.6181
X6.5787Y-2.6181
X6.8858Y-2.6181
X5.8307Y-4.1142
X6.1378Y-4.1142
X6.3583Y-5.0827
X6.3583Y-5.3898
X7.1063Y-5.0827
X7.1063Y-5.3898
X5.0827Y-4.1142
X5.3898Y-4.1142
X4.3346Y-2.6181
X4.6417Y-2.6181
X4.8622Y-4.3346
X4.8622Y-4.6417
X3.5866Y-2.6181
X3.8937Y-2.6181
X7.8543Y-3.5866
X7.8543Y-3.8937
X4.8622Y-3.5866
X4.8622Y-3.8937
X6.3583Y-4.3346
X6.3583Y-4.6417
X4.8622Y-2.0906
X4.8622Y-2.3976
X7.1063Y-4.3346
X7.1063Y-4.6417
X5.0827Y-3.3661
X5.3898Y-3.3661
X5.0827Y-4.8622
X5.3898Y-4.8622
X4.1142Y-4.3346
X4.1142Y-4.6417
X4.8622Y-2.8386
X4.8622Y-3.1457
X4.1142Y-2.8386
X4.1142Y-3.1457
X7.8543Y-5.0827
X7.8543Y-5.3898
X4.1142Y-5.0827
X4.1142Y-5.3898
X4.1142Y-3.5866
X4.1142Y-3.8937
X5.6102Y-4.3346
X5.6102Y-4.6417
X6.5787Y-3.3661
X6.8858Y-3.3661
X5.6102Y-5.0827
X5.6102Y-5.3898
X7.1063Y-3.5866
X7.1063Y-3.8937
X5.063Y-2.5984
X5.3701Y-2.5984
X7.1063Y-2.0906
X7.1063Y-2.3976
X4.8622Y-5.0827
X4.8622Y-5.3898
X7.8543Y-4.3346
X7.8543Y-4.6417
X6.5787Y-4.8622
X6.8858Y-4.8622
X7.1063Y-2.8386
X7.1063Y-3.1457
X8.0748Y-2.6181
X8.3819Y-2.6181
X7.8543Y-2.8386
X7.8543Y-3.1457
T4
X5.6843Y-1.7272
X5.6843Y-1.8272
X5.6843Y-1.9272
X5.6843Y-2.0272
X5.6843Y-2.1272
X5.6843Y-2.2272
X5.6843Y-2.3272
X5.6843Y-2.4272
X5.6843Y-2.5272
X5.6843Y-2.6272
X5.6843Y-2.7272
X5.6843Y-2.8272
X5.6843Y-2.9272
X5.6843Y-3.0272
X5.6843Y-3.1272
X5.6843Y-3.2272
X5.6843Y-3.3272
X5.6843Y-3.4272
X5.6843Y-3.5272
X5.6843Y-3.6272
X6.2843Y-1.7272
X6.2843Y-1.8272
X6.2843Y-1.9272
X6.2843Y-2.0272
X6.2843Y-2.1272
X6.2843Y-2.2272
X6.2843Y-2.3272
X6.2843Y-2.4272
X6.2843Y-2.5272
X6.2843Y-2.6272
X6.2843Y-2.7272
X6.2843Y-2.8272
X6.2843Y-2.9272
X6.2843Y-3.0272
X6.2843Y-3.1272
X6.2843Y-3.2272
X6.2843Y-3.3272
X6.2843Y-3.4272
X6.2843Y-3.5272
X6.2843Y-3.6272
T5
X8.0783Y-5.1362
X8.1299Y-5.0787
X8.3268Y-5.0591
X8.3283Y-5.0362
X7.3303Y-2.1441
X7.3819Y-2.0866
X7.5787Y-2.0669
X7.5803Y-2.0441
X7.3303Y-3.6402
X7.3819Y-3.5827
X7.5787Y-3.563
X7.5803Y-3.5402
X5.8343Y-3.6402
X5.8858Y-3.5827
X6.0827Y-3.563
X6.0843Y-3.5402
X3.5902Y-4.3882
X3.6417Y-4.3307
X3.8386Y-4.311
X3.8402Y-4.2882
X3.5902Y-5.1362
X3.6417Y-5.0787
X3.8386Y-5.0591
X3.8402Y-5.0362
X4.3382Y-2.8921
X4.3898Y-2.8346
X4.5866Y-2.815
X4.5882Y-2.7921
X8.0783Y-2.8921
X8.1299Y-2.8346
X8.3268Y-2.815
X8.3283Y-2.7921
X4.3382Y-3.6402
X4.3898Y-3.5827
X4.5866Y-3.563
X4.5882Y-3.5402
X6.5823Y-2.8921
X6.6339Y-2.8346
X6.8307Y-2.815
X6.8323Y-2.7921
X8.0783Y-3.6402
X8.1299Y-3.5827
X8.3268Y-3.563
X8.3283Y-3.5402
X5.0862Y-5.1362
X5.1378Y-5.0787
X5.3346Y-5.0591
X5.3362Y-5.0362
X5.0862Y-2.1441
X5.1378Y-2.0866
X5.3346Y-2.0669
X5.3362Y-2.0441
X6.5823Y-2.1441
X6.6339Y-2.0866
X6.8307Y-2.0669
X6.8323Y-2.0441
X7.3303Y-4.3882
X7.3819Y-4.3307
X7.5787Y-4.311
X7.5803Y-4.2882
X4.3382Y-4.3882
X4.3898Y-4.3307
X4.5866Y-4.311
X4.5882Y-4.2882
X5.0862Y-4.3882
X5.1378Y-4.3307
X5.3346Y-4.311
X5.3362Y-4.2882
X8.0783Y-2.1441
X8.1299Y-2.0866
X8.3268Y-2.0669
X8.3283Y-2.0441
X7.3303Y-5.1362
X7.3819Y-5.0787
X7.5787Y-5.0591
X7.5803Y-5.0362
X4.3382Y-2.1441
X4.3898Y-2.0866
X4.5866Y-2.0669
X4.5882Y-2.0441
X6.5823Y-4.3882
X6.6339Y-4.3307
X6.8307Y-4.311
X6.8323Y-4.2882
X3.5902Y-2.1441
X3.6417Y-2.0866
X3.8386Y-2.0669
X3.8402Y-2.0441
X5.8343Y-2.1441
X5.8858Y-2.0866
X6.0827Y-2.0669
X6.0843Y-2.0441
X8.0783Y-4.3882
X8.1299Y-4.3307
X8.3268Y-4.311
X8.3283Y-4.2882
X5.8343Y-2.8921
X5.8858Y-2.8346
X6.0827Y-2.815
X6.0843Y-2.7921
X5.8343Y-4.3882
X5.8858Y-4.3307
X6.0827Y-4.311
X6.0843Y-4.2882
X3.5902Y-3.6402
X3.6417Y-3.5827
X3.8386Y-3.563
X3.8402Y-3.5402
X6.5823Y-3.6402
X6.6339Y-3.5827
X6.8307Y-3.563
X6.8323Y-3.5402
X6.5823Y-5.1362
X6.6339Y-5.0787
X6.8307Y-5.0591
X6.8323Y-5.0362
X4.3382Y-5.1362
X4.3898Y-5.0787
X4.5866Y-5.0591
X4.5882Y-5.0362
X5.0862Y-2.8921
X5.1378Y-2.8346
X5.3346Y-2.815
X5.3362Y-2.7921
X5.8343Y-5.1362
X5.8858Y-5.0787
X6.0827Y-5.0591
X6.0843Y-5.0362
X3.5902Y-2.8921
X3.6417Y-2.8346
X3.8386Y-2.815
X3.8402Y-2.7921
X7.3303Y-2.8921
X7.3819Y-2.8346
X7.5787Y-2.815
X7.5803Y-2.7921
X5.0862Y-3.6402
X5.1378Y-3.5827
X5.3346Y-3.563
X5.3362Y-3.5402
T0
M30
