%!PS-Adobe-3.0
%%Creator: PCBNEW
%%CreationDate: Wed Jun 19 17:46:57 2019
%%Title: /home/josh/src/gitlab.com/polymer-kb/hardware/pcb/gerber/polymer-PTH-drl_map.ps
%%Pages: 1
%%PageOrder: Ascend
%%BoundingBox: 0 0 596 842
%%DocumentMedia: A4 595 842 0 () ()
%%Orientation: Landscape
%%EndComments
%%BeginProlog
/line { newpath moveto lineto stroke } bind def
/cir0 { newpath 0 360 arc stroke } bind def
/cir1 { newpath 0 360 arc gsave fill grestore stroke } bind def
/cir2 { newpath 0 360 arc gsave fill grestore stroke } bind def
/arc0 { newpath arc stroke } bind def
/arc1 { newpath 4 index 4 index moveto arc closepath gsave fill
    grestore stroke } bind def
/arc2 { newpath 4 index 4 index moveto arc closepath gsave fill
    grestore stroke } bind def
/poly0 { stroke } bind def
/poly1 { closepath gsave fill grestore stroke } bind def
/poly2 { closepath gsave fill grestore stroke } bind def
/rect0 { rectstroke } bind def
/rect1 { rectfill } bind def
/rect2 { rectfill } bind def
/linemode0 { 0 setlinecap 0 setlinejoin 0 setlinewidth } bind def
/linemode1 { 1 setlinecap 1 setlinejoin } bind def
/dashedline { [200] 100 setdash } bind def
/solidline { [] 0 setdash } bind def
/phantomshow { moveto
    /KicadFont findfont 0.000001 scalefont setfont
    show } bind def
/textshow { gsave
    findfont exch scalefont setfont concat 1 scale 0 0 moveto show
    } bind def
/reencodefont {
  findfont dup length dict begin
  { 1 index /FID ne
    { def }
    { pop pop } ifelse
  } forall
  /Encoding ISOLatin1Encoding def
  currentdict
  end } bind def
/KicadFont /Helvetica reencodefont definefont pop
/KicadFont-Bold /Helvetica-Bold reencodefont definefont pop
/KicadFont-Oblique /Helvetica-Oblique reencodefont definefont pop
/KicadFont-BoldOblique /Helvetica-BoldOblique reencodefont definefont pop
%%EndProlog
%%Page: 1 1
%%BeginPageSetup
gsave
0.0072 0.0072 scale
linemode1
82680 0 translate 90 rotate
52.3996 setlinewidth
%%EndPageSetup
0 0 0 setrgbcolor
61.8892 setlinewidth
53614 77474.3 1237.78 90 135 arc0
0 0 0 setrgbcolor
newpath
52329.2 77939.9 moveto
52738.7 78349.5 lineto
stroke
0 0 0 setrgbcolor
51453.9 78815.2 1237.78 -90 -45 arc0
0 0 0 setrgbcolor
80645 77474.3 1237.78 45 90 arc0
0 0 0 setrgbcolor
84664.8 74998.7 1237.78 -0 90 arc0
0 0 0 setrgbcolor
newpath
80645 78712 moveto
78991.6 78712 lineto
stroke
0 0 0 setrgbcolor
newpath
83270.8 76599 moveto
82036 77833.8 lineto
stroke
0 0 0 setrgbcolor
newpath
34893.4 77833.2 moveto
35409.7 78349.5 lineto
stroke
0 0 0 setrgbcolor
41448.5 77474.3 1237.78 45 90 arc0
0 0 0 setrgbcolor
newpath
77134.9 78712 moveto
75481.5 78712 lineto
stroke
0 0 0 setrgbcolor
newpath
77134.9 78712 moveto
78991.6 78712 lineto
stroke
0 0 0 setrgbcolor
36285 77474.3 1237.78 90 135 arc0
0 0 0 setrgbcolor
newpath
37938.4 78712 moveto
39795.1 78712 lineto
stroke
0 0 0 setrgbcolor
43608.5 78815.2 1237.78 -135 -90 arc0
0 0 0 setrgbcolor
newpath
63316 78712 moveto
58465 78712 lineto
stroke
0 0 0 setrgbcolor
75481.5 77474.3 1237.78 90 135 arc0
0 0 0 setrgbcolor
newpath
43608.5 77577.4 moveto
51453.9 77577.4 lineto
stroke
0 0 0 setrgbcolor
newpath
36285 78712 moveto
37938.4 78712 lineto
stroke
0 0 0 setrgbcolor
newpath
64600.8 77939.9 moveto
64191.3 78349.5 lineto
stroke
0 0 0 setrgbcolor
73321.5 78815.2 1237.78 -90 -45 arc0
0 0 0 setrgbcolor
newpath
39795.1 78712 moveto
41448.5 78712 lineto
stroke
0 0 0 setrgbcolor
newpath
42733.3 77939.9 moveto
42323.7 78349.5 lineto
stroke
0 0 0 setrgbcolor
newpath
74196.7 77939.9 moveto
74606.3 78349.5 lineto
stroke
0 0 0 setrgbcolor
newpath
32265.2 76236.5 moveto
32784 76236.5 lineto
stroke
0 0 0 setrgbcolor
newpath
53614 78712 moveto
58465 78712 lineto
stroke
0 0 0 setrgbcolor
63316 77474.3 1237.78 45 90 arc0
0 0 0 setrgbcolor
32265.2 74998.7 1237.78 90 180 arc0
0 0 0 setrgbcolor
32784 77474.3 1237.78 -90 -45 arc0
0 0 0 setrgbcolor
newpath
84664.8 76236.5 moveto
84146 76236.5 lineto
stroke
0 0 0 setrgbcolor
84146 77474.3 1237.78 -135 -90 arc0
0 0 0 setrgbcolor
65476.1 78815.2 1237.78 -135 -90 arc0
0 0 0 setrgbcolor
newpath
33659.2 76599 moveto
34894 77833.8 lineto
stroke
0 0 0 setrgbcolor
newpath
82036.6 77833.2 moveto
81520.3 78349.5 lineto
stroke
0 0 0 setrgbcolor
newpath
73321.5 77577.4 moveto
65476.1 77577.4 lineto
stroke
0 0 0 setrgbcolor
84664.8 38277.7 1237.78 -90 -0 arc0
0 0 0 setrgbcolor
newpath
85902.6 38277.7 moveto
85902.6 74998.7 lineto
stroke
0 0 0 setrgbcolor
newpath
32265.2 37040 moveto
84664.8 37040 lineto
stroke
0 0 0 setrgbcolor
newpath
31027.4 38277.7 moveto
31027.4 74998.7 lineto
stroke
0 0 0 setrgbcolor
32265.2 38277.7 1237.78 180 270 arc0
78.74 setlinewidth
newpath
65009.1 42312.6 moveto
65009.5 42312.2 lineto
stroke
newpath
65009.5 42312.6 moveto
65009.1 42312.2 lineto
stroke
newpath
67350.6 42939.7 moveto
67351 42939.3 lineto
stroke
newpath
67351 42939.7 moveto
67350.6 42939.3 lineto
stroke
newpath
41491.2 42312.6 moveto
41491.6 42312.2 lineto
stroke
newpath
41491.6 42312.6 moveto
41491.2 42312.2 lineto
stroke
newpath
43832.7 42939.7 moveto
43833.1 42939.3 lineto
stroke
newpath
43833.1 42939.7 moveto
43832.7 42939.3 lineto
stroke
newpath
49330.5 65830.5 moveto
49330.9 65830.1 lineto
stroke
newpath
49330.9 65830.5 moveto
49330.5 65830.1 lineto
stroke
newpath
51672 66457.6 moveto
51672.4 66457.2 lineto
stroke
newpath
51672.4 66457.6 moveto
51672 66457.2 lineto
stroke
newpath
57169.8 42312.6 moveto
57170.2 42312.2 lineto
stroke
newpath
57170.2 42312.6 moveto
57169.8 42312.2 lineto
stroke
newpath
59511.3 42939.7 moveto
59511.7 42939.3 lineto
stroke
newpath
59511.7 42939.7 moveto
59511.3 42939.3 lineto
stroke
newpath
33651.9 65830.5 moveto
33652.3 65830.1 lineto
stroke
newpath
33652.3 65830.5 moveto
33651.9 65830.1 lineto
stroke
newpath
35993.4 66457.6 moveto
35993.8 66457.2 lineto
stroke
newpath
35993.8 66457.6 moveto
35993.4 66457.2 lineto
stroke
newpath
72848.4 65830.5 moveto
72848.8 65830.1 lineto
stroke
newpath
72848.8 65830.5 moveto
72848.4 65830.1 lineto
stroke
newpath
75189.9 66457.6 moveto
75190.3 66457.2 lineto
stroke
newpath
75190.3 66457.6 moveto
75189.9 66457.2 lineto
stroke
newpath
49330.5 57991.2 moveto
49330.9 57990.8 lineto
stroke
newpath
49330.9 57991.2 moveto
49330.5 57990.8 lineto
stroke
newpath
51672 58618.3 moveto
51672.4 58617.9 lineto
stroke
newpath
51672.4 58618.3 moveto
51672 58617.9 lineto
stroke
newpath
80687.7 42312.6 moveto
80688.1 42312.2 lineto
stroke
newpath
80688.1 42312.6 moveto
80687.7 42312.2 lineto
stroke
newpath
83029.2 42939.7 moveto
83029.6 42939.3 lineto
stroke
newpath
83029.6 42939.7 moveto
83029.2 42939.3 lineto
stroke
newpath
72848.4 73669.8 moveto
72848.8 73669.4 lineto
stroke
newpath
72848.8 73669.8 moveto
72848.4 73669.4 lineto
stroke
newpath
75189.9 74296.9 moveto
75190.3 74296.5 lineto
stroke
newpath
75190.3 74296.9 moveto
75189.9 74296.5 lineto
stroke
newpath
72848.4 57991.2 moveto
72848.8 57990.8 lineto
stroke
newpath
72848.8 57991.2 moveto
72848.4 57990.8 lineto
stroke
newpath
75189.9 58618.3 moveto
75190.3 58617.9 lineto
stroke
newpath
75190.3 58618.3 moveto
75189.9 58617.9 lineto
stroke
newpath
57169.8 57991.2 moveto
57170.2 57990.8 lineto
stroke
newpath
57170.2 57991.2 moveto
57169.8 57990.8 lineto
stroke
newpath
59511.3 58618.3 moveto
59511.7 58617.9 lineto
stroke
newpath
59511.7 58618.3 moveto
59511.3 58617.9 lineto
stroke
newpath
33651.9 50151.9 moveto
33652.3 50151.5 lineto
stroke
newpath
33652.3 50151.9 moveto
33651.9 50151.5 lineto
stroke
newpath
35993.4 50779 moveto
35993.8 50778.6 lineto
stroke
newpath
35993.8 50779 moveto
35993.4 50778.6 lineto
stroke
newpath
33651.9 42312.6 moveto
33652.3 42312.2 lineto
stroke
newpath
33652.3 42312.6 moveto
33651.9 42312.2 lineto
stroke
newpath
35993.4 42939.7 moveto
35993.8 42939.3 lineto
stroke
newpath
35993.8 42939.7 moveto
35993.4 42939.3 lineto
stroke
newpath
41491.2 65830.5 moveto
41491.6 65830.1 lineto
stroke
newpath
41491.6 65830.5 moveto
41491.2 65830.1 lineto
stroke
newpath
43832.7 66457.6 moveto
43833.1 66457.2 lineto
stroke
newpath
43833.1 66457.6 moveto
43832.7 66457.2 lineto
stroke
newpath
80687.7 65830.5 moveto
80688.1 65830.1 lineto
stroke
newpath
80688.1 65830.5 moveto
80687.7 65830.1 lineto
stroke
newpath
83029.2 66457.6 moveto
83029.6 66457.2 lineto
stroke
newpath
83029.6 66457.6 moveto
83029.2 66457.2 lineto
stroke
newpath
41491.2 57991.2 moveto
41491.6 57990.8 lineto
stroke
newpath
41491.6 57991.2 moveto
41491.2 57990.8 lineto
stroke
newpath
43832.7 58618.3 moveto
43833.1 58617.9 lineto
stroke
newpath
43833.1 58618.3 moveto
43832.7 58617.9 lineto
stroke
newpath
65009.1 65830.5 moveto
65009.5 65830.1 lineto
stroke
newpath
65009.5 65830.5 moveto
65009.1 65830.1 lineto
stroke
newpath
67350.6 66457.6 moveto
67351 66457.2 lineto
stroke
newpath
67351 66457.6 moveto
67350.6 66457.2 lineto
stroke
newpath
80687.7 57991.2 moveto
80688.1 57990.8 lineto
stroke
newpath
80688.1 57991.2 moveto
80687.7 57990.8 lineto
stroke
newpath
83029.2 58618.3 moveto
83029.6 58617.9 lineto
stroke
newpath
83029.6 58618.3 moveto
83029.2 58617.9 lineto
stroke
newpath
49330.5 42312.6 moveto
49330.9 42312.2 lineto
stroke
newpath
49330.9 42312.6 moveto
49330.5 42312.2 lineto
stroke
newpath
51672 42939.7 moveto
51672.4 42939.3 lineto
stroke
newpath
51672.4 42939.7 moveto
51672 42939.3 lineto
stroke
newpath
49330.5 73669.8 moveto
49330.9 73669.4 lineto
stroke
newpath
49330.9 73669.8 moveto
49330.5 73669.4 lineto
stroke
newpath
51672 74296.9 moveto
51672.4 74296.5 lineto
stroke
newpath
51672.4 74296.9 moveto
51672 74296.5 lineto
stroke
newpath
65009.1 73669.8 moveto
65009.5 73669.4 lineto
stroke
newpath
65009.5 73669.8 moveto
65009.1 73669.4 lineto
stroke
newpath
67350.6 74296.9 moveto
67351 74296.5 lineto
stroke
newpath
67351 74296.9 moveto
67350.6 74296.5 lineto
stroke
newpath
72848.4 50151.9 moveto
72848.8 50151.5 lineto
stroke
newpath
72848.8 50151.9 moveto
72848.4 50151.5 lineto
stroke
newpath
75189.9 50779 moveto
75190.3 50778.6 lineto
stroke
newpath
75190.3 50779 moveto
75189.9 50778.6 lineto
stroke
newpath
41491.2 50151.9 moveto
41491.6 50151.5 lineto
stroke
newpath
41491.6 50151.9 moveto
41491.2 50151.5 lineto
stroke
newpath
43832.7 50779 moveto
43833.1 50778.6 lineto
stroke
newpath
43833.1 50779 moveto
43832.7 50778.6 lineto
stroke
newpath
49330.5 50151.9 moveto
49330.9 50151.5 lineto
stroke
newpath
49330.9 50151.9 moveto
49330.5 50151.5 lineto
stroke
newpath
51672 50779 moveto
51672.4 50778.6 lineto
stroke
newpath
51672.4 50779 moveto
51672 50778.6 lineto
stroke
newpath
80687.7 73669.8 moveto
80688.1 73669.4 lineto
stroke
newpath
80688.1 73669.8 moveto
80687.7 73669.4 lineto
stroke
newpath
83029.2 74296.9 moveto
83029.6 74296.5 lineto
stroke
newpath
83029.6 74296.9 moveto
83029.2 74296.5 lineto
stroke
newpath
72848.4 42312.6 moveto
72848.8 42312.2 lineto
stroke
newpath
72848.8 42312.6 moveto
72848.4 42312.2 lineto
stroke
newpath
75189.9 42939.7 moveto
75190.3 42939.3 lineto
stroke
newpath
75190.3 42939.7 moveto
75189.9 42939.3 lineto
stroke
newpath
41491.2 73669.8 moveto
41491.6 73669.4 lineto
stroke
newpath
41491.6 73669.8 moveto
41491.2 73669.4 lineto
stroke
newpath
43832.7 74296.9 moveto
43833.1 74296.5 lineto
stroke
newpath
43833.1 74296.9 moveto
43832.7 74296.5 lineto
stroke
newpath
65009.1 50151.9 moveto
65009.5 50151.5 lineto
stroke
newpath
65009.5 50151.9 moveto
65009.1 50151.5 lineto
stroke
newpath
67350.6 50779 moveto
67351 50778.6 lineto
stroke
newpath
67351 50779 moveto
67350.6 50778.6 lineto
stroke
newpath
33651.9 73669.8 moveto
33652.3 73669.4 lineto
stroke
newpath
33652.3 73669.8 moveto
33651.9 73669.4 lineto
stroke
newpath
35993.4 74296.9 moveto
35993.8 74296.5 lineto
stroke
newpath
35993.8 74296.9 moveto
35993.4 74296.5 lineto
stroke
newpath
57169.8 73669.8 moveto
57170.2 73669.4 lineto
stroke
newpath
57170.2 73669.8 moveto
57169.8 73669.4 lineto
stroke
newpath
59511.3 74296.9 moveto
59511.7 74296.5 lineto
stroke
newpath
59511.7 74296.9 moveto
59511.3 74296.5 lineto
stroke
newpath
80687.7 50151.9 moveto
80688.1 50151.5 lineto
stroke
newpath
80688.1 50151.9 moveto
80687.7 50151.5 lineto
stroke
newpath
83029.2 50779 moveto
83029.6 50778.6 lineto
stroke
newpath
83029.6 50779 moveto
83029.2 50778.6 lineto
stroke
newpath
57169.8 65830.5 moveto
57170.2 65830.1 lineto
stroke
newpath
57170.2 65830.5 moveto
57169.8 65830.1 lineto
stroke
newpath
59511.3 66457.6 moveto
59511.7 66457.2 lineto
stroke
newpath
59511.7 66457.6 moveto
59511.3 66457.2 lineto
stroke
newpath
57169.8 50151.9 moveto
57170.2 50151.5 lineto
stroke
newpath
57170.2 50151.9 moveto
57169.8 50151.5 lineto
stroke
newpath
59511.3 50779 moveto
59511.7 50778.6 lineto
stroke
newpath
59511.7 50779 moveto
59511.3 50778.6 lineto
stroke
newpath
33651.9 57991.2 moveto
33652.3 57990.8 lineto
stroke
newpath
33652.3 57991.2 moveto
33651.9 57990.8 lineto
stroke
newpath
35993.4 58618.3 moveto
35993.8 58617.9 lineto
stroke
newpath
35993.8 58618.3 moveto
35993.4 58617.9 lineto
stroke
newpath
65009.1 57991.2 moveto
65009.5 57990.8 lineto
stroke
newpath
65009.5 57991.2 moveto
65009.1 57990.8 lineto
stroke
newpath
67350.6 58618.3 moveto
67351 58617.9 lineto
stroke
newpath
67351 58618.3 moveto
67350.6 58617.9 lineto
stroke
53654.7 75342.7 82.519 cir0
54057 76033.8 82.519 cir0
54560.3 75051.8 82.519 cir0
73923.4 76518.6 82.519 cir0
newpath
64701.9 52866.6 moveto
64701.9 52577.7 lineto
stroke
newpath
64557.5 52722.1 moveto
64846.3 52722.1 lineto
stroke
newpath
67920.2 52866.6 moveto
67920.2 52577.7 lineto
stroke
newpath
67775.8 52722.1 moveto
68064.6 52722.1 lineto
stroke
newpath
72541.2 68545.2 moveto
72541.2 68256.3 lineto
stroke
newpath
72396.8 68400.8 moveto
72685.6 68400.8 lineto
stroke
newpath
75759.5 68545.2 moveto
75759.5 68256.3 lineto
stroke
newpath
75615.1 68400.8 moveto
75903.9 68400.8 lineto
stroke
newpath
64701.9 68545.2 moveto
64701.9 68256.3 lineto
stroke
newpath
64557.5 68400.8 moveto
64846.3 68400.8 lineto
stroke
newpath
67920.2 68545.2 moveto
67920.2 68256.3 lineto
stroke
newpath
67775.8 68400.8 moveto
68064.6 68400.8 lineto
stroke
newpath
56862.6 52866.6 moveto
56862.6 52577.7 lineto
stroke
newpath
56718.2 52722.1 moveto
57007 52722.1 lineto
stroke
newpath
60080.9 52866.6 moveto
60080.9 52577.7 lineto
stroke
newpath
59936.4 52722.1 moveto
60225.3 52722.1 lineto
stroke
newpath
62391.4 42716.7 moveto
62391.4 42427.9 lineto
stroke
newpath
62247 42572.3 moveto
62535.8 42572.3 lineto
stroke
newpath
62391.4 39498.5 moveto
62391.4 39209.7 lineto
stroke
newpath
62247 39354.1 moveto
62535.8 39354.1 lineto
stroke
newpath
70230.7 42716.7 moveto
70230.7 42427.9 lineto
stroke
newpath
70086.3 42572.3 moveto
70375.1 42572.3 lineto
stroke
newpath
70230.7 39498.5 moveto
70230.7 39209.7 lineto
stroke
newpath
70086.3 39354.1 moveto
70375.1 39354.1 lineto
stroke
newpath
49023.3 52866.6 moveto
49023.3 52577.7 lineto
stroke
newpath
48878.9 52722.1 moveto
49167.7 52722.1 lineto
stroke
newpath
52241.5 52866.6 moveto
52241.5 52577.7 lineto
stroke
newpath
52097.1 52722.1 moveto
52386 52722.1 lineto
stroke
newpath
41184 68545.2 moveto
41184 68256.3 lineto
stroke
newpath
41039.6 68400.8 moveto
41328.4 68400.8 lineto
stroke
newpath
44402.2 68545.2 moveto
44402.2 68256.3 lineto
stroke
newpath
44257.8 68400.8 moveto
44546.7 68400.8 lineto
stroke
newpath
46712.8 50556 moveto
46712.8 50267.2 lineto
stroke
newpath
46568.4 50411.6 moveto
46857.2 50411.6 lineto
stroke
newpath
46712.8 47337.8 moveto
46712.8 47049 lineto
stroke
newpath
46568.4 47193.4 moveto
46857.2 47193.4 lineto
stroke
newpath
33344.7 68545.2 moveto
33344.7 68256.3 lineto
stroke
newpath
33200.3 68400.8 moveto
33489.1 68400.8 lineto
stroke
newpath
36562.9 68545.2 moveto
36562.9 68256.3 lineto
stroke
newpath
36418.5 68400.8 moveto
36707.3 68400.8 lineto
stroke
newpath
78070 58395.3 moveto
78070 58106.5 lineto
stroke
newpath
77925.6 58250.9 moveto
78214.4 58250.9 lineto
stroke
newpath
78070 55177.1 moveto
78070 54888.3 lineto
stroke
newpath
77925.6 55032.7 moveto
78214.4 55032.7 lineto
stroke
newpath
46712.8 58395.3 moveto
46712.8 58106.5 lineto
stroke
newpath
46568.4 58250.9 moveto
46857.2 58250.9 lineto
stroke
newpath
46712.8 55177.1 moveto
46712.8 54888.3 lineto
stroke
newpath
46568.4 55032.7 moveto
46857.2 55032.7 lineto
stroke
newpath
62391.4 50556 moveto
62391.4 50267.2 lineto
stroke
newpath
62247 50411.6 moveto
62535.8 50411.6 lineto
stroke
newpath
62391.4 47337.8 moveto
62391.4 47049 lineto
stroke
newpath
62247 47193.4 moveto
62535.8 47193.4 lineto
stroke
newpath
46712.8 74073.9 moveto
46712.8 73785.1 lineto
stroke
newpath
46568.4 73929.5 moveto
46857.2 73929.5 lineto
stroke
newpath
46712.8 70855.7 moveto
46712.8 70566.9 lineto
stroke
newpath
46568.4 70711.3 moveto
46857.2 70711.3 lineto
stroke
newpath
70230.7 50556 moveto
70230.7 50267.2 lineto
stroke
newpath
70086.3 50411.6 moveto
70375.1 50411.6 lineto
stroke
newpath
70230.7 47337.8 moveto
70230.7 47049 lineto
stroke
newpath
70086.3 47193.4 moveto
70375.1 47193.4 lineto
stroke
newpath
49023.3 60705.9 moveto
49023.3 60417 lineto
stroke
newpath
48878.9 60561.4 moveto
49167.7 60561.4 lineto
stroke
newpath
52241.5 60705.9 moveto
52241.5 60417 lineto
stroke
newpath
52097.1 60561.4 moveto
52386 60561.4 lineto
stroke
newpath
49023.3 45027.2 moveto
49023.3 44738.4 lineto
stroke
newpath
48878.9 44882.8 moveto
49167.7 44882.8 lineto
stroke
newpath
52241.5 45027.2 moveto
52241.5 44738.4 lineto
stroke
newpath
52097.1 44882.8 moveto
52386 44882.8 lineto
stroke
newpath
38873.5 50556 moveto
38873.5 50267.2 lineto
stroke
newpath
38729.1 50411.6 moveto
39017.9 50411.6 lineto
stroke
newpath
38873.5 47337.8 moveto
38873.5 47049 lineto
stroke
newpath
38729.1 47193.4 moveto
39017.9 47193.4 lineto
stroke
newpath
46712.8 66234.6 moveto
46712.8 65945.8 lineto
stroke
newpath
46568.4 66090.2 moveto
46857.2 66090.2 lineto
stroke
newpath
46712.8 63016.4 moveto
46712.8 62727.6 lineto
stroke
newpath
46568.4 62872 moveto
46857.2 62872 lineto
stroke
newpath
38873.5 66234.6 moveto
38873.5 65945.8 lineto
stroke
newpath
38729.1 66090.2 moveto
39017.9 66090.2 lineto
stroke
newpath
38873.5 63016.4 moveto
38873.5 62727.6 lineto
stroke
newpath
38729.1 62872 moveto
39017.9 62872 lineto
stroke
newpath
78070 42716.7 moveto
78070 42427.9 lineto
stroke
newpath
77925.6 42572.3 moveto
78214.4 42572.3 lineto
stroke
newpath
78070 39498.5 moveto
78070 39209.7 lineto
stroke
newpath
77925.6 39354.1 moveto
78214.4 39354.1 lineto
stroke
newpath
38873.5 42716.7 moveto
38873.5 42427.9 lineto
stroke
newpath
38729.1 42572.3 moveto
39017.9 42572.3 lineto
stroke
newpath
38873.5 39498.5 moveto
38873.5 39209.7 lineto
stroke
newpath
38729.1 39354.1 moveto
39017.9 39354.1 lineto
stroke
newpath
38873.5 58395.3 moveto
38873.5 58106.5 lineto
stroke
newpath
38729.1 58250.9 moveto
39017.9 58250.9 lineto
stroke
newpath
38873.5 55177.1 moveto
38873.5 54888.3 lineto
stroke
newpath
38729.1 55032.7 moveto
39017.9 55032.7 lineto
stroke
newpath
54552.1 50556 moveto
54552.1 50267.2 lineto
stroke
newpath
54407.7 50411.6 moveto
54696.5 50411.6 lineto
stroke
newpath
54552.1 47337.8 moveto
54552.1 47049 lineto
stroke
newpath
54407.7 47193.4 moveto
54696.5 47193.4 lineto
stroke
newpath
64701.9 60705.9 moveto
64701.9 60417 lineto
stroke
newpath
64557.5 60561.4 moveto
64846.3 60561.4 lineto
stroke
newpath
67920.2 60705.9 moveto
67920.2 60417 lineto
stroke
newpath
67775.8 60561.4 moveto
68064.6 60561.4 lineto
stroke
newpath
54552.1 42716.7 moveto
54552.1 42427.9 lineto
stroke
newpath
54407.7 42572.3 moveto
54696.5 42572.3 lineto
stroke
newpath
54552.1 39498.5 moveto
54552.1 39209.7 lineto
stroke
newpath
54407.7 39354.1 moveto
54696.5 39354.1 lineto
stroke
newpath
70230.7 58395.3 moveto
70230.7 58106.5 lineto
stroke
newpath
70086.3 58250.9 moveto
70375.1 58250.9 lineto
stroke
newpath
70230.7 55177.1 moveto
70230.7 54888.3 lineto
stroke
newpath
70086.3 55032.7 moveto
70375.1 55032.7 lineto
stroke
newpath
48817 68751.5 moveto
48817 68462.6 lineto
stroke
newpath
48672.6 68607.1 moveto
48961.4 68607.1 lineto
stroke
newpath
52035.3 68751.5 moveto
52035.3 68462.6 lineto
stroke
newpath
51890.8 68607.1 moveto
52179.7 68607.1 lineto
stroke
newpath
70230.7 74073.9 moveto
70230.7 73785.1 lineto
stroke
newpath
70086.3 73929.5 moveto
70375.1 73929.5 lineto
stroke
newpath
70230.7 70855.7 moveto
70230.7 70566.9 lineto
stroke
newpath
70086.3 70711.3 moveto
70375.1 70711.3 lineto
stroke
newpath
46712.8 42716.7 moveto
46712.8 42427.9 lineto
stroke
newpath
46568.4 42572.3 moveto
46857.2 42572.3 lineto
stroke
newpath
46712.8 39498.5 moveto
46712.8 39209.7 lineto
stroke
newpath
46568.4 39354.1 moveto
46857.2 39354.1 lineto
stroke
newpath
78070 50556 moveto
78070 50267.2 lineto
stroke
newpath
77925.6 50411.6 moveto
78214.4 50411.6 lineto
stroke
newpath
78070 47337.8 moveto
78070 47049 lineto
stroke
newpath
77925.6 47193.4 moveto
78214.4 47193.4 lineto
stroke
newpath
64701.9 45027.2 moveto
64701.9 44738.4 lineto
stroke
newpath
64557.5 44882.8 moveto
64846.3 44882.8 lineto
stroke
newpath
67920.2 45027.2 moveto
67920.2 44738.4 lineto
stroke
newpath
67775.8 44882.8 moveto
68064.6 44882.8 lineto
stroke
newpath
70230.7 66234.6 moveto
70230.7 65945.8 lineto
stroke
newpath
70086.3 66090.2 moveto
70375.1 66090.2 lineto
stroke
newpath
70230.7 63016.4 moveto
70230.7 62727.6 lineto
stroke
newpath
70086.3 62872 moveto
70375.1 62872 lineto
stroke
newpath
80380.5 68545.2 moveto
80380.5 68256.3 lineto
stroke
newpath
80236.1 68400.8 moveto
80524.9 68400.8 lineto
stroke
newpath
83598.8 68545.2 moveto
83598.8 68256.3 lineto
stroke
newpath
83454.4 68400.8 moveto
83743.2 68400.8 lineto
stroke
newpath
78070 66234.6 moveto
78070 65945.8 lineto
stroke
newpath
77925.6 66090.2 moveto
78214.4 66090.2 lineto
stroke
newpath
78070 63016.4 moveto
78070 62727.6 lineto
stroke
newpath
77925.6 62872 moveto
78214.4 62872 lineto
stroke
newpath
55487.1 77578.5 moveto
55487.1 77897.1 lineto
55168.4 77897.1 lineto
55168.4 77578.5 lineto
55487.1 77578.5 lineto
poly0
newpath
55487.1 76530.5 moveto
55487.1 76849.1 lineto
55168.4 76849.1 lineto
55168.4 76530.5 lineto
55487.1 76530.5 lineto
poly0
newpath
55487.1 75482.5 moveto
55487.1 75801.1 lineto
55168.4 75801.1 lineto
55168.4 75482.5 lineto
55487.1 75482.5 lineto
poly0
newpath
55487.1 74434.5 moveto
55487.1 74753.1 lineto
55168.4 74753.1 lineto
55168.4 74434.5 lineto
55487.1 74434.5 lineto
poly0
newpath
55487.1 73386.5 moveto
55487.1 73705.1 lineto
55168.4 73705.1 lineto
55168.4 73386.5 lineto
55487.1 73386.5 lineto
poly0
newpath
55487.1 72338.5 moveto
55487.1 72657.1 lineto
55168.4 72657.1 lineto
55168.4 72338.5 lineto
55487.1 72338.5 lineto
poly0
newpath
55487.1 71290.5 moveto
55487.1 71609.2 lineto
55168.4 71609.2 lineto
55168.4 71290.5 lineto
55487.1 71290.5 lineto
poly0
newpath
55487.1 70242.5 moveto
55487.1 70561.2 lineto
55168.4 70561.2 lineto
55168.4 70242.5 lineto
55487.1 70242.5 lineto
poly0
newpath
55487.1 69194.5 moveto
55487.1 69513.2 lineto
55168.4 69513.2 lineto
55168.4 69194.5 lineto
55487.1 69194.5 lineto
poly0
newpath
55487.1 68146.5 moveto
55487.1 68465.2 lineto
55168.4 68465.2 lineto
55168.4 68146.5 lineto
55487.1 68146.5 lineto
poly0
newpath
55487.1 67098.5 moveto
55487.1 67417.2 lineto
55168.4 67417.2 lineto
55168.4 67098.5 lineto
55487.1 67098.5 lineto
poly0
newpath
55487.1 66050.5 moveto
55487.1 66369.2 lineto
55168.4 66369.2 lineto
55168.4 66050.5 lineto
55487.1 66050.5 lineto
poly0
newpath
55487.1 65002.6 moveto
55487.1 65321.2 lineto
55168.4 65321.2 lineto
55168.4 65002.6 lineto
55487.1 65002.6 lineto
poly0
newpath
55487.1 63954.6 moveto
55487.1 64273.2 lineto
55168.4 64273.2 lineto
55168.4 63954.6 lineto
55487.1 63954.6 lineto
poly0
newpath
55487.1 62906.6 moveto
55487.1 63225.2 lineto
55168.4 63225.2 lineto
55168.4 62906.6 lineto
55487.1 62906.6 lineto
poly0
newpath
55487.1 61858.6 moveto
55487.1 62177.2 lineto
55168.4 62177.2 lineto
55168.4 61858.6 lineto
55487.1 61858.6 lineto
poly0
newpath
55487.1 60810.6 moveto
55487.1 61129.2 lineto
55168.4 61129.2 lineto
55168.4 60810.6 lineto
55487.1 60810.6 lineto
poly0
newpath
55487.1 59762.6 moveto
55487.1 60081.3 lineto
55168.4 60081.3 lineto
55168.4 59762.6 lineto
55487.1 59762.6 lineto
poly0
newpath
55487.1 58714.6 moveto
55487.1 59033.3 lineto
55168.4 59033.3 lineto
55168.4 58714.6 lineto
55487.1 58714.6 lineto
poly0
newpath
55487.1 57666.6 moveto
55487.1 57985.3 lineto
55168.4 57985.3 lineto
55168.4 57666.6 lineto
55487.1 57666.6 lineto
poly0
newpath
61775 77578.5 moveto
61775 77897.1 lineto
61456.4 77897.1 lineto
61456.4 77578.5 lineto
61775 77578.5 lineto
poly0
newpath
61775 76530.5 moveto
61775 76849.1 lineto
61456.4 76849.1 lineto
61456.4 76530.5 lineto
61775 76530.5 lineto
poly0
newpath
61775 75482.5 moveto
61775 75801.1 lineto
61456.4 75801.1 lineto
61456.4 75482.5 lineto
61775 75482.5 lineto
poly0
newpath
61775 74434.5 moveto
61775 74753.1 lineto
61456.4 74753.1 lineto
61456.4 74434.5 lineto
61775 74434.5 lineto
poly0
newpath
61775 73386.5 moveto
61775 73705.1 lineto
61456.4 73705.1 lineto
61456.4 73386.5 lineto
61775 73386.5 lineto
poly0
newpath
61775 72338.5 moveto
61775 72657.1 lineto
61456.4 72657.1 lineto
61456.4 72338.5 lineto
61775 72338.5 lineto
poly0
newpath
61775 71290.5 moveto
61775 71609.2 lineto
61456.4 71609.2 lineto
61456.4 71290.5 lineto
61775 71290.5 lineto
poly0
newpath
61775 70242.5 moveto
61775 70561.2 lineto
61456.4 70561.2 lineto
61456.4 70242.5 lineto
61775 70242.5 lineto
poly0
newpath
61775 69194.5 moveto
61775 69513.2 lineto
61456.4 69513.2 lineto
61456.4 69194.5 lineto
61775 69194.5 lineto
poly0
newpath
61775 68146.5 moveto
61775 68465.2 lineto
61456.4 68465.2 lineto
61456.4 68146.5 lineto
61775 68146.5 lineto
poly0
newpath
61775 67098.5 moveto
61775 67417.2 lineto
61456.4 67417.2 lineto
61456.4 67098.5 lineto
61775 67098.5 lineto
poly0
newpath
61775 66050.5 moveto
61775 66369.2 lineto
61456.4 66369.2 lineto
61456.4 66050.5 lineto
61775 66050.5 lineto
poly0
newpath
61775 65002.6 moveto
61775 65321.2 lineto
61456.4 65321.2 lineto
61456.4 65002.6 lineto
61775 65002.6 lineto
poly0
newpath
61775 63954.6 moveto
61775 64273.2 lineto
61456.4 64273.2 lineto
61456.4 63954.6 lineto
61775 63954.6 lineto
poly0
newpath
61775 62906.6 moveto
61775 63225.2 lineto
61456.4 63225.2 lineto
61456.4 62906.6 lineto
61775 62906.6 lineto
poly0
newpath
61775 61858.6 moveto
61775 62177.2 lineto
61456.4 62177.2 lineto
61456.4 61858.6 lineto
61775 61858.6 lineto
poly0
newpath
61775 60810.6 moveto
61775 61129.2 lineto
61456.4 61129.2 lineto
61456.4 60810.6 lineto
61775 60810.6 lineto
poly0
newpath
61775 59762.6 moveto
61775 60081.3 lineto
61456.4 60081.3 lineto
61456.4 59762.6 lineto
61775 59762.6 lineto
poly0
newpath
61775 58714.6 moveto
61775 59033.3 lineto
61456.4 59033.3 lineto
61456.4 58714.6 lineto
61775 58714.6 lineto
poly0
newpath
61775 57666.6 moveto
61775 57985.3 lineto
61456.4 57985.3 lineto
61456.4 57666.6 lineto
61775 57666.6 lineto
poly0
newpath
80417.7 41696.8 moveto
80732.1 42011.2 lineto
80417.7 42325.6 lineto
80103.3 42011.2 lineto
80417.7 41696.8 lineto
poly0
newpath
80958.2 42299.2 moveto
81272.6 42613.6 lineto
80958.2 42928 lineto
80643.8 42613.6 lineto
80958.2 42299.2 lineto
poly0
newpath
83021.1 42505.5 moveto
83335.5 42819.9 lineto
83021.1 43134.3 lineto
82706.7 42819.9 lineto
83021.1 42505.5 lineto
poly0
newpath
83037.6 42744.8 moveto
83352 43059.2 lineto
83037.6 43373.6 lineto
82723.2 43059.2 lineto
83037.6 42744.8 lineto
poly0
newpath
72578.4 73054 moveto
72892.8 73368.4 lineto
72578.4 73682.8 lineto
72264 73368.4 lineto
72578.4 73054 lineto
poly0
newpath
73118.9 73656.4 moveto
73433.3 73970.8 lineto
73118.9 74285.2 lineto
72804.5 73970.8 lineto
73118.9 73656.4 lineto
poly0
newpath
75181.8 73862.7 moveto
75496.2 74177.1 lineto
75181.8 74491.5 lineto
74867.4 74177.1 lineto
75181.8 73862.7 lineto
poly0
newpath
75198.3 74102 moveto
75512.7 74416.4 lineto
75198.3 74730.8 lineto
74883.9 74416.4 lineto
75198.3 74102 lineto
poly0
newpath
72578.4 57375.4 moveto
72892.8 57689.8 lineto
72578.4 58004.2 lineto
72264 57689.8 lineto
72578.4 57375.4 lineto
poly0
newpath
73118.9 57977.8 moveto
73433.3 58292.2 lineto
73118.9 58606.6 lineto
72804.5 58292.2 lineto
73118.9 57977.8 lineto
poly0
newpath
75181.8 58184.1 moveto
75496.2 58498.5 lineto
75181.8 58812.9 lineto
74867.4 58498.5 lineto
75181.8 58184.1 lineto
poly0
newpath
75198.3 58423.4 moveto
75512.7 58737.8 lineto
75198.3 59052.2 lineto
74883.9 58737.8 lineto
75198.3 58423.4 lineto
poly0
newpath
56899.7 57375.4 moveto
57214.1 57689.8 lineto
56899.7 58004.2 lineto
56585.3 57689.8 lineto
56899.7 57375.4 lineto
poly0
newpath
57440.2 57977.8 moveto
57754.6 58292.2 lineto
57440.2 58606.6 lineto
57125.8 58292.2 lineto
57440.2 57977.8 lineto
poly0
newpath
59503.2 58184.1 moveto
59817.6 58498.5 lineto
59503.2 58812.9 lineto
59188.8 58498.5 lineto
59503.2 58184.1 lineto
poly0
newpath
59519.7 58423.4 moveto
59834.1 58737.8 lineto
59519.7 59052.2 lineto
59205.3 58737.8 lineto
59519.7 58423.4 lineto
poly0
newpath
33381.8 49536.1 moveto
33696.2 49850.5 lineto
33381.8 50164.9 lineto
33067.4 49850.5 lineto
33381.8 49536.1 lineto
poly0
newpath
33922.3 50138.5 moveto
34236.7 50452.9 lineto
33922.3 50767.3 lineto
33607.9 50452.9 lineto
33922.3 50138.5 lineto
poly0
newpath
35985.3 50344.8 moveto
36299.7 50659.2 lineto
35985.3 50973.6 lineto
35670.9 50659.2 lineto
35985.3 50344.8 lineto
poly0
newpath
36001.8 50584.1 moveto
36316.2 50898.5 lineto
36001.8 51212.9 lineto
35687.4 50898.5 lineto
36001.8 50584.1 lineto
poly0
newpath
33381.8 41696.8 moveto
33696.2 42011.2 lineto
33381.8 42325.6 lineto
33067.4 42011.2 lineto
33381.8 41696.8 lineto
poly0
newpath
33922.3 42299.2 moveto
34236.7 42613.6 lineto
33922.3 42928 lineto
33607.9 42613.6 lineto
33922.3 42299.2 lineto
poly0
newpath
35985.3 42505.5 moveto
36299.7 42819.9 lineto
35985.3 43134.3 lineto
35670.9 42819.9 lineto
35985.3 42505.5 lineto
poly0
newpath
36001.8 42744.8 moveto
36316.2 43059.2 lineto
36001.8 43373.6 lineto
35687.4 43059.2 lineto
36001.8 42744.8 lineto
poly0
newpath
41221.1 65214.7 moveto
41535.5 65529.1 lineto
41221.1 65843.5 lineto
40906.7 65529.1 lineto
41221.1 65214.7 lineto
poly0
newpath
41761.6 65817.1 moveto
42076 66131.5 lineto
41761.6 66445.9 lineto
41447.2 66131.5 lineto
41761.6 65817.1 lineto
poly0
newpath
43824.6 66023.4 moveto
44139 66337.8 lineto
43824.6 66652.2 lineto
43510.2 66337.8 lineto
43824.6 66023.4 lineto
poly0
newpath
43841.1 66262.7 moveto
44155.5 66577.1 lineto
43841.1 66891.5 lineto
43526.7 66577.1 lineto
43841.1 66262.7 lineto
poly0
newpath
80417.7 65214.7 moveto
80732.1 65529.1 lineto
80417.7 65843.5 lineto
80103.3 65529.1 lineto
80417.7 65214.7 lineto
poly0
newpath
80958.2 65817.1 moveto
81272.6 66131.5 lineto
80958.2 66445.9 lineto
80643.8 66131.5 lineto
80958.2 65817.1 lineto
poly0
newpath
83021.1 66023.4 moveto
83335.5 66337.8 lineto
83021.1 66652.2 lineto
82706.7 66337.8 lineto
83021.1 66023.4 lineto
poly0
newpath
83037.6 66262.7 moveto
83352 66577.1 lineto
83037.6 66891.5 lineto
82723.2 66577.1 lineto
83037.6 66262.7 lineto
poly0
newpath
41221.1 57375.4 moveto
41535.5 57689.8 lineto
41221.1 58004.2 lineto
40906.7 57689.8 lineto
41221.1 57375.4 lineto
poly0
newpath
41761.6 57977.8 moveto
42076 58292.2 lineto
41761.6 58606.6 lineto
41447.2 58292.2 lineto
41761.6 57977.8 lineto
poly0
newpath
43824.6 58184.1 moveto
44139 58498.5 lineto
43824.6 58812.9 lineto
43510.2 58498.5 lineto
43824.6 58184.1 lineto
poly0
newpath
43841.1 58423.4 moveto
44155.5 58737.8 lineto
43841.1 59052.2 lineto
43526.7 58737.8 lineto
43841.1 58423.4 lineto
poly0
newpath
64739.1 65214.7 moveto
65053.4 65529.1 lineto
64739.1 65843.5 lineto
64424.7 65529.1 lineto
64739.1 65214.7 lineto
poly0
newpath
65279.6 65817.1 moveto
65593.9 66131.5 lineto
65279.6 66445.9 lineto
64965.2 66131.5 lineto
65279.6 65817.1 lineto
poly0
newpath
67342.5 66023.4 moveto
67656.9 66337.8 lineto
67342.5 66652.2 lineto
67028.1 66337.8 lineto
67342.5 66023.4 lineto
poly0
newpath
67359 66262.7 moveto
67673.4 66577.1 lineto
67359 66891.5 lineto
67044.6 66577.1 lineto
67359 66262.7 lineto
poly0
newpath
80417.7 57375.4 moveto
80732.1 57689.8 lineto
80417.7 58004.2 lineto
80103.3 57689.8 lineto
80417.7 57375.4 lineto
poly0
newpath
80958.2 57977.8 moveto
81272.6 58292.2 lineto
80958.2 58606.6 lineto
80643.8 58292.2 lineto
80958.2 57977.8 lineto
poly0
newpath
83021.1 58184.1 moveto
83335.5 58498.5 lineto
83021.1 58812.9 lineto
82706.7 58498.5 lineto
83021.1 58184.1 lineto
poly0
newpath
83037.6 58423.4 moveto
83352 58737.8 lineto
83037.6 59052.2 lineto
82723.2 58737.8 lineto
83037.6 58423.4 lineto
poly0
newpath
49060.4 41696.8 moveto
49374.8 42011.2 lineto
49060.4 42325.6 lineto
48746 42011.2 lineto
49060.4 41696.8 lineto
poly0
newpath
49600.9 42299.2 moveto
49915.3 42613.6 lineto
49600.9 42928 lineto
49286.5 42613.6 lineto
49600.9 42299.2 lineto
poly0
newpath
51663.9 42505.5 moveto
51978.3 42819.9 lineto
51663.9 43134.3 lineto
51349.5 42819.9 lineto
51663.9 42505.5 lineto
poly0
newpath
51680.4 42744.8 moveto
51994.8 43059.2 lineto
51680.4 43373.6 lineto
51366 43059.2 lineto
51680.4 42744.8 lineto
poly0
newpath
49060.4 73054 moveto
49374.8 73368.4 lineto
49060.4 73682.8 lineto
48746 73368.4 lineto
49060.4 73054 lineto
poly0
newpath
49600.9 73656.4 moveto
49915.3 73970.8 lineto
49600.9 74285.2 lineto
49286.5 73970.8 lineto
49600.9 73656.4 lineto
poly0
newpath
51663.9 73862.7 moveto
51978.3 74177.1 lineto
51663.9 74491.5 lineto
51349.5 74177.1 lineto
51663.9 73862.7 lineto
poly0
newpath
51680.4 74102 moveto
51994.8 74416.4 lineto
51680.4 74730.8 lineto
51366 74416.4 lineto
51680.4 74102 lineto
poly0
newpath
64739.1 73054 moveto
65053.4 73368.4 lineto
64739.1 73682.8 lineto
64424.7 73368.4 lineto
64739.1 73054 lineto
poly0
newpath
65279.6 73656.4 moveto
65593.9 73970.8 lineto
65279.6 74285.2 lineto
64965.2 73970.8 lineto
65279.6 73656.4 lineto
poly0
newpath
67342.5 73862.7 moveto
67656.9 74177.1 lineto
67342.5 74491.5 lineto
67028.1 74177.1 lineto
67342.5 73862.7 lineto
poly0
newpath
67359 74102 moveto
67673.4 74416.4 lineto
67359 74730.8 lineto
67044.6 74416.4 lineto
67359 74102 lineto
poly0
newpath
72578.4 49536.1 moveto
72892.8 49850.5 lineto
72578.4 50164.9 lineto
72264 49850.5 lineto
72578.4 49536.1 lineto
poly0
newpath
73118.9 50138.5 moveto
73433.3 50452.9 lineto
73118.9 50767.3 lineto
72804.5 50452.9 lineto
73118.9 50138.5 lineto
poly0
newpath
75181.8 50344.8 moveto
75496.2 50659.2 lineto
75181.8 50973.6 lineto
74867.4 50659.2 lineto
75181.8 50344.8 lineto
poly0
newpath
75198.3 50584.1 moveto
75512.7 50898.5 lineto
75198.3 51212.9 lineto
74883.9 50898.5 lineto
75198.3 50584.1 lineto
poly0
newpath
41221.1 49536.1 moveto
41535.5 49850.5 lineto
41221.1 50164.9 lineto
40906.7 49850.5 lineto
41221.1 49536.1 lineto
poly0
newpath
41761.6 50138.5 moveto
42076 50452.9 lineto
41761.6 50767.3 lineto
41447.2 50452.9 lineto
41761.6 50138.5 lineto
poly0
newpath
43824.6 50344.8 moveto
44139 50659.2 lineto
43824.6 50973.6 lineto
43510.2 50659.2 lineto
43824.6 50344.8 lineto
poly0
newpath
43841.1 50584.1 moveto
44155.5 50898.5 lineto
43841.1 51212.9 lineto
43526.7 50898.5 lineto
43841.1 50584.1 lineto
poly0
newpath
49060.4 49536.1 moveto
49374.8 49850.5 lineto
49060.4 50164.9 lineto
48746 49850.5 lineto
49060.4 49536.1 lineto
poly0
newpath
49600.9 50138.5 moveto
49915.3 50452.9 lineto
49600.9 50767.3 lineto
49286.5 50452.9 lineto
49600.9 50138.5 lineto
poly0
newpath
51663.9 50344.8 moveto
51978.3 50659.2 lineto
51663.9 50973.6 lineto
51349.5 50659.2 lineto
51663.9 50344.8 lineto
poly0
newpath
51680.4 50584.1 moveto
51994.8 50898.5 lineto
51680.4 51212.9 lineto
51366 50898.5 lineto
51680.4 50584.1 lineto
poly0
newpath
80417.7 73054 moveto
80732.1 73368.4 lineto
80417.7 73682.8 lineto
80103.3 73368.4 lineto
80417.7 73054 lineto
poly0
newpath
80958.2 73656.4 moveto
81272.6 73970.8 lineto
80958.2 74285.2 lineto
80643.8 73970.8 lineto
80958.2 73656.4 lineto
poly0
newpath
83021.1 73862.7 moveto
83335.5 74177.1 lineto
83021.1 74491.5 lineto
82706.7 74177.1 lineto
83021.1 73862.7 lineto
poly0
newpath
83037.6 74102 moveto
83352 74416.4 lineto
83037.6 74730.8 lineto
82723.2 74416.4 lineto
83037.6 74102 lineto
poly0
newpath
72578.4 41696.8 moveto
72892.8 42011.2 lineto
72578.4 42325.6 lineto
72264 42011.2 lineto
72578.4 41696.8 lineto
poly0
newpath
73118.9 42299.2 moveto
73433.3 42613.6 lineto
73118.9 42928 lineto
72804.5 42613.6 lineto
73118.9 42299.2 lineto
poly0
newpath
75181.8 42505.5 moveto
75496.2 42819.9 lineto
75181.8 43134.3 lineto
74867.4 42819.9 lineto
75181.8 42505.5 lineto
poly0
newpath
75198.3 42744.8 moveto
75512.7 43059.2 lineto
75198.3 43373.6 lineto
74883.9 43059.2 lineto
75198.3 42744.8 lineto
poly0
newpath
41221.1 73054 moveto
41535.5 73368.4 lineto
41221.1 73682.8 lineto
40906.7 73368.4 lineto
41221.1 73054 lineto
poly0
newpath
41761.6 73656.4 moveto
42076 73970.8 lineto
41761.6 74285.2 lineto
41447.2 73970.8 lineto
41761.6 73656.4 lineto
poly0
newpath
43824.6 73862.7 moveto
44139 74177.1 lineto
43824.6 74491.5 lineto
43510.2 74177.1 lineto
43824.6 73862.7 lineto
poly0
newpath
43841.1 74102 moveto
44155.5 74416.4 lineto
43841.1 74730.8 lineto
43526.7 74416.4 lineto
43841.1 74102 lineto
poly0
newpath
64739.1 49536.1 moveto
65053.4 49850.5 lineto
64739.1 50164.9 lineto
64424.7 49850.5 lineto
64739.1 49536.1 lineto
poly0
newpath
65279.6 50138.5 moveto
65593.9 50452.9 lineto
65279.6 50767.3 lineto
64965.2 50452.9 lineto
65279.6 50138.5 lineto
poly0
newpath
67342.5 50344.8 moveto
67656.9 50659.2 lineto
67342.5 50973.6 lineto
67028.1 50659.2 lineto
67342.5 50344.8 lineto
poly0
newpath
67359 50584.1 moveto
67673.4 50898.5 lineto
67359 51212.9 lineto
67044.6 50898.5 lineto
67359 50584.1 lineto
poly0
newpath
33381.8 73054 moveto
33696.2 73368.4 lineto
33381.8 73682.8 lineto
33067.4 73368.4 lineto
33381.8 73054 lineto
poly0
newpath
33922.3 73656.4 moveto
34236.7 73970.8 lineto
33922.3 74285.2 lineto
33607.9 73970.8 lineto
33922.3 73656.4 lineto
poly0
newpath
35985.3 73862.7 moveto
36299.7 74177.1 lineto
35985.3 74491.5 lineto
35670.9 74177.1 lineto
35985.3 73862.7 lineto
poly0
newpath
36001.8 74102 moveto
36316.2 74416.4 lineto
36001.8 74730.8 lineto
35687.4 74416.4 lineto
36001.8 74102 lineto
poly0
newpath
56899.7 73054 moveto
57214.1 73368.4 lineto
56899.7 73682.8 lineto
56585.3 73368.4 lineto
56899.7 73054 lineto
poly0
newpath
57440.2 73656.4 moveto
57754.6 73970.8 lineto
57440.2 74285.2 lineto
57125.8 73970.8 lineto
57440.2 73656.4 lineto
poly0
newpath
59503.2 73862.7 moveto
59817.6 74177.1 lineto
59503.2 74491.5 lineto
59188.8 74177.1 lineto
59503.2 73862.7 lineto
poly0
newpath
59519.7 74102 moveto
59834.1 74416.4 lineto
59519.7 74730.8 lineto
59205.3 74416.4 lineto
59519.7 74102 lineto
poly0
newpath
80417.7 49536.1 moveto
80732.1 49850.5 lineto
80417.7 50164.9 lineto
80103.3 49850.5 lineto
80417.7 49536.1 lineto
poly0
newpath
80958.2 50138.5 moveto
81272.6 50452.9 lineto
80958.2 50767.3 lineto
80643.8 50452.9 lineto
80958.2 50138.5 lineto
poly0
newpath
83021.1 50344.8 moveto
83335.5 50659.2 lineto
83021.1 50973.6 lineto
82706.7 50659.2 lineto
83021.1 50344.8 lineto
poly0
newpath
83037.6 50584.1 moveto
83352 50898.5 lineto
83037.6 51212.9 lineto
82723.2 50898.5 lineto
83037.6 50584.1 lineto
poly0
newpath
56899.7 65214.7 moveto
57214.1 65529.1 lineto
56899.7 65843.5 lineto
56585.3 65529.1 lineto
56899.7 65214.7 lineto
poly0
newpath
57440.2 65817.1 moveto
57754.6 66131.5 lineto
57440.2 66445.9 lineto
57125.8 66131.5 lineto
57440.2 65817.1 lineto
poly0
newpath
59503.2 66023.4 moveto
59817.6 66337.8 lineto
59503.2 66652.2 lineto
59188.8 66337.8 lineto
59503.2 66023.4 lineto
poly0
newpath
59519.7 66262.7 moveto
59834.1 66577.1 lineto
59519.7 66891.5 lineto
59205.3 66577.1 lineto
59519.7 66262.7 lineto
poly0
newpath
56899.7 49536.1 moveto
57214.1 49850.5 lineto
56899.7 50164.9 lineto
56585.3 49850.5 lineto
56899.7 49536.1 lineto
poly0
newpath
57440.2 50138.5 moveto
57754.6 50452.9 lineto
57440.2 50767.3 lineto
57125.8 50452.9 lineto
57440.2 50138.5 lineto
poly0
newpath
59503.2 50344.8 moveto
59817.6 50659.2 lineto
59503.2 50973.6 lineto
59188.8 50659.2 lineto
59503.2 50344.8 lineto
poly0
newpath
59519.7 50584.1 moveto
59834.1 50898.5 lineto
59519.7 51212.9 lineto
59205.3 50898.5 lineto
59519.7 50584.1 lineto
poly0
newpath
33381.8 57375.4 moveto
33696.2 57689.8 lineto
33381.8 58004.2 lineto
33067.4 57689.8 lineto
33381.8 57375.4 lineto
poly0
newpath
33922.3 57977.8 moveto
34236.7 58292.2 lineto
33922.3 58606.6 lineto
33607.9 58292.2 lineto
33922.3 57977.8 lineto
poly0
newpath
35985.3 58184.1 moveto
36299.7 58498.5 lineto
35985.3 58812.9 lineto
35670.9 58498.5 lineto
35985.3 58184.1 lineto
poly0
newpath
36001.8 58423.4 moveto
36316.2 58737.8 lineto
36001.8 59052.2 lineto
35687.4 58737.8 lineto
36001.8 58423.4 lineto
poly0
newpath
64739.1 57375.4 moveto
65053.4 57689.8 lineto
64739.1 58004.2 lineto
64424.7 57689.8 lineto
64739.1 57375.4 lineto
poly0
newpath
65279.6 57977.8 moveto
65593.9 58292.2 lineto
65279.6 58606.6 lineto
64965.2 58292.2 lineto
65279.6 57977.8 lineto
poly0
newpath
67342.5 58184.1 moveto
67656.9 58498.5 lineto
67342.5 58812.9 lineto
67028.1 58498.5 lineto
67342.5 58184.1 lineto
poly0
newpath
67359 58423.4 moveto
67673.4 58737.8 lineto
67359 59052.2 lineto
67044.6 58737.8 lineto
67359 58423.4 lineto
poly0
newpath
64739.1 41696.8 moveto
65053.4 42011.2 lineto
64739.1 42325.6 lineto
64424.7 42011.2 lineto
64739.1 41696.8 lineto
poly0
newpath
65279.6 42299.2 moveto
65593.9 42613.6 lineto
65279.6 42928 lineto
64965.2 42613.6 lineto
65279.6 42299.2 lineto
poly0
newpath
67342.5 42505.5 moveto
67656.9 42819.9 lineto
67342.5 43134.3 lineto
67028.1 42819.9 lineto
67342.5 42505.5 lineto
poly0
newpath
67359 42744.8 moveto
67673.4 43059.2 lineto
67359 43373.6 lineto
67044.6 43059.2 lineto
67359 42744.8 lineto
poly0
newpath
41221.1 41696.8 moveto
41535.5 42011.2 lineto
41221.1 42325.6 lineto
40906.7 42011.2 lineto
41221.1 41696.8 lineto
poly0
newpath
41761.6 42299.2 moveto
42076 42613.6 lineto
41761.6 42928 lineto
41447.2 42613.6 lineto
41761.6 42299.2 lineto
poly0
newpath
43824.6 42505.5 moveto
44139 42819.9 lineto
43824.6 43134.3 lineto
43510.2 42819.9 lineto
43824.6 42505.5 lineto
poly0
newpath
43841.1 42744.8 moveto
44155.5 43059.2 lineto
43841.1 43373.6 lineto
43526.7 43059.2 lineto
43841.1 42744.8 lineto
poly0
newpath
49060.4 65214.7 moveto
49374.8 65529.1 lineto
49060.4 65843.5 lineto
48746 65529.1 lineto
49060.4 65214.7 lineto
poly0
newpath
49600.9 65817.1 moveto
49915.3 66131.5 lineto
49600.9 66445.9 lineto
49286.5 66131.5 lineto
49600.9 65817.1 lineto
poly0
newpath
51663.9 66023.4 moveto
51978.3 66337.8 lineto
51663.9 66652.2 lineto
51349.5 66337.8 lineto
51663.9 66023.4 lineto
poly0
newpath
51680.4 66262.7 moveto
51994.8 66577.1 lineto
51680.4 66891.5 lineto
51366 66577.1 lineto
51680.4 66262.7 lineto
poly0
newpath
56899.7 41696.8 moveto
57214.1 42011.2 lineto
56899.7 42325.6 lineto
56585.3 42011.2 lineto
56899.7 41696.8 lineto
poly0
newpath
57440.2 42299.2 moveto
57754.6 42613.6 lineto
57440.2 42928 lineto
57125.8 42613.6 lineto
57440.2 42299.2 lineto
poly0
newpath
59503.2 42505.5 moveto
59817.6 42819.9 lineto
59503.2 43134.3 lineto
59188.8 42819.9 lineto
59503.2 42505.5 lineto
poly0
newpath
59519.7 42744.8 moveto
59834.1 43059.2 lineto
59519.7 43373.6 lineto
59205.3 43059.2 lineto
59519.7 42744.8 lineto
poly0
newpath
33381.8 65214.7 moveto
33696.2 65529.1 lineto
33381.8 65843.5 lineto
33067.4 65529.1 lineto
33381.8 65214.7 lineto
poly0
newpath
33922.3 65817.1 moveto
34236.7 66131.5 lineto
33922.3 66445.9 lineto
33607.9 66131.5 lineto
33922.3 65817.1 lineto
poly0
newpath
35985.3 66023.4 moveto
36299.7 66337.8 lineto
35985.3 66652.2 lineto
35670.9 66337.8 lineto
35985.3 66023.4 lineto
poly0
newpath
36001.8 66262.7 moveto
36316.2 66577.1 lineto
36001.8 66891.5 lineto
35687.4 66577.1 lineto
36001.8 66262.7 lineto
poly0
newpath
72578.4 65214.7 moveto
72892.8 65529.1 lineto
72578.4 65843.5 lineto
72264 65529.1 lineto
72578.4 65214.7 lineto
poly0
newpath
73118.9 65817.1 moveto
73433.3 66131.5 lineto
73118.9 66445.9 lineto
72804.5 66131.5 lineto
73118.9 65817.1 lineto
poly0
newpath
75181.8 66023.4 moveto
75496.2 66337.8 lineto
75181.8 66652.2 lineto
74867.4 66337.8 lineto
75181.8 66023.4 lineto
poly0
newpath
75198.3 66262.7 moveto
75512.7 66577.1 lineto
75198.3 66891.5 lineto
74883.9 66577.1 lineto
75198.3 66262.7 lineto
poly0
newpath
49060.4 57375.4 moveto
49374.8 57689.8 lineto
49060.4 58004.2 lineto
48746 57689.8 lineto
49060.4 57375.4 lineto
poly0
newpath
49600.9 57977.8 moveto
49915.3 58292.2 lineto
49600.9 58606.6 lineto
49286.5 58292.2 lineto
49600.9 57977.8 lineto
poly0
newpath
51663.9 58184.1 moveto
51978.3 58498.5 lineto
51663.9 58812.9 lineto
51349.5 58498.5 lineto
51663.9 58184.1 lineto
poly0
newpath
51680.4 58423.4 moveto
51994.8 58737.8 lineto
51680.4 59052.2 lineto
51366 58737.8 lineto
51680.4 58423.4 lineto
poly0
118.11 setlinewidth
0 0 0 setrgbcolor
0 0 0 setrgbcolor
newpath
32124.2 35175.5 moveto
32124.2 36356.6 lineto
32405.4 36356.6 lineto
32574.1 36300.3 lineto
32686.6 36187.9 lineto
32742.8 36075.4 lineto
32799.1 35850.4 lineto
32799.1 35681.7 lineto
32742.8 35456.7 lineto
32686.6 35344.2 lineto
32574.1 35231.7 lineto
32405.4 35175.5 lineto
32124.2 35175.5 lineto
stroke
newpath
33305.3 35175.5 moveto
33305.3 35962.9 lineto
stroke
newpath
33305.3 35737.9 moveto
33361.5 35850.4 lineto
33417.7 35906.6 lineto
33530.2 35962.9 lineto
33642.7 35962.9 lineto
stroke
newpath
34036.4 35175.5 moveto
34036.4 35962.9 lineto
stroke
newpath
34036.4 36356.6 moveto
33980.2 36300.3 lineto
34036.4 36244.1 lineto
34092.7 36300.3 lineto
34036.4 36356.6 lineto
34036.4 36244.1 lineto
stroke
newpath
34767.6 35175.5 moveto
34655.1 35231.7 lineto
34598.8 35344.2 lineto
34598.8 36356.6 lineto
stroke
newpath
35386.3 35175.5 moveto
35273.8 35231.7 lineto
35217.5 35344.2 lineto
35217.5 36356.6 lineto
stroke
newpath
36736.1 35175.5 moveto
36736.1 36356.6 lineto
37129.8 35512.9 lineto
37523.5 36356.6 lineto
37523.5 35175.5 lineto
stroke
newpath
38592.1 35175.5 moveto
38592.1 35794.2 lineto
38535.9 35906.6 lineto
38423.4 35962.9 lineto
38198.4 35962.9 lineto
38085.9 35906.6 lineto
stroke
newpath
38592.1 35231.7 moveto
38479.6 35175.5 lineto
38198.4 35175.5 lineto
38085.9 35231.7 lineto
38029.7 35344.2 lineto
38029.7 35456.7 lineto
38085.9 35569.2 lineto
38198.4 35625.4 lineto
38479.6 35625.4 lineto
38592.1 35681.7 lineto
stroke
newpath
39154.5 35962.9 moveto
39154.5 34781.8 lineto
stroke
newpath
39154.5 35906.6 moveto
39267 35962.9 lineto
39492 35962.9 lineto
39604.5 35906.6 lineto
39660.7 35850.4 lineto
39717 35737.9 lineto
39717 35400.5 lineto
39660.7 35288 lineto
39604.5 35231.7 lineto
39492 35175.5 lineto
39267 35175.5 lineto
39154.5 35231.7 lineto
stroke
newpath
40223.1 35288 moveto
40279.4 35231.7 lineto
40223.1 35175.5 lineto
40166.9 35231.7 lineto
40223.1 35288 lineto
40223.1 35175.5 lineto
stroke
newpath
40223.1 35906.6 moveto
40279.4 35850.4 lineto
40223.1 35794.2 lineto
40166.9 35850.4 lineto
40223.1 35906.6 lineto
40223.1 35794.2 lineto
stroke
newpath
30996.1 33229.7 moveto
30996.5 33229.3 lineto
stroke
newpath
30996.5 33229.7 moveto
30996.1 33229.3 lineto
stroke
0 0 0 setrgbcolor
0 0 0 setrgbcolor
newpath
32349.1 33876.3 moveto
32461.6 33876.3 lineto
32574.1 33820 lineto
32630.3 33763.8 lineto
32686.6 33651.3 lineto
32742.8 33426.3 lineto
32742.8 33145.1 lineto
32686.6 32920.1 lineto
32630.3 32807.7 lineto
32574.1 32751.4 lineto
32461.6 32695.2 lineto
32349.1 32695.2 lineto
32236.6 32751.4 lineto
32180.4 32807.7 lineto
32124.2 32920.1 lineto
32067.9 33145.1 lineto
32067.9 33426.3 lineto
32124.2 33651.3 lineto
32180.4 33763.8 lineto
32236.6 33820 lineto
32349.1 33876.3 lineto
stroke
newpath
33249 32807.7 moveto
33305.3 32751.4 lineto
33249 32695.2 lineto
33192.8 32751.4 lineto
33249 32807.7 lineto
33249 32695.2 lineto
stroke
newpath
34036.4 33876.3 moveto
34148.9 33876.3 lineto
34261.4 33820 lineto
34317.6 33763.8 lineto
34373.9 33651.3 lineto
34430.1 33426.3 lineto
34430.1 33145.1 lineto
34373.9 32920.1 lineto
34317.6 32807.7 lineto
34261.4 32751.4 lineto
34148.9 32695.2 lineto
34036.4 32695.2 lineto
33923.9 32751.4 lineto
33867.7 32807.7 lineto
33811.4 32920.1 lineto
33755.2 33145.1 lineto
33755.2 33426.3 lineto
33811.4 33651.3 lineto
33867.7 33763.8 lineto
33923.9 33820 lineto
34036.4 33876.3 lineto
stroke
newpath
35161.3 33876.3 moveto
35273.8 33876.3 lineto
35386.3 33820 lineto
35442.5 33763.8 lineto
35498.7 33651.3 lineto
35555 33426.3 lineto
35555 33145.1 lineto
35498.7 32920.1 lineto
35442.5 32807.7 lineto
35386.3 32751.4 lineto
35273.8 32695.2 lineto
35161.3 32695.2 lineto
35048.8 32751.4 lineto
34992.6 32807.7 lineto
34936.3 32920.1 lineto
34880.1 33145.1 lineto
34880.1 33426.3 lineto
34936.3 33651.3 lineto
34992.6 33763.8 lineto
35048.8 33820 lineto
35161.3 33876.3 lineto
stroke
newpath
36061.2 32695.2 moveto
36061.2 33482.6 lineto
stroke
newpath
36061.2 33370.1 moveto
36117.4 33426.3 lineto
36229.9 33482.6 lineto
36398.6 33482.6 lineto
36511.1 33426.3 lineto
36567.4 33313.8 lineto
36567.4 32695.2 lineto
stroke
newpath
36567.4 33313.8 moveto
36623.6 33426.3 lineto
36736.1 33482.6 lineto
36904.8 33482.6 lineto
37017.3 33426.3 lineto
37073.5 33313.8 lineto
37073.5 32695.2 lineto
stroke
newpath
37636 32695.2 moveto
37636 33482.6 lineto
stroke
newpath
37636 33370.1 moveto
37692.2 33426.3 lineto
37804.7 33482.6 lineto
37973.4 33482.6 lineto
38085.9 33426.3 lineto
38142.2 33313.8 lineto
38142.2 32695.2 lineto
stroke
newpath
38142.2 33313.8 moveto
38198.4 33426.3 lineto
38310.9 33482.6 lineto
38479.6 33482.6 lineto
38592.1 33426.3 lineto
38648.3 33313.8 lineto
38648.3 32695.2 lineto
stroke
newpath
40954.3 33932.5 moveto
39941.9 32414 lineto
stroke
newpath
42472.9 33876.3 moveto
42585.4 33876.3 lineto
42697.8 33820 lineto
42754.1 33763.8 lineto
42810.3 33651.3 lineto
42866.6 33426.3 lineto
42866.6 33145.1 lineto
42810.3 32920.1 lineto
42754.1 32807.7 lineto
42697.8 32751.4 lineto
42585.4 32695.2 lineto
42472.9 32695.2 lineto
42360.4 32751.4 lineto
42304.1 32807.7 lineto
42247.9 32920.1 lineto
42191.7 33145.1 lineto
42191.7 33426.3 lineto
42247.9 33651.3 lineto
42304.1 33763.8 lineto
42360.4 33820 lineto
42472.9 33876.3 lineto
stroke
newpath
43372.8 32807.7 moveto
43429 32751.4 lineto
43372.8 32695.2 lineto
43316.5 32751.4 lineto
43372.8 32807.7 lineto
43372.8 32695.2 lineto
stroke
newpath
44160.2 33876.3 moveto
44272.6 33876.3 lineto
44385.1 33820 lineto
44441.4 33763.8 lineto
44497.6 33651.3 lineto
44553.9 33426.3 lineto
44553.9 33145.1 lineto
44497.6 32920.1 lineto
44441.4 32807.7 lineto
44385.1 32751.4 lineto
44272.6 32695.2 lineto
44160.2 32695.2 lineto
44047.7 32751.4 lineto
43991.4 32807.7 lineto
43935.2 32920.1 lineto
43878.9 33145.1 lineto
43878.9 33426.3 lineto
43935.2 33651.3 lineto
43991.4 33763.8 lineto
44047.7 33820 lineto
44160.2 33876.3 lineto
stroke
newpath
45285 33876.3 moveto
45397.5 33876.3 lineto
45510 33820 lineto
45566.2 33763.8 lineto
45622.5 33651.3 lineto
45678.7 33426.3 lineto
45678.7 33145.1 lineto
45622.5 32920.1 lineto
45566.2 32807.7 lineto
45510 32751.4 lineto
45397.5 32695.2 lineto
45285 32695.2 lineto
45172.5 32751.4 lineto
45116.3 32807.7 lineto
45060 32920.1 lineto
45003.8 33145.1 lineto
45003.8 33426.3 lineto
45060 33651.3 lineto
45116.3 33763.8 lineto
45172.5 33820 lineto
45285 33876.3 lineto
stroke
newpath
46409.9 33876.3 moveto
46522.4 33876.3 lineto
46634.8 33820 lineto
46691.1 33763.8 lineto
46747.3 33651.3 lineto
46803.6 33426.3 lineto
46803.6 33145.1 lineto
46747.3 32920.1 lineto
46691.1 32807.7 lineto
46634.8 32751.4 lineto
46522.4 32695.2 lineto
46409.9 32695.2 lineto
46297.4 32751.4 lineto
46241.1 32807.7 lineto
46184.9 32920.1 lineto
46128.7 33145.1 lineto
46128.7 33426.3 lineto
46184.9 33651.3 lineto
46241.1 33763.8 lineto
46297.4 33820 lineto
46409.9 33876.3 lineto
stroke
newpath
47253.5 33876.3 moveto
47253.5 33651.3 lineto
stroke
newpath
47703.5 33876.3 moveto
47703.5 33651.3 lineto
stroke
newpath
49447 32245.2 moveto
49390.7 32301.5 lineto
49278.3 32470.2 lineto
49222 32582.7 lineto
49165.8 32751.4 lineto
49109.5 33032.6 lineto
49109.5 33257.6 lineto
49165.8 33538.8 lineto
49222 33707.5 lineto
49278.3 33820 lineto
49390.7 33988.8 lineto
49447 34045 lineto
stroke
newpath
49784.5 33876.3 moveto
50571.9 33876.3 lineto
50065.7 32695.2 lineto
stroke
newpath
51246.8 33876.3 moveto
51359.3 33876.3 lineto
51471.7 33820 lineto
51528 33763.8 lineto
51584.2 33651.3 lineto
51640.5 33426.3 lineto
51640.5 33145.1 lineto
51584.2 32920.1 lineto
51528 32807.7 lineto
51471.7 32751.4 lineto
51359.3 32695.2 lineto
51246.8 32695.2 lineto
51134.3 32751.4 lineto
51078 32807.7 lineto
51021.8 32920.1 lineto
50965.6 33145.1 lineto
50965.6 33426.3 lineto
51021.8 33651.3 lineto
51078 33763.8 lineto
51134.3 33820 lineto
51246.8 33876.3 lineto
stroke
newpath
53046.5 32695.2 moveto
53046.5 33876.3 lineto
stroke
newpath
53552.7 32695.2 moveto
53552.7 33313.8 lineto
53496.5 33426.3 lineto
53384 33482.6 lineto
53215.3 33482.6 lineto
53102.8 33426.3 lineto
53046.5 33370.1 lineto
stroke
newpath
54283.9 32695.2 moveto
54171.4 32751.4 lineto
54115.2 32807.7 lineto
54058.9 32920.1 lineto
54058.9 33257.6 lineto
54115.2 33370.1 lineto
54171.4 33426.3 lineto
54283.9 33482.6 lineto
54452.6 33482.6 lineto
54565.1 33426.3 lineto
54621.3 33370.1 lineto
54677.6 33257.6 lineto
54677.6 32920.1 lineto
54621.3 32807.7 lineto
54565.1 32751.4 lineto
54452.6 32695.2 lineto
54283.9 32695.2 lineto
stroke
newpath
55352.5 32695.2 moveto
55240 32751.4 lineto
55183.8 32863.9 lineto
55183.8 33876.3 lineto
stroke
newpath
56252.4 32751.4 moveto
56139.9 32695.2 lineto
55914.9 32695.2 lineto
55802.4 32751.4 lineto
55746.2 32863.9 lineto
55746.2 33313.8 lineto
55802.4 33426.3 lineto
55914.9 33482.6 lineto
56139.9 33482.6 lineto
56252.4 33426.3 lineto
56308.6 33313.8 lineto
56308.6 33201.4 lineto
55746.2 33088.9 lineto
stroke
newpath
56758.6 32751.4 moveto
56871.1 32695.2 lineto
57096 32695.2 lineto
57208.5 32751.4 lineto
57264.8 32863.9 lineto
57264.8 32920.1 lineto
57208.5 33032.6 lineto
57096 33088.9 lineto
56927.3 33088.9 lineto
56814.8 33145.1 lineto
56758.6 33257.6 lineto
56758.6 33313.8 lineto
56814.8 33426.3 lineto
56927.3 33482.6 lineto
57096 33482.6 lineto
57208.5 33426.3 lineto
stroke
newpath
57658.5 32245.2 moveto
57714.7 32301.5 lineto
57827.2 32470.2 lineto
57883.4 32582.7 lineto
57939.7 32751.4 lineto
57995.9 33032.6 lineto
57995.9 33257.6 lineto
57939.7 33538.8 lineto
57883.4 33707.5 lineto
57827.2 33820 lineto
57714.7 33988.8 lineto
57658.5 34045 lineto
stroke
30914 31670.4 82.519 cir0
0 0 0 setrgbcolor
0 0 0 setrgbcolor
newpath
32349.1 32317.2 moveto
32461.6 32317.2 lineto
32574.1 32261 lineto
32630.3 32204.7 lineto
32686.6 32092.2 lineto
32742.8 31867.3 lineto
32742.8 31586.1 lineto
32686.6 31361.1 lineto
32630.3 31248.6 lineto
32574.1 31192.4 lineto
32461.6 31136.1 lineto
32349.1 31136.1 lineto
32236.6 31192.4 lineto
32180.4 31248.6 lineto
32124.2 31361.1 lineto
32067.9 31586.1 lineto
32067.9 31867.3 lineto
32124.2 32092.2 lineto
32180.4 32204.7 lineto
32236.6 32261 lineto
32349.1 32317.2 lineto
stroke
newpath
33249 31248.6 moveto
33305.3 31192.4 lineto
33249 31136.1 lineto
33192.8 31192.4 lineto
33249 31248.6 lineto
33249 31136.1 lineto
stroke
newpath
34317.6 31923.5 moveto
34317.6 31136.1 lineto
stroke
newpath
34036.4 32373.5 moveto
33755.2 31529.8 lineto
34486.4 31529.8 lineto
stroke
newpath
35161.3 32317.2 moveto
35273.8 32317.2 lineto
35386.3 32261 lineto
35442.5 32204.7 lineto
35498.7 32092.2 lineto
35555 31867.3 lineto
35555 31586.1 lineto
35498.7 31361.1 lineto
35442.5 31248.6 lineto
35386.3 31192.4 lineto
35273.8 31136.1 lineto
35161.3 31136.1 lineto
35048.8 31192.4 lineto
34992.6 31248.6 lineto
34936.3 31361.1 lineto
34880.1 31586.1 lineto
34880.1 31867.3 lineto
34936.3 32092.2 lineto
34992.6 32204.7 lineto
35048.8 32261 lineto
35161.3 32317.2 lineto
stroke
newpath
36061.2 31136.1 moveto
36061.2 31923.5 lineto
stroke
newpath
36061.2 31811 moveto
36117.4 31867.3 lineto
36229.9 31923.5 lineto
36398.6 31923.5 lineto
36511.1 31867.3 lineto
36567.4 31754.8 lineto
36567.4 31136.1 lineto
stroke
newpath
36567.4 31754.8 moveto
36623.6 31867.3 lineto
36736.1 31923.5 lineto
36904.8 31923.5 lineto
37017.3 31867.3 lineto
37073.5 31754.8 lineto
37073.5 31136.1 lineto
stroke
newpath
37636 31136.1 moveto
37636 31923.5 lineto
stroke
newpath
37636 31811 moveto
37692.2 31867.3 lineto
37804.7 31923.5 lineto
37973.4 31923.5 lineto
38085.9 31867.3 lineto
38142.2 31754.8 lineto
38142.2 31136.1 lineto
stroke
newpath
38142.2 31754.8 moveto
38198.4 31867.3 lineto
38310.9 31923.5 lineto
38479.6 31923.5 lineto
38592.1 31867.3 lineto
38648.3 31754.8 lineto
38648.3 31136.1 lineto
stroke
newpath
40954.3 32373.5 moveto
39941.9 30854.9 lineto
stroke
newpath
42472.9 32317.2 moveto
42585.4 32317.2 lineto
42697.8 32261 lineto
42754.1 32204.7 lineto
42810.3 32092.2 lineto
42866.6 31867.3 lineto
42866.6 31586.1 lineto
42810.3 31361.1 lineto
42754.1 31248.6 lineto
42697.8 31192.4 lineto
42585.4 31136.1 lineto
42472.9 31136.1 lineto
42360.4 31192.4 lineto
42304.1 31248.6 lineto
42247.9 31361.1 lineto
42191.7 31586.1 lineto
42191.7 31867.3 lineto
42247.9 32092.2 lineto
42304.1 32204.7 lineto
42360.4 32261 lineto
42472.9 32317.2 lineto
stroke
newpath
43372.8 31248.6 moveto
43429 31192.4 lineto
43372.8 31136.1 lineto
43316.5 31192.4 lineto
43372.8 31248.6 lineto
43372.8 31136.1 lineto
stroke
newpath
44160.2 32317.2 moveto
44272.6 32317.2 lineto
44385.1 32261 lineto
44441.4 32204.7 lineto
44497.6 32092.2 lineto
44553.9 31867.3 lineto
44553.9 31586.1 lineto
44497.6 31361.1 lineto
44441.4 31248.6 lineto
44385.1 31192.4 lineto
44272.6 31136.1 lineto
44160.2 31136.1 lineto
44047.7 31192.4 lineto
43991.4 31248.6 lineto
43935.2 31361.1 lineto
43878.9 31586.1 lineto
43878.9 31867.3 lineto
43935.2 32092.2 lineto
43991.4 32204.7 lineto
44047.7 32261 lineto
44160.2 32317.2 lineto
stroke
newpath
45678.7 31136.1 moveto
45003.8 31136.1 lineto
stroke
newpath
45341.3 31136.1 moveto
45341.3 32317.2 lineto
45228.8 32148.5 lineto
45116.3 32036 lineto
45003.8 31979.8 lineto
stroke
newpath
46691.1 32317.2 moveto
46466.1 32317.2 lineto
46353.6 32261 lineto
46297.4 32204.7 lineto
46184.9 32036 lineto
46128.7 31811 lineto
46128.7 31361.1 lineto
46184.9 31248.6 lineto
46241.1 31192.4 lineto
46353.6 31136.1 lineto
46578.6 31136.1 lineto
46691.1 31192.4 lineto
46747.3 31248.6 lineto
46803.6 31361.1 lineto
46803.6 31642.3 lineto
46747.3 31754.8 lineto
46691.1 31811 lineto
46578.6 31867.3 lineto
46353.6 31867.3 lineto
46241.1 31811 lineto
46184.9 31754.8 lineto
46128.7 31642.3 lineto
stroke
newpath
47253.5 32317.2 moveto
47253.5 32092.2 lineto
stroke
newpath
47703.5 32317.2 moveto
47703.5 32092.2 lineto
stroke
newpath
49447 30686.2 moveto
49390.7 30742.4 lineto
49278.3 30911.1 lineto
49222 31023.6 lineto
49165.8 31192.4 lineto
49109.5 31473.6 lineto
49109.5 31698.5 lineto
49165.8 31979.8 lineto
49222 32148.5 lineto
49278.3 32261 lineto
49390.7 32429.7 lineto
49447 32485.9 lineto
stroke
newpath
50403.1 31923.5 moveto
50403.1 31136.1 lineto
stroke
newpath
50121.9 32373.5 moveto
49840.7 31529.8 lineto
50571.9 31529.8 lineto
stroke
newpath
51921.7 31136.1 moveto
51921.7 32317.2 lineto
stroke
newpath
52427.9 31136.1 moveto
52427.9 31754.8 lineto
52371.6 31867.3 lineto
52259.1 31923.5 lineto
52090.4 31923.5 lineto
51977.9 31867.3 lineto
51921.7 31811 lineto
stroke
newpath
53159 31136.1 moveto
53046.5 31192.4 lineto
52990.3 31248.6 lineto
52934.1 31361.1 lineto
52934.1 31698.5 lineto
52990.3 31811 lineto
53046.5 31867.3 lineto
53159 31923.5 lineto
53327.8 31923.5 lineto
53440.2 31867.3 lineto
53496.5 31811 lineto
53552.7 31698.5 lineto
53552.7 31361.1 lineto
53496.5 31248.6 lineto
53440.2 31192.4 lineto
53327.8 31136.1 lineto
53159 31136.1 lineto
stroke
newpath
54227.6 31136.1 moveto
54115.2 31192.4 lineto
54058.9 31304.8 lineto
54058.9 32317.2 lineto
stroke
newpath
55127.5 31192.4 moveto
55015 31136.1 lineto
54790.1 31136.1 lineto
54677.6 31192.4 lineto
54621.3 31304.8 lineto
54621.3 31754.8 lineto
54677.6 31867.3 lineto
54790.1 31923.5 lineto
55015 31923.5 lineto
55127.5 31867.3 lineto
55183.8 31754.8 lineto
55183.8 31642.3 lineto
54621.3 31529.8 lineto
stroke
newpath
55633.7 31192.4 moveto
55746.2 31136.1 lineto
55971.2 31136.1 lineto
56083.7 31192.4 lineto
56139.9 31304.8 lineto
56139.9 31361.1 lineto
56083.7 31473.6 lineto
55971.2 31529.8 lineto
55802.4 31529.8 lineto
55690 31586.1 lineto
55633.7 31698.5 lineto
55633.7 31754.8 lineto
55690 31867.3 lineto
55802.4 31923.5 lineto
55971.2 31923.5 lineto
56083.7 31867.3 lineto
stroke
newpath
56533.6 30686.2 moveto
56589.8 30742.4 lineto
56702.3 30911.1 lineto
56758.6 31023.6 lineto
56814.8 31192.4 lineto
56871.1 31473.6 lineto
56871.1 31698.5 lineto
56814.8 31979.8 lineto
56758.6 32148.5 lineto
56702.3 32261 lineto
56589.8 32429.7 lineto
56533.6 32485.9 lineto
stroke
newpath
30852.1 30255.8 moveto
30852.1 29967 lineto
stroke
newpath
30707.7 30111.4 moveto
30996.5 30111.4 lineto
stroke
0 0 0 setrgbcolor
0 0 0 setrgbcolor
newpath
32349.1 30758.2 moveto
32461.6 30758.2 lineto
32574.1 30701.9 lineto
32630.3 30645.7 lineto
32686.6 30533.2 lineto
32742.8 30308.2 lineto
32742.8 30027 lineto
32686.6 29802 lineto
32630.3 29689.5 lineto
32574.1 29633.3 lineto
32461.6 29577.1 lineto
32349.1 29577.1 lineto
32236.6 29633.3 lineto
32180.4 29689.5 lineto
32124.2 29802 lineto
32067.9 30027 lineto
32067.9 30308.2 lineto
32124.2 30533.2 lineto
32180.4 30645.7 lineto
32236.6 30701.9 lineto
32349.1 30758.2 lineto
stroke
newpath
33249 29689.5 moveto
33305.3 29633.3 lineto
33249 29577.1 lineto
33192.8 29633.3 lineto
33249 29689.5 lineto
33249 29577.1 lineto
stroke
newpath
33699 30758.2 moveto
34486.4 30758.2 lineto
33980.2 29577.1 lineto
stroke
newpath
35161.3 30758.2 moveto
35273.8 30758.2 lineto
35386.3 30701.9 lineto
35442.5 30645.7 lineto
35498.7 30533.2 lineto
35555 30308.2 lineto
35555 30027 lineto
35498.7 29802 lineto
35442.5 29689.5 lineto
35386.3 29633.3 lineto
35273.8 29577.1 lineto
35161.3 29577.1 lineto
35048.8 29633.3 lineto
34992.6 29689.5 lineto
34936.3 29802 lineto
34880.1 30027 lineto
34880.1 30308.2 lineto
34936.3 30533.2 lineto
34992.6 30645.7 lineto
35048.8 30701.9 lineto
35161.3 30758.2 lineto
stroke
newpath
36061.2 29577.1 moveto
36061.2 30364.5 lineto
stroke
newpath
36061.2 30252 moveto
36117.4 30308.2 lineto
36229.9 30364.5 lineto
36398.6 30364.5 lineto
36511.1 30308.2 lineto
36567.4 30195.7 lineto
36567.4 29577.1 lineto
stroke
newpath
36567.4 30195.7 moveto
36623.6 30308.2 lineto
36736.1 30364.5 lineto
36904.8 30364.5 lineto
37017.3 30308.2 lineto
37073.5 30195.7 lineto
37073.5 29577.1 lineto
stroke
newpath
37636 29577.1 moveto
37636 30364.5 lineto
stroke
newpath
37636 30252 moveto
37692.2 30308.2 lineto
37804.7 30364.5 lineto
37973.4 30364.5 lineto
38085.9 30308.2 lineto
38142.2 30195.7 lineto
38142.2 29577.1 lineto
stroke
newpath
38142.2 30195.7 moveto
38198.4 30308.2 lineto
38310.9 30364.5 lineto
38479.6 30364.5 lineto
38592.1 30308.2 lineto
38648.3 30195.7 lineto
38648.3 29577.1 lineto
stroke
newpath
40954.3 30814.4 moveto
39941.9 29295.8 lineto
stroke
newpath
42472.9 30758.2 moveto
42585.4 30758.2 lineto
42697.8 30701.9 lineto
42754.1 30645.7 lineto
42810.3 30533.2 lineto
42866.6 30308.2 lineto
42866.6 30027 lineto
42810.3 29802 lineto
42754.1 29689.5 lineto
42697.8 29633.3 lineto
42585.4 29577.1 lineto
42472.9 29577.1 lineto
42360.4 29633.3 lineto
42304.1 29689.5 lineto
42247.9 29802 lineto
42191.7 30027 lineto
42191.7 30308.2 lineto
42247.9 30533.2 lineto
42304.1 30645.7 lineto
42360.4 30701.9 lineto
42472.9 30758.2 lineto
stroke
newpath
43372.8 29689.5 moveto
43429 29633.3 lineto
43372.8 29577.1 lineto
43316.5 29633.3 lineto
43372.8 29689.5 lineto
43372.8 29577.1 lineto
stroke
newpath
44160.2 30758.2 moveto
44272.6 30758.2 lineto
44385.1 30701.9 lineto
44441.4 30645.7 lineto
44497.6 30533.2 lineto
44553.9 30308.2 lineto
44553.9 30027 lineto
44497.6 29802 lineto
44441.4 29689.5 lineto
44385.1 29633.3 lineto
44272.6 29577.1 lineto
44160.2 29577.1 lineto
44047.7 29633.3 lineto
43991.4 29689.5 lineto
43935.2 29802 lineto
43878.9 30027 lineto
43878.9 30308.2 lineto
43935.2 30533.2 lineto
43991.4 30645.7 lineto
44047.7 30701.9 lineto
44160.2 30758.2 lineto
stroke
newpath
45003.8 30645.7 moveto
45060 30701.9 lineto
45172.5 30758.2 lineto
45453.7 30758.2 lineto
45566.2 30701.9 lineto
45622.5 30645.7 lineto
45678.7 30533.2 lineto
45678.7 30420.7 lineto
45622.5 30252 lineto
44947.6 29577.1 lineto
45678.7 29577.1 lineto
stroke
newpath
46353.6 30252 moveto
46241.1 30308.2 lineto
46184.9 30364.5 lineto
46128.7 30476.9 lineto
46128.7 30533.2 lineto
46184.9 30645.7 lineto
46241.1 30701.9 lineto
46353.6 30758.2 lineto
46578.6 30758.2 lineto
46691.1 30701.9 lineto
46747.3 30645.7 lineto
46803.6 30533.2 lineto
46803.6 30476.9 lineto
46747.3 30364.5 lineto
46691.1 30308.2 lineto
46578.6 30252 lineto
46353.6 30252 lineto
46241.1 30195.7 lineto
46184.9 30139.5 lineto
46128.7 30027 lineto
46128.7 29802 lineto
46184.9 29689.5 lineto
46241.1 29633.3 lineto
46353.6 29577.1 lineto
46578.6 29577.1 lineto
46691.1 29633.3 lineto
46747.3 29689.5 lineto
46803.6 29802 lineto
46803.6 30027 lineto
46747.3 30139.5 lineto
46691.1 30195.7 lineto
46578.6 30252 lineto
stroke
newpath
47253.5 30758.2 moveto
47253.5 30533.2 lineto
stroke
newpath
47703.5 30758.2 moveto
47703.5 30533.2 lineto
stroke
newpath
49447 29127.1 moveto
49390.7 29183.4 lineto
49278.3 29352.1 lineto
49222 29464.6 lineto
49165.8 29633.3 lineto
49109.5 29914.5 lineto
49109.5 30139.5 lineto
49165.8 30420.7 lineto
49222 30589.4 lineto
49278.3 30701.9 lineto
49390.7 30870.7 lineto
49447 30926.9 lineto
stroke
newpath
49784.5 30758.2 moveto
50571.9 30758.2 lineto
50065.7 29577.1 lineto
stroke
newpath
51246.8 30758.2 moveto
51359.3 30758.2 lineto
51471.7 30701.9 lineto
51528 30645.7 lineto
51584.2 30533.2 lineto
51640.5 30308.2 lineto
51640.5 30027 lineto
51584.2 29802 lineto
51528 29689.5 lineto
51471.7 29633.3 lineto
51359.3 29577.1 lineto
51246.8 29577.1 lineto
51134.3 29633.3 lineto
51078 29689.5 lineto
51021.8 29802 lineto
50965.6 30027 lineto
50965.6 30308.2 lineto
51021.8 30533.2 lineto
51078 30645.7 lineto
51134.3 30701.9 lineto
51246.8 30758.2 lineto
stroke
newpath
53046.5 29577.1 moveto
53046.5 30758.2 lineto
stroke
newpath
53552.7 29577.1 moveto
53552.7 30195.7 lineto
53496.5 30308.2 lineto
53384 30364.5 lineto
53215.3 30364.5 lineto
53102.8 30308.2 lineto
53046.5 30252 lineto
stroke
newpath
54283.9 29577.1 moveto
54171.4 29633.3 lineto
54115.2 29689.5 lineto
54058.9 29802 lineto
54058.9 30139.5 lineto
54115.2 30252 lineto
54171.4 30308.2 lineto
54283.9 30364.5 lineto
54452.6 30364.5 lineto
54565.1 30308.2 lineto
54621.3 30252 lineto
54677.6 30139.5 lineto
54677.6 29802 lineto
54621.3 29689.5 lineto
54565.1 29633.3 lineto
54452.6 29577.1 lineto
54283.9 29577.1 lineto
stroke
newpath
55352.5 29577.1 moveto
55240 29633.3 lineto
55183.8 29745.8 lineto
55183.8 30758.2 lineto
stroke
newpath
56252.4 29633.3 moveto
56139.9 29577.1 lineto
55914.9 29577.1 lineto
55802.4 29633.3 lineto
55746.2 29745.8 lineto
55746.2 30195.7 lineto
55802.4 30308.2 lineto
55914.9 30364.5 lineto
56139.9 30364.5 lineto
56252.4 30308.2 lineto
56308.6 30195.7 lineto
56308.6 30083.2 lineto
55746.2 29970.8 lineto
stroke
newpath
56758.6 29633.3 moveto
56871.1 29577.1 lineto
57096 29577.1 lineto
57208.5 29633.3 lineto
57264.8 29745.8 lineto
57264.8 29802 lineto
57208.5 29914.5 lineto
57096 29970.8 lineto
56927.3 29970.8 lineto
56814.8 30027 lineto
56758.6 30139.5 lineto
56758.6 30195.7 lineto
56814.8 30308.2 lineto
56927.3 30364.5 lineto
57096 30364.5 lineto
57208.5 30308.2 lineto
stroke
newpath
57658.5 29127.1 moveto
57714.7 29183.4 lineto
57827.2 29352.1 lineto
57883.4 29464.6 lineto
57939.7 29633.3 lineto
57995.9 29914.5 lineto
57995.9 30139.5 lineto
57939.7 30420.7 lineto
57883.4 30589.4 lineto
57827.2 30701.9 lineto
57714.7 30870.7 lineto
57658.5 30926.9 lineto
stroke
newpath
30930.5 28393 moveto
30930.5 28711.6 lineto
30611.8 28711.6 lineto
30611.8 28393 lineto
30930.5 28393 lineto
poly0
0 0 0 setrgbcolor
0 0 0 setrgbcolor
newpath
32742.8 28018 moveto
32067.9 28018 lineto
stroke
newpath
32405.4 28018 moveto
32405.4 29199.1 lineto
32292.9 29030.4 lineto
32180.4 28917.9 lineto
32067.9 28861.7 lineto
stroke
newpath
33249 28130.5 moveto
33305.3 28074.3 lineto
33249 28018 lineto
33192.8 28074.3 lineto
33249 28130.5 lineto
33249 28018 lineto
stroke
newpath
34036.4 29199.1 moveto
34148.9 29199.1 lineto
34261.4 29142.9 lineto
34317.6 29086.6 lineto
34373.9 28974.1 lineto
34430.1 28749.2 lineto
34430.1 28468 lineto
34373.9 28243 lineto
34317.6 28130.5 lineto
34261.4 28074.3 lineto
34148.9 28018 lineto
34036.4 28018 lineto
33923.9 28074.3 lineto
33867.7 28130.5 lineto
33811.4 28243 lineto
33755.2 28468 lineto
33755.2 28749.2 lineto
33811.4 28974.1 lineto
33867.7 29086.6 lineto
33923.9 29142.9 lineto
34036.4 29199.1 lineto
stroke
newpath
34992.6 28018 moveto
35217.5 28018 lineto
35330 28074.3 lineto
35386.3 28130.5 lineto
35498.7 28299.2 lineto
35555 28524.2 lineto
35555 28974.1 lineto
35498.7 29086.6 lineto
35442.5 29142.9 lineto
35330 29199.1 lineto
35105 29199.1 lineto
34992.6 29142.9 lineto
34936.3 29086.6 lineto
34880.1 28974.1 lineto
34880.1 28692.9 lineto
34936.3 28580.4 lineto
34992.6 28524.2 lineto
35105 28468 lineto
35330 28468 lineto
35442.5 28524.2 lineto
35498.7 28580.4 lineto
35555 28692.9 lineto
stroke
newpath
36061.2 28018 moveto
36061.2 28805.4 lineto
stroke
newpath
36061.2 28692.9 moveto
36117.4 28749.2 lineto
36229.9 28805.4 lineto
36398.6 28805.4 lineto
36511.1 28749.2 lineto
36567.4 28636.7 lineto
36567.4 28018 lineto
stroke
newpath
36567.4 28636.7 moveto
36623.6 28749.2 lineto
36736.1 28805.4 lineto
36904.8 28805.4 lineto
37017.3 28749.2 lineto
37073.5 28636.7 lineto
37073.5 28018 lineto
stroke
newpath
37636 28018 moveto
37636 28805.4 lineto
stroke
newpath
37636 28692.9 moveto
37692.2 28749.2 lineto
37804.7 28805.4 lineto
37973.4 28805.4 lineto
38085.9 28749.2 lineto
38142.2 28636.7 lineto
38142.2 28018 lineto
stroke
newpath
38142.2 28636.7 moveto
38198.4 28749.2 lineto
38310.9 28805.4 lineto
38479.6 28805.4 lineto
38592.1 28749.2 lineto
38648.3 28636.7 lineto
38648.3 28018 lineto
stroke
newpath
40954.3 29255.4 moveto
39941.9 27736.8 lineto
stroke
newpath
42472.9 29199.1 moveto
42585.4 29199.1 lineto
42697.8 29142.9 lineto
42754.1 29086.6 lineto
42810.3 28974.1 lineto
42866.6 28749.2 lineto
42866.6 28468 lineto
42810.3 28243 lineto
42754.1 28130.5 lineto
42697.8 28074.3 lineto
42585.4 28018 lineto
42472.9 28018 lineto
42360.4 28074.3 lineto
42304.1 28130.5 lineto
42247.9 28243 lineto
42191.7 28468 lineto
42191.7 28749.2 lineto
42247.9 28974.1 lineto
42304.1 29086.6 lineto
42360.4 29142.9 lineto
42472.9 29199.1 lineto
stroke
newpath
43372.8 28130.5 moveto
43429 28074.3 lineto
43372.8 28018 lineto
43316.5 28074.3 lineto
43372.8 28130.5 lineto
43372.8 28018 lineto
stroke
newpath
44160.2 29199.1 moveto
44272.6 29199.1 lineto
44385.1 29142.9 lineto
44441.4 29086.6 lineto
44497.6 28974.1 lineto
44553.9 28749.2 lineto
44553.9 28468 lineto
44497.6 28243 lineto
44441.4 28130.5 lineto
44385.1 28074.3 lineto
44272.6 28018 lineto
44160.2 28018 lineto
44047.7 28074.3 lineto
43991.4 28130.5 lineto
43935.2 28243 lineto
43878.9 28468 lineto
43878.9 28749.2 lineto
43935.2 28974.1 lineto
43991.4 29086.6 lineto
44047.7 29142.9 lineto
44160.2 29199.1 lineto
stroke
newpath
45566.2 28805.4 moveto
45566.2 28018 lineto
stroke
newpath
45285 29255.4 moveto
45003.8 28411.7 lineto
45735 28411.7 lineto
stroke
newpath
46072.4 29199.1 moveto
46803.6 29199.1 lineto
46409.9 28749.2 lineto
46578.6 28749.2 lineto
46691.1 28692.9 lineto
46747.3 28636.7 lineto
46803.6 28524.2 lineto
46803.6 28243 lineto
46747.3 28130.5 lineto
46691.1 28074.3 lineto
46578.6 28018 lineto
46241.1 28018 lineto
46128.7 28074.3 lineto
46072.4 28130.5 lineto
stroke
newpath
47253.5 29199.1 moveto
47253.5 28974.1 lineto
stroke
newpath
47703.5 29199.1 moveto
47703.5 28974.1 lineto
stroke
newpath
49447 27568.1 moveto
49390.7 27624.3 lineto
49278.3 27793 lineto
49222 27905.5 lineto
49165.8 28074.3 lineto
49109.5 28355.5 lineto
49109.5 28580.4 lineto
49165.8 28861.7 lineto
49222 29030.4 lineto
49278.3 29142.9 lineto
49390.7 29311.6 lineto
49447 29367.8 lineto
stroke
newpath
50403.1 28805.4 moveto
50403.1 28018 lineto
stroke
newpath
50121.9 29255.4 moveto
49840.7 28411.7 lineto
50571.9 28411.7 lineto
stroke
newpath
51246.8 29199.1 moveto
51359.3 29199.1 lineto
51471.7 29142.9 lineto
51528 29086.6 lineto
51584.2 28974.1 lineto
51640.5 28749.2 lineto
51640.5 28468 lineto
51584.2 28243 lineto
51528 28130.5 lineto
51471.7 28074.3 lineto
51359.3 28018 lineto
51246.8 28018 lineto
51134.3 28074.3 lineto
51078 28130.5 lineto
51021.8 28243 lineto
50965.6 28468 lineto
50965.6 28749.2 lineto
51021.8 28974.1 lineto
51078 29086.6 lineto
51134.3 29142.9 lineto
51246.8 29199.1 lineto
stroke
newpath
53046.5 28018 moveto
53046.5 29199.1 lineto
stroke
newpath
53552.7 28018 moveto
53552.7 28636.7 lineto
53496.5 28749.2 lineto
53384 28805.4 lineto
53215.3 28805.4 lineto
53102.8 28749.2 lineto
53046.5 28692.9 lineto
stroke
newpath
54283.9 28018 moveto
54171.4 28074.3 lineto
54115.2 28130.5 lineto
54058.9 28243 lineto
54058.9 28580.4 lineto
54115.2 28692.9 lineto
54171.4 28749.2 lineto
54283.9 28805.4 lineto
54452.6 28805.4 lineto
54565.1 28749.2 lineto
54621.3 28692.9 lineto
54677.6 28580.4 lineto
54677.6 28243 lineto
54621.3 28130.5 lineto
54565.1 28074.3 lineto
54452.6 28018 lineto
54283.9 28018 lineto
stroke
newpath
55352.5 28018 moveto
55240 28074.3 lineto
55183.8 28186.7 lineto
55183.8 29199.1 lineto
stroke
newpath
56252.4 28074.3 moveto
56139.9 28018 lineto
55914.9 28018 lineto
55802.4 28074.3 lineto
55746.2 28186.7 lineto
55746.2 28636.7 lineto
55802.4 28749.2 lineto
55914.9 28805.4 lineto
56139.9 28805.4 lineto
56252.4 28749.2 lineto
56308.6 28636.7 lineto
56308.6 28524.2 lineto
55746.2 28411.7 lineto
stroke
newpath
56758.6 28074.3 moveto
56871.1 28018 lineto
57096 28018 lineto
57208.5 28074.3 lineto
57264.8 28186.7 lineto
57264.8 28243 lineto
57208.5 28355.5 lineto
57096 28411.7 lineto
56927.3 28411.7 lineto
56814.8 28468 lineto
56758.6 28580.4 lineto
56758.6 28636.7 lineto
56814.8 28749.2 lineto
56927.3 28805.4 lineto
57096 28805.4 lineto
57208.5 28749.2 lineto
stroke
newpath
57658.5 27568.1 moveto
57714.7 27624.3 lineto
57827.2 27793 lineto
57883.4 27905.5 lineto
57939.7 28074.3 lineto
57995.9 28355.5 lineto
57995.9 28580.4 lineto
57939.7 28861.7 lineto
57883.4 29030.4 lineto
57827.2 29142.9 lineto
57714.7 29311.6 lineto
57658.5 29367.8 lineto
stroke
newpath
30682.1 26678.9 moveto
30996.5 26993.3 lineto
30682.1 27307.7 lineto
30367.7 26993.3 lineto
30682.1 26678.9 lineto
poly0
0 0 0 setrgbcolor
0 0 0 setrgbcolor
newpath
32742.8 26459 moveto
32067.9 26459 lineto
stroke
newpath
32405.4 26459 moveto
32405.4 27640.1 lineto
32292.9 27471.3 lineto
32180.4 27358.8 lineto
32067.9 27302.6 lineto
stroke
newpath
33249 26571.4 moveto
33305.3 26515.2 lineto
33249 26459 lineto
33192.8 26515.2 lineto
33249 26571.4 lineto
33249 26459 lineto
stroke
newpath
34373.9 27640.1 moveto
33811.4 27640.1 lineto
33755.2 27077.6 lineto
33811.4 27133.9 lineto
33923.9 27190.1 lineto
34205.1 27190.1 lineto
34317.6 27133.9 lineto
34373.9 27077.6 lineto
34430.1 26965.1 lineto
34430.1 26683.9 lineto
34373.9 26571.4 lineto
34317.6 26515.2 lineto
34205.1 26459 lineto
33923.9 26459 lineto
33811.4 26515.2 lineto
33755.2 26571.4 lineto
stroke
newpath
34880.1 27527.6 moveto
34936.3 27583.8 lineto
35048.8 27640.1 lineto
35330 27640.1 lineto
35442.5 27583.8 lineto
35498.7 27527.6 lineto
35555 27415.1 lineto
35555 27302.6 lineto
35498.7 27133.9 lineto
34823.8 26459 lineto
35555 26459 lineto
stroke
newpath
36061.2 26459 moveto
36061.2 27246.4 lineto
stroke
newpath
36061.2 27133.9 moveto
36117.4 27190.1 lineto
36229.9 27246.4 lineto
36398.6 27246.4 lineto
36511.1 27190.1 lineto
36567.4 27077.6 lineto
36567.4 26459 lineto
stroke
newpath
36567.4 27077.6 moveto
36623.6 27190.1 lineto
36736.1 27246.4 lineto
36904.8 27246.4 lineto
37017.3 27190.1 lineto
37073.5 27077.6 lineto
37073.5 26459 lineto
stroke
newpath
37636 26459 moveto
37636 27246.4 lineto
stroke
newpath
37636 27133.9 moveto
37692.2 27190.1 lineto
37804.7 27246.4 lineto
37973.4 27246.4 lineto
38085.9 27190.1 lineto
38142.2 27077.6 lineto
38142.2 26459 lineto
stroke
newpath
38142.2 27077.6 moveto
38198.4 27190.1 lineto
38310.9 27246.4 lineto
38479.6 27246.4 lineto
38592.1 27190.1 lineto
38648.3 27077.6 lineto
38648.3 26459 lineto
stroke
newpath
40954.3 27696.3 moveto
39941.9 26177.7 lineto
stroke
newpath
42472.9 27640.1 moveto
42585.4 27640.1 lineto
42697.8 27583.8 lineto
42754.1 27527.6 lineto
42810.3 27415.1 lineto
42866.6 27190.1 lineto
42866.6 26908.9 lineto
42810.3 26683.9 lineto
42754.1 26571.4 lineto
42697.8 26515.2 lineto
42585.4 26459 lineto
42472.9 26459 lineto
42360.4 26515.2 lineto
42304.1 26571.4 lineto
42247.9 26683.9 lineto
42191.7 26908.9 lineto
42191.7 27190.1 lineto
42247.9 27415.1 lineto
42304.1 27527.6 lineto
42360.4 27583.8 lineto
42472.9 27640.1 lineto
stroke
newpath
43372.8 26571.4 moveto
43429 26515.2 lineto
43372.8 26459 lineto
43316.5 26515.2 lineto
43372.8 26571.4 lineto
43372.8 26459 lineto
stroke
newpath
44160.2 27640.1 moveto
44272.6 27640.1 lineto
44385.1 27583.8 lineto
44441.4 27527.6 lineto
44497.6 27415.1 lineto
44553.9 27190.1 lineto
44553.9 26908.9 lineto
44497.6 26683.9 lineto
44441.4 26571.4 lineto
44385.1 26515.2 lineto
44272.6 26459 lineto
44160.2 26459 lineto
44047.7 26515.2 lineto
43991.4 26571.4 lineto
43935.2 26683.9 lineto
43878.9 26908.9 lineto
43878.9 27190.1 lineto
43935.2 27415.1 lineto
43991.4 27527.6 lineto
44047.7 27583.8 lineto
44160.2 27640.1 lineto
stroke
newpath
45566.2 27640.1 moveto
45341.3 27640.1 lineto
45228.8 27583.8 lineto
45172.5 27527.6 lineto
45060 27358.8 lineto
45003.8 27133.9 lineto
45003.8 26683.9 lineto
45060 26571.4 lineto
45116.3 26515.2 lineto
45228.8 26459 lineto
45453.7 26459 lineto
45566.2 26515.2 lineto
45622.5 26571.4 lineto
45678.7 26683.9 lineto
45678.7 26965.1 lineto
45622.5 27077.6 lineto
45566.2 27133.9 lineto
45453.7 27190.1 lineto
45228.8 27190.1 lineto
45116.3 27133.9 lineto
45060 27077.6 lineto
45003.8 26965.1 lineto
stroke
newpath
46409.9 27640.1 moveto
46522.4 27640.1 lineto
46634.8 27583.8 lineto
46691.1 27527.6 lineto
46747.3 27415.1 lineto
46803.6 27190.1 lineto
46803.6 26908.9 lineto
46747.3 26683.9 lineto
46691.1 26571.4 lineto
46634.8 26515.2 lineto
46522.4 26459 lineto
46409.9 26459 lineto
46297.4 26515.2 lineto
46241.1 26571.4 lineto
46184.9 26683.9 lineto
46128.7 26908.9 lineto
46128.7 27190.1 lineto
46184.9 27415.1 lineto
46241.1 27527.6 lineto
46297.4 27583.8 lineto
46409.9 27640.1 lineto
stroke
newpath
47253.5 27640.1 moveto
47253.5 27415.1 lineto
stroke
newpath
47703.5 27640.1 moveto
47703.5 27415.1 lineto
stroke
newpath
49447 26009 moveto
49390.7 26065.3 lineto
49278.3 26234 lineto
49222 26346.5 lineto
49165.8 26515.2 lineto
49109.5 26796.4 lineto
49109.5 27021.4 lineto
49165.8 27302.6 lineto
49222 27471.3 lineto
49278.3 27583.8 lineto
49390.7 27752.5 lineto
49447 27808.8 lineto
stroke
newpath
50515.6 26459 moveto
49840.7 26459 lineto
stroke
newpath
50178.2 26459 moveto
50178.2 27640.1 lineto
50065.7 27471.3 lineto
49953.2 27358.8 lineto
49840.7 27302.6 lineto
stroke
newpath
51528 27246.4 moveto
51528 26459 lineto
stroke
newpath
51246.8 27696.3 moveto
50965.6 26852.7 lineto
51696.7 26852.7 lineto
stroke
newpath
52371.6 27640.1 moveto
52484.1 27640.1 lineto
52596.6 27583.8 lineto
52652.8 27527.6 lineto
52709.1 27415.1 lineto
52765.3 27190.1 lineto
52765.3 26908.9 lineto
52709.1 26683.9 lineto
52652.8 26571.4 lineto
52596.6 26515.2 lineto
52484.1 26459 lineto
52371.6 26459 lineto
52259.1 26515.2 lineto
52202.9 26571.4 lineto
52146.7 26683.9 lineto
52090.4 26908.9 lineto
52090.4 27190.1 lineto
52146.7 27415.1 lineto
52202.9 27527.6 lineto
52259.1 27583.8 lineto
52371.6 27640.1 lineto
stroke
newpath
54171.4 26459 moveto
54171.4 27640.1 lineto
stroke
newpath
54677.6 26459 moveto
54677.6 27077.6 lineto
54621.3 27190.1 lineto
54508.9 27246.4 lineto
54340.1 27246.4 lineto
54227.6 27190.1 lineto
54171.4 27133.9 lineto
stroke
newpath
55408.7 26459 moveto
55296.3 26515.2 lineto
55240 26571.4 lineto
55183.8 26683.9 lineto
55183.8 27021.4 lineto
55240 27133.9 lineto
55296.3 27190.1 lineto
55408.7 27246.4 lineto
55577.5 27246.4 lineto
55690 27190.1 lineto
55746.2 27133.9 lineto
55802.4 27021.4 lineto
55802.4 26683.9 lineto
55746.2 26571.4 lineto
55690 26515.2 lineto
55577.5 26459 lineto
55408.7 26459 lineto
stroke
newpath
56477.4 26459 moveto
56364.9 26515.2 lineto
56308.6 26627.7 lineto
56308.6 27640.1 lineto
stroke
newpath
57377.3 26515.2 moveto
57264.8 26459 lineto
57039.8 26459 lineto
56927.3 26515.2 lineto
56871.1 26627.7 lineto
56871.1 27077.6 lineto
56927.3 27190.1 lineto
57039.8 27246.4 lineto
57264.8 27246.4 lineto
57377.3 27190.1 lineto
57433.5 27077.6 lineto
57433.5 26965.1 lineto
56871.1 26852.7 lineto
stroke
newpath
57883.4 26515.2 moveto
57995.9 26459 lineto
58220.9 26459 lineto
58333.4 26515.2 lineto
58389.6 26627.7 lineto
58389.6 26683.9 lineto
58333.4 26796.4 lineto
58220.9 26852.7 lineto
58052.2 26852.7 lineto
57939.7 26908.9 lineto
57883.4 27021.4 lineto
57883.4 27077.6 lineto
57939.7 27190.1 lineto
58052.2 27246.4 lineto
58220.9 27246.4 lineto
58333.4 27190.1 lineto
stroke
newpath
58783.3 26009 moveto
58839.6 26065.3 lineto
58952.1 26234 lineto
59008.3 26346.5 lineto
59064.5 26515.2 lineto
59120.8 26796.4 lineto
59120.8 27021.4 lineto
59064.5 27302.6 lineto
59008.3 27471.3 lineto
58952.1 27583.8 lineto
58839.6 27752.5 lineto
58783.3 27808.8 lineto
stroke
showpage
grestore
%%EOF
