%!PS-Adobe-3.0
%%Creator: PCBNEW
%%CreationDate: Wed Jun 19 17:46:57 2019
%%Title: /home/josh/src/gitlab.com/polymer-kb/hardware/pcb/gerber/polymer-NPTH-drl_map.ps
%%Pages: 1
%%PageOrder: Ascend
%%BoundingBox: 0 0 596 842
%%DocumentMedia: A4 595 842 0 () ()
%%Orientation: Landscape
%%EndComments
%%BeginProlog
/line { newpath moveto lineto stroke } bind def
/cir0 { newpath 0 360 arc stroke } bind def
/cir1 { newpath 0 360 arc gsave fill grestore stroke } bind def
/cir2 { newpath 0 360 arc gsave fill grestore stroke } bind def
/arc0 { newpath arc stroke } bind def
/arc1 { newpath 4 index 4 index moveto arc closepath gsave fill
    grestore stroke } bind def
/arc2 { newpath 4 index 4 index moveto arc closepath gsave fill
    grestore stroke } bind def
/poly0 { stroke } bind def
/poly1 { closepath gsave fill grestore stroke } bind def
/poly2 { closepath gsave fill grestore stroke } bind def
/rect0 { rectstroke } bind def
/rect1 { rectfill } bind def
/rect2 { rectfill } bind def
/linemode0 { 0 setlinecap 0 setlinejoin 0 setlinewidth } bind def
/linemode1 { 1 setlinecap 1 setlinejoin } bind def
/dashedline { [200] 100 setdash } bind def
/solidline { [] 0 setdash } bind def
/phantomshow { moveto
    /KicadFont findfont 0.000001 scalefont setfont
    show } bind def
/textshow { gsave
    findfont exch scalefont setfont concat 1 scale 0 0 moveto show
    } bind def
/reencodefont {
  findfont dup length dict begin
  { 1 index /FID ne
    { def }
    { pop pop } ifelse
  } forall
  /Encoding ISOLatin1Encoding def
  currentdict
  end } bind def
/KicadFont /Helvetica reencodefont definefont pop
/KicadFont-Bold /Helvetica-Bold reencodefont definefont pop
/KicadFont-Oblique /Helvetica-Oblique reencodefont definefont pop
/KicadFont-BoldOblique /Helvetica-BoldOblique reencodefont definefont pop
%%EndProlog
%%Page: 1 1
%%BeginPageSetup
gsave
0.0072 0.0072 scale
linemode1
82680 0 translate 90 rotate
52.3996 setlinewidth
%%EndPageSetup
0 0 0 setrgbcolor
61.8892 setlinewidth
53614 77474.3 1237.78 90 135 arc0
0 0 0 setrgbcolor
newpath
52329.2 77939.9 moveto
52738.7 78349.5 lineto
stroke
0 0 0 setrgbcolor
51453.9 78815.2 1237.78 -90 -45 arc0
0 0 0 setrgbcolor
80645 77474.3 1237.78 45 90 arc0
0 0 0 setrgbcolor
84664.8 74998.7 1237.78 -0 90 arc0
0 0 0 setrgbcolor
newpath
80645 78712 moveto
78991.6 78712 lineto
stroke
0 0 0 setrgbcolor
newpath
83270.8 76599 moveto
82036 77833.8 lineto
stroke
0 0 0 setrgbcolor
newpath
34893.4 77833.2 moveto
35409.7 78349.5 lineto
stroke
0 0 0 setrgbcolor
41448.5 77474.3 1237.78 45 90 arc0
0 0 0 setrgbcolor
newpath
77134.9 78712 moveto
75481.5 78712 lineto
stroke
0 0 0 setrgbcolor
newpath
77134.9 78712 moveto
78991.6 78712 lineto
stroke
0 0 0 setrgbcolor
36285 77474.3 1237.78 90 135 arc0
0 0 0 setrgbcolor
newpath
37938.4 78712 moveto
39795.1 78712 lineto
stroke
0 0 0 setrgbcolor
43608.5 78815.2 1237.78 -135 -90 arc0
0 0 0 setrgbcolor
newpath
63316 78712 moveto
58465 78712 lineto
stroke
0 0 0 setrgbcolor
75481.5 77474.3 1237.78 90 135 arc0
0 0 0 setrgbcolor
newpath
43608.5 77577.4 moveto
51453.9 77577.4 lineto
stroke
0 0 0 setrgbcolor
newpath
36285 78712 moveto
37938.4 78712 lineto
stroke
0 0 0 setrgbcolor
newpath
64600.8 77939.9 moveto
64191.3 78349.5 lineto
stroke
0 0 0 setrgbcolor
73321.5 78815.2 1237.78 -90 -45 arc0
0 0 0 setrgbcolor
newpath
39795.1 78712 moveto
41448.5 78712 lineto
stroke
0 0 0 setrgbcolor
newpath
42733.3 77939.9 moveto
42323.7 78349.5 lineto
stroke
0 0 0 setrgbcolor
newpath
74196.7 77939.9 moveto
74606.3 78349.5 lineto
stroke
0 0 0 setrgbcolor
newpath
32265.2 76236.5 moveto
32784 76236.5 lineto
stroke
0 0 0 setrgbcolor
newpath
53614 78712 moveto
58465 78712 lineto
stroke
0 0 0 setrgbcolor
63316 77474.3 1237.78 45 90 arc0
0 0 0 setrgbcolor
32265.2 74998.7 1237.78 90 180 arc0
0 0 0 setrgbcolor
32784 77474.3 1237.78 -90 -45 arc0
0 0 0 setrgbcolor
newpath
84664.8 76236.5 moveto
84146 76236.5 lineto
stroke
0 0 0 setrgbcolor
84146 77474.3 1237.78 -135 -90 arc0
0 0 0 setrgbcolor
65476.1 78815.2 1237.78 -135 -90 arc0
0 0 0 setrgbcolor
newpath
33659.2 76599 moveto
34894 77833.8 lineto
stroke
0 0 0 setrgbcolor
newpath
82036.6 77833.2 moveto
81520.3 78349.5 lineto
stroke
0 0 0 setrgbcolor
newpath
73321.5 77577.4 moveto
65476.1 77577.4 lineto
stroke
0 0 0 setrgbcolor
84664.8 38277.7 1237.78 -90 -0 arc0
0 0 0 setrgbcolor
newpath
85902.6 38277.7 moveto
85902.6 74998.7 lineto
stroke
0 0 0 setrgbcolor
newpath
32265.2 37040 moveto
84664.8 37040 lineto
stroke
0 0 0 setrgbcolor
newpath
31027.4 38277.7 moveto
31027.4 74998.7 lineto
stroke
0 0 0 setrgbcolor
32265.2 38277.7 1237.78 180 270 arc0
78.74 setlinewidth
newpath
69250.8 77467.5 moveto
69477.7 77240.6 lineto
stroke
newpath
69477.7 77467.5 moveto
69250.8 77240.6 lineto
stroke
newpath
69250.8 76724.9 moveto
69477.7 76497.9 lineto
stroke
newpath
69477.7 76724.9 moveto
69250.8 76497.9 lineto
stroke
48536.4 40963.2 371.335 cir0
52728.4 40963.2 371.335 cir0
48536.4 72320.4 371.335 cir0
52728.4 72320.4 371.335 cir0
64215.1 72320.4 371.335 cir0
68407 72320.4 371.335 cir0
72054.4 48802.5 371.335 cir0
76246.3 48802.5 371.335 cir0
40697.1 48802.5 371.335 cir0
44889.1 48802.5 371.335 cir0
48536.4 48802.5 371.335 cir0
52728.4 48802.5 371.335 cir0
79893.7 72320.4 371.335 cir0
84085.6 72320.4 371.335 cir0
72054.4 40963.2 371.335 cir0
76246.3 40963.2 371.335 cir0
40697.1 72320.4 371.335 cir0
44889.1 72320.4 371.335 cir0
64215.1 48802.5 371.335 cir0
68407 48802.5 371.335 cir0
32857.8 72320.4 371.335 cir0
37049.8 72320.4 371.335 cir0
56375.8 72320.4 371.335 cir0
60567.7 72320.4 371.335 cir0
79893.7 48802.5 371.335 cir0
84085.6 48802.5 371.335 cir0
56375.8 64481.1 371.335 cir0
60567.7 64481.1 371.335 cir0
56375.8 48802.5 371.335 cir0
60567.7 48802.5 371.335 cir0
32857.8 56641.8 371.335 cir0
37049.8 56641.8 371.335 cir0
64215.1 56641.8 371.335 cir0
68407 56641.8 371.335 cir0
64215.1 40963.2 371.335 cir0
68407 40963.2 371.335 cir0
40697.1 40963.2 371.335 cir0
44889.1 40963.2 371.335 cir0
48536.4 64481.1 371.335 cir0
52728.4 64481.1 371.335 cir0
56375.8 40963.2 371.335 cir0
60567.7 40963.2 371.335 cir0
32857.8 64481.1 371.335 cir0
37049.8 64481.1 371.335 cir0
72054.4 64481.1 371.335 cir0
76246.3 64481.1 371.335 cir0
48536.4 56641.8 371.335 cir0
52728.4 56641.8 371.335 cir0
79893.7 40963.2 371.335 cir0
84085.6 40963.2 371.335 cir0
72054.4 72320.4 371.335 cir0
76246.3 72320.4 371.335 cir0
72054.4 56641.8 371.335 cir0
76246.3 56641.8 371.335 cir0
56375.8 56641.8 371.335 cir0
60567.7 56641.8 371.335 cir0
32857.8 48802.5 371.335 cir0
37049.8 48802.5 371.335 cir0
32857.8 40963.2 371.335 cir0
37049.8 40963.2 371.335 cir0
40697.1 64481.1 371.335 cir0
44889.1 64481.1 371.335 cir0
79893.7 64481.1 371.335 cir0
84085.6 64481.1 371.335 cir0
40697.1 56641.8 371.335 cir0
44889.1 56641.8 371.335 cir0
64215.1 64481.1 371.335 cir0
68407 64481.1 371.335 cir0
79893.7 56641.8 371.335 cir0
84085.6 56641.8 371.335 cir0
newpath
78070 45646.1 moveto
78070 44119.5 lineto
stroke
newpath
77306.7 44882.8 moveto
78833.3 44882.8 lineto
stroke
newpath
78070 69164.1 moveto
78070 67637.5 lineto
stroke
newpath
77306.7 68400.8 moveto
78833.3 68400.8 lineto
stroke
newpath
38873.5 45646.1 moveto
38873.5 44119.5 lineto
stroke
newpath
38110.2 44882.8 moveto
39636.8 44882.8 lineto
stroke
newpath
38873.5 69164.1 moveto
38873.5 67637.5 lineto
stroke
newpath
38110.2 68400.8 moveto
39636.8 68400.8 lineto
stroke
newpath
59053.5 48220.8 moveto
59053.5 49384.2 lineto
57890 49384.2 lineto
57890 48220.8 lineto
59053.5 48220.8 lineto
poly0
newpath
35535.5 56060.1 moveto
35535.5 57223.5 lineto
34372.1 57223.5 lineto
34372.1 56060.1 lineto
35535.5 56060.1 lineto
poly0
newpath
66892.8 56060.1 moveto
66892.8 57223.5 lineto
65729.3 57223.5 lineto
65729.3 56060.1 lineto
66892.8 56060.1 lineto
poly0
newpath
66892.8 40381.5 moveto
66892.8 41544.9 lineto
65729.3 41544.9 lineto
65729.3 40381.5 lineto
66892.8 40381.5 lineto
poly0
newpath
43374.8 40381.5 moveto
43374.8 41544.9 lineto
42211.4 41544.9 lineto
42211.4 40381.5 lineto
43374.8 40381.5 lineto
poly0
newpath
51214.2 63899.4 moveto
51214.2 65062.8 lineto
50050.7 65062.8 lineto
50050.7 63899.4 lineto
51214.2 63899.4 lineto
poly0
newpath
59053.5 40381.5 moveto
59053.5 41544.9 lineto
57890 41544.9 lineto
57890 40381.5 lineto
59053.5 40381.5 lineto
poly0
newpath
35535.5 63899.4 moveto
35535.5 65062.8 lineto
34372.1 65062.8 lineto
34372.1 63899.4 lineto
35535.5 63899.4 lineto
poly0
newpath
74732.1 63899.4 moveto
74732.1 65062.8 lineto
73568.6 65062.8 lineto
73568.6 63899.4 lineto
74732.1 63899.4 lineto
poly0
newpath
51214.2 56060.1 moveto
51214.2 57223.5 lineto
50050.7 57223.5 lineto
50050.7 56060.1 lineto
51214.2 56060.1 lineto
poly0
newpath
82571.4 40381.5 moveto
82571.4 41544.9 lineto
81407.9 41544.9 lineto
81407.9 40381.5 lineto
82571.4 40381.5 lineto
poly0
newpath
74732.1 71738.7 moveto
74732.1 72902.1 lineto
73568.6 72902.1 lineto
73568.6 71738.7 lineto
74732.1 71738.7 lineto
poly0
newpath
74732.1 56060.1 moveto
74732.1 57223.5 lineto
73568.6 57223.5 lineto
73568.6 56060.1 lineto
74732.1 56060.1 lineto
poly0
newpath
59053.5 56060.1 moveto
59053.5 57223.5 lineto
57890 57223.5 lineto
57890 56060.1 lineto
59053.5 56060.1 lineto
poly0
newpath
35535.5 48220.8 moveto
35535.5 49384.2 lineto
34372.1 49384.2 lineto
34372.1 48220.8 lineto
35535.5 48220.8 lineto
poly0
newpath
35535.5 40381.5 moveto
35535.5 41544.9 lineto
34372.1 41544.9 lineto
34372.1 40381.5 lineto
35535.5 40381.5 lineto
poly0
newpath
43374.8 63899.4 moveto
43374.8 65062.8 lineto
42211.4 65062.8 lineto
42211.4 63899.4 lineto
43374.8 63899.4 lineto
poly0
newpath
82571.4 63899.4 moveto
82571.4 65062.8 lineto
81407.9 65062.8 lineto
81407.9 63899.4 lineto
82571.4 63899.4 lineto
poly0
newpath
43374.8 56060.1 moveto
43374.8 57223.5 lineto
42211.4 57223.5 lineto
42211.4 56060.1 lineto
43374.8 56060.1 lineto
poly0
newpath
66892.8 63899.4 moveto
66892.8 65062.8 lineto
65729.3 65062.8 lineto
65729.3 63899.4 lineto
66892.8 63899.4 lineto
poly0
newpath
82571.4 56060.1 moveto
82571.4 57223.5 lineto
81407.9 57223.5 lineto
81407.9 56060.1 lineto
82571.4 56060.1 lineto
poly0
newpath
51214.2 40381.5 moveto
51214.2 41544.9 lineto
50050.7 41544.9 lineto
50050.7 40381.5 lineto
51214.2 40381.5 lineto
poly0
newpath
51214.2 71738.7 moveto
51214.2 72902.1 lineto
50050.7 72902.1 lineto
50050.7 71738.7 lineto
51214.2 71738.7 lineto
poly0
newpath
66892.8 71738.7 moveto
66892.8 72902.1 lineto
65729.3 72902.1 lineto
65729.3 71738.7 lineto
66892.8 71738.7 lineto
poly0
newpath
74732.1 48220.8 moveto
74732.1 49384.2 lineto
73568.6 49384.2 lineto
73568.6 48220.8 lineto
74732.1 48220.8 lineto
poly0
newpath
43374.8 48220.8 moveto
43374.8 49384.2 lineto
42211.4 49384.2 lineto
42211.4 48220.8 lineto
43374.8 48220.8 lineto
poly0
newpath
51214.2 48220.8 moveto
51214.2 49384.2 lineto
50050.7 49384.2 lineto
50050.7 48220.8 lineto
51214.2 48220.8 lineto
poly0
newpath
82571.4 71738.7 moveto
82571.4 72902.1 lineto
81407.9 72902.1 lineto
81407.9 71738.7 lineto
82571.4 71738.7 lineto
poly0
newpath
74732.1 40381.5 moveto
74732.1 41544.9 lineto
73568.6 41544.9 lineto
73568.6 40381.5 lineto
74732.1 40381.5 lineto
poly0
newpath
43374.8 71738.7 moveto
43374.8 72902.1 lineto
42211.4 72902.1 lineto
42211.4 71738.7 lineto
43374.8 71738.7 lineto
poly0
newpath
66892.8 48220.8 moveto
66892.8 49384.2 lineto
65729.3 49384.2 lineto
65729.3 48220.8 lineto
66892.8 48220.8 lineto
poly0
newpath
35535.5 71738.7 moveto
35535.5 72902.1 lineto
34372.1 72902.1 lineto
34372.1 71738.7 lineto
35535.5 71738.7 lineto
poly0
newpath
59053.5 71738.7 moveto
59053.5 72902.1 lineto
57890 72902.1 lineto
57890 71738.7 lineto
59053.5 71738.7 lineto
poly0
newpath
82571.4 48220.8 moveto
82571.4 49384.2 lineto
81407.9 49384.2 lineto
81407.9 48220.8 lineto
82571.4 48220.8 lineto
poly0
newpath
59053.5 63899.4 moveto
59053.5 65062.8 lineto
57890 65062.8 lineto
57890 63899.4 lineto
59053.5 63899.4 lineto
poly0
118.11 setlinewidth
0 0 0 setrgbcolor
0 0 0 setrgbcolor
newpath
32124.2 35175.5 moveto
32124.2 36356.6 lineto
32405.4 36356.6 lineto
32574.1 36300.3 lineto
32686.6 36187.9 lineto
32742.8 36075.4 lineto
32799.1 35850.4 lineto
32799.1 35681.7 lineto
32742.8 35456.7 lineto
32686.6 35344.2 lineto
32574.1 35231.7 lineto
32405.4 35175.5 lineto
32124.2 35175.5 lineto
stroke
newpath
33305.3 35175.5 moveto
33305.3 35962.9 lineto
stroke
newpath
33305.3 35737.9 moveto
33361.5 35850.4 lineto
33417.7 35906.6 lineto
33530.2 35962.9 lineto
33642.7 35962.9 lineto
stroke
newpath
34036.4 35175.5 moveto
34036.4 35962.9 lineto
stroke
newpath
34036.4 36356.6 moveto
33980.2 36300.3 lineto
34036.4 36244.1 lineto
34092.7 36300.3 lineto
34036.4 36356.6 lineto
34036.4 36244.1 lineto
stroke
newpath
34767.6 35175.5 moveto
34655.1 35231.7 lineto
34598.8 35344.2 lineto
34598.8 36356.6 lineto
stroke
newpath
35386.3 35175.5 moveto
35273.8 35231.7 lineto
35217.5 35344.2 lineto
35217.5 36356.6 lineto
stroke
newpath
36736.1 35175.5 moveto
36736.1 36356.6 lineto
37129.8 35512.9 lineto
37523.5 36356.6 lineto
37523.5 35175.5 lineto
stroke
newpath
38592.1 35175.5 moveto
38592.1 35794.2 lineto
38535.9 35906.6 lineto
38423.4 35962.9 lineto
38198.4 35962.9 lineto
38085.9 35906.6 lineto
stroke
newpath
38592.1 35231.7 moveto
38479.6 35175.5 lineto
38198.4 35175.5 lineto
38085.9 35231.7 lineto
38029.7 35344.2 lineto
38029.7 35456.7 lineto
38085.9 35569.2 lineto
38198.4 35625.4 lineto
38479.6 35625.4 lineto
38592.1 35681.7 lineto
stroke
newpath
39154.5 35962.9 moveto
39154.5 34781.8 lineto
stroke
newpath
39154.5 35906.6 moveto
39267 35962.9 lineto
39492 35962.9 lineto
39604.5 35906.6 lineto
39660.7 35850.4 lineto
39717 35737.9 lineto
39717 35400.5 lineto
39660.7 35288 lineto
39604.5 35231.7 lineto
39492 35175.5 lineto
39267 35175.5 lineto
39154.5 35231.7 lineto
stroke
newpath
40223.1 35288 moveto
40279.4 35231.7 lineto
40223.1 35175.5 lineto
40166.9 35231.7 lineto
40223.1 35288 lineto
40223.1 35175.5 lineto
stroke
newpath
40223.1 35906.6 moveto
40279.4 35850.4 lineto
40223.1 35794.2 lineto
40166.9 35850.4 lineto
40223.1 35906.6 lineto
40223.1 35794.2 lineto
stroke
newpath
30769.6 33342.9 moveto
30996.5 33116 lineto
stroke
newpath
30996.5 33342.9 moveto
30769.6 33116 lineto
stroke
0 0 0 setrgbcolor
0 0 0 setrgbcolor
newpath
32349.1 33876.3 moveto
32461.6 33876.3 lineto
32574.1 33820 lineto
32630.3 33763.8 lineto
32686.6 33651.3 lineto
32742.8 33426.3 lineto
32742.8 33145.1 lineto
32686.6 32920.1 lineto
32630.3 32807.7 lineto
32574.1 32751.4 lineto
32461.6 32695.2 lineto
32349.1 32695.2 lineto
32236.6 32751.4 lineto
32180.4 32807.7 lineto
32124.2 32920.1 lineto
32067.9 33145.1 lineto
32067.9 33426.3 lineto
32124.2 33651.3 lineto
32180.4 33763.8 lineto
32236.6 33820 lineto
32349.1 33876.3 lineto
stroke
newpath
33249 32807.7 moveto
33305.3 32751.4 lineto
33249 32695.2 lineto
33192.8 32751.4 lineto
33249 32807.7 lineto
33249 32695.2 lineto
stroke
newpath
34373.9 33876.3 moveto
33811.4 33876.3 lineto
33755.2 33313.8 lineto
33811.4 33370.1 lineto
33923.9 33426.3 lineto
34205.1 33426.3 lineto
34317.6 33370.1 lineto
34373.9 33313.8 lineto
34430.1 33201.4 lineto
34430.1 32920.1 lineto
34373.9 32807.7 lineto
34317.6 32751.4 lineto
34205.1 32695.2 lineto
33923.9 32695.2 lineto
33811.4 32751.4 lineto
33755.2 32807.7 lineto
stroke
newpath
35498.7 33876.3 moveto
34936.3 33876.3 lineto
34880.1 33313.8 lineto
34936.3 33370.1 lineto
35048.8 33426.3 lineto
35330 33426.3 lineto
35442.5 33370.1 lineto
35498.7 33313.8 lineto
35555 33201.4 lineto
35555 32920.1 lineto
35498.7 32807.7 lineto
35442.5 32751.4 lineto
35330 32695.2 lineto
35048.8 32695.2 lineto
34936.3 32751.4 lineto
34880.1 32807.7 lineto
stroke
newpath
36061.2 32695.2 moveto
36061.2 33482.6 lineto
stroke
newpath
36061.2 33370.1 moveto
36117.4 33426.3 lineto
36229.9 33482.6 lineto
36398.6 33482.6 lineto
36511.1 33426.3 lineto
36567.4 33313.8 lineto
36567.4 32695.2 lineto
stroke
newpath
36567.4 33313.8 moveto
36623.6 33426.3 lineto
36736.1 33482.6 lineto
36904.8 33482.6 lineto
37017.3 33426.3 lineto
37073.5 33313.8 lineto
37073.5 32695.2 lineto
stroke
newpath
37636 32695.2 moveto
37636 33482.6 lineto
stroke
newpath
37636 33370.1 moveto
37692.2 33426.3 lineto
37804.7 33482.6 lineto
37973.4 33482.6 lineto
38085.9 33426.3 lineto
38142.2 33313.8 lineto
38142.2 32695.2 lineto
stroke
newpath
38142.2 33313.8 moveto
38198.4 33426.3 lineto
38310.9 33482.6 lineto
38479.6 33482.6 lineto
38592.1 33426.3 lineto
38648.3 33313.8 lineto
38648.3 32695.2 lineto
stroke
newpath
40954.3 33932.5 moveto
39941.9 32414 lineto
stroke
newpath
42472.9 33876.3 moveto
42585.4 33876.3 lineto
42697.8 33820 lineto
42754.1 33763.8 lineto
42810.3 33651.3 lineto
42866.6 33426.3 lineto
42866.6 33145.1 lineto
42810.3 32920.1 lineto
42754.1 32807.7 lineto
42697.8 32751.4 lineto
42585.4 32695.2 lineto
42472.9 32695.2 lineto
42360.4 32751.4 lineto
42304.1 32807.7 lineto
42247.9 32920.1 lineto
42191.7 33145.1 lineto
42191.7 33426.3 lineto
42247.9 33651.3 lineto
42304.1 33763.8 lineto
42360.4 33820 lineto
42472.9 33876.3 lineto
stroke
newpath
43372.8 32807.7 moveto
43429 32751.4 lineto
43372.8 32695.2 lineto
43316.5 32751.4 lineto
43372.8 32807.7 lineto
43372.8 32695.2 lineto
stroke
newpath
44160.2 33876.3 moveto
44272.6 33876.3 lineto
44385.1 33820 lineto
44441.4 33763.8 lineto
44497.6 33651.3 lineto
44553.9 33426.3 lineto
44553.9 33145.1 lineto
44497.6 32920.1 lineto
44441.4 32807.7 lineto
44385.1 32751.4 lineto
44272.6 32695.2 lineto
44160.2 32695.2 lineto
44047.7 32751.4 lineto
43991.4 32807.7 lineto
43935.2 32920.1 lineto
43878.9 33145.1 lineto
43878.9 33426.3 lineto
43935.2 33651.3 lineto
43991.4 33763.8 lineto
44047.7 33820 lineto
44160.2 33876.3 lineto
stroke
newpath
45003.8 33763.8 moveto
45060 33820 lineto
45172.5 33876.3 lineto
45453.7 33876.3 lineto
45566.2 33820 lineto
45622.5 33763.8 lineto
45678.7 33651.3 lineto
45678.7 33538.8 lineto
45622.5 33370.1 lineto
44947.6 32695.2 lineto
45678.7 32695.2 lineto
stroke
newpath
46128.7 33763.8 moveto
46184.9 33820 lineto
46297.4 33876.3 lineto
46578.6 33876.3 lineto
46691.1 33820 lineto
46747.3 33763.8 lineto
46803.6 33651.3 lineto
46803.6 33538.8 lineto
46747.3 33370.1 lineto
46072.4 32695.2 lineto
46803.6 32695.2 lineto
stroke
newpath
47253.5 33876.3 moveto
47253.5 33651.3 lineto
stroke
newpath
47703.5 33876.3 moveto
47703.5 33651.3 lineto
stroke
newpath
49447 32245.2 moveto
49390.7 32301.5 lineto
49278.3 32470.2 lineto
49222 32582.7 lineto
49165.8 32751.4 lineto
49109.5 33032.6 lineto
49109.5 33257.6 lineto
49165.8 33538.8 lineto
49222 33707.5 lineto
49278.3 33820 lineto
49390.7 33988.8 lineto
49447 34045 lineto
stroke
newpath
49840.7 33763.8 moveto
49896.9 33820 lineto
50009.4 33876.3 lineto
50290.6 33876.3 lineto
50403.1 33820 lineto
50459.4 33763.8 lineto
50515.6 33651.3 lineto
50515.6 33538.8 lineto
50459.4 33370.1 lineto
49784.5 32695.2 lineto
50515.6 32695.2 lineto
stroke
newpath
51921.7 32695.2 moveto
51921.7 33876.3 lineto
stroke
newpath
52427.9 32695.2 moveto
52427.9 33313.8 lineto
52371.6 33426.3 lineto
52259.1 33482.6 lineto
52090.4 33482.6 lineto
51977.9 33426.3 lineto
51921.7 33370.1 lineto
stroke
newpath
53159 32695.2 moveto
53046.5 32751.4 lineto
52990.3 32807.7 lineto
52934.1 32920.1 lineto
52934.1 33257.6 lineto
52990.3 33370.1 lineto
53046.5 33426.3 lineto
53159 33482.6 lineto
53327.8 33482.6 lineto
53440.2 33426.3 lineto
53496.5 33370.1 lineto
53552.7 33257.6 lineto
53552.7 32920.1 lineto
53496.5 32807.7 lineto
53440.2 32751.4 lineto
53327.8 32695.2 lineto
53159 32695.2 lineto
stroke
newpath
54227.6 32695.2 moveto
54115.2 32751.4 lineto
54058.9 32863.9 lineto
54058.9 33876.3 lineto
stroke
newpath
55127.5 32751.4 moveto
55015 32695.2 lineto
54790.1 32695.2 lineto
54677.6 32751.4 lineto
54621.3 32863.9 lineto
54621.3 33313.8 lineto
54677.6 33426.3 lineto
54790.1 33482.6 lineto
55015 33482.6 lineto
55127.5 33426.3 lineto
55183.8 33313.8 lineto
55183.8 33201.4 lineto
54621.3 33088.9 lineto
stroke
newpath
55633.7 32751.4 moveto
55746.2 32695.2 lineto
55971.2 32695.2 lineto
56083.7 32751.4 lineto
56139.9 32863.9 lineto
56139.9 32920.1 lineto
56083.7 33032.6 lineto
55971.2 33088.9 lineto
55802.4 33088.9 lineto
55690 33145.1 lineto
55633.7 33257.6 lineto
55633.7 33313.8 lineto
55690 33426.3 lineto
55802.4 33482.6 lineto
55971.2 33482.6 lineto
56083.7 33426.3 lineto
stroke
newpath
56533.6 32245.2 moveto
56589.8 32301.5 lineto
56702.3 32470.2 lineto
56758.6 32582.7 lineto
56814.8 32751.4 lineto
56871.1 33032.6 lineto
56871.1 33257.6 lineto
56814.8 33538.8 lineto
56758.6 33707.5 lineto
56702.3 33820 lineto
56589.8 33988.8 lineto
56533.6 34045 lineto
stroke
newpath
58670.8 32245.2 moveto
58614.6 32301.5 lineto
58502.1 32470.2 lineto
58445.9 32582.7 lineto
58389.6 32751.4 lineto
58333.4 33032.6 lineto
58333.4 33257.6 lineto
58389.6 33538.8 lineto
58445.9 33707.5 lineto
58502.1 33820 lineto
58614.6 33988.8 lineto
58670.8 34045 lineto
stroke
newpath
59120.8 33482.6 moveto
59120.8 32695.2 lineto
stroke
newpath
59120.8 33370.1 moveto
59177 33426.3 lineto
59289.5 33482.6 lineto
59458.2 33482.6 lineto
59570.7 33426.3 lineto
59627 33313.8 lineto
59627 32695.2 lineto
stroke
newpath
60358.1 32695.2 moveto
60245.6 32751.4 lineto
60189.4 32807.7 lineto
60133.2 32920.1 lineto
60133.2 33257.6 lineto
60189.4 33370.1 lineto
60245.6 33426.3 lineto
60358.1 33482.6 lineto
60526.9 33482.6 lineto
60639.3 33426.3 lineto
60695.6 33370.1 lineto
60751.8 33257.6 lineto
60751.8 32920.1 lineto
60695.6 32807.7 lineto
60639.3 32751.4 lineto
60526.9 32695.2 lineto
60358.1 32695.2 lineto
stroke
newpath
61089.3 33482.6 moveto
61539.2 33482.6 lineto
stroke
newpath
61258 33876.3 moveto
61258 32863.9 lineto
61314.3 32751.4 lineto
61426.7 32695.2 lineto
61539.2 32695.2 lineto
stroke
newpath
62832.8 33482.6 moveto
62832.8 32301.5 lineto
stroke
newpath
62832.8 33426.3 moveto
62945.3 33482.6 lineto
63170.3 33482.6 lineto
63282.8 33426.3 lineto
63339 33370.1 lineto
63395.2 33257.6 lineto
63395.2 32920.1 lineto
63339 32807.7 lineto
63282.8 32751.4 lineto
63170.3 32695.2 lineto
62945.3 32695.2 lineto
62832.8 32751.4 lineto
stroke
newpath
64070.2 32695.2 moveto
63957.7 32751.4 lineto
63901.4 32863.9 lineto
63901.4 33876.3 lineto
stroke
newpath
65026.3 32695.2 moveto
65026.3 33313.8 lineto
64970.1 33426.3 lineto
64857.6 33482.6 lineto
64632.6 33482.6 lineto
64520.1 33426.3 lineto
stroke
newpath
65026.3 32751.4 moveto
64913.8 32695.2 lineto
64632.6 32695.2 lineto
64520.1 32751.4 lineto
64463.9 32863.9 lineto
64463.9 32976.4 lineto
64520.1 33088.9 lineto
64632.6 33145.1 lineto
64913.8 33145.1 lineto
65026.3 33201.4 lineto
stroke
newpath
65420 33482.6 moveto
65869.9 33482.6 lineto
stroke
newpath
65588.7 33876.3 moveto
65588.7 32863.9 lineto
65645 32751.4 lineto
65757.5 32695.2 lineto
65869.9 32695.2 lineto
stroke
newpath
66713.6 32751.4 moveto
66601.1 32695.2 lineto
66376.1 32695.2 lineto
66263.6 32751.4 lineto
66207.4 32863.9 lineto
66207.4 33313.8 lineto
66263.6 33426.3 lineto
66376.1 33482.6 lineto
66601.1 33482.6 lineto
66713.6 33426.3 lineto
66769.8 33313.8 lineto
66769.8 33201.4 lineto
66207.4 33088.9 lineto
stroke
newpath
67782.2 32695.2 moveto
67782.2 33876.3 lineto
stroke
newpath
67782.2 32751.4 moveto
67669.7 32695.2 lineto
67444.7 32695.2 lineto
67332.3 32751.4 lineto
67276 32807.7 lineto
67219.8 32920.1 lineto
67219.8 33257.6 lineto
67276 33370.1 lineto
67332.3 33426.3 lineto
67444.7 33482.6 lineto
67669.7 33482.6 lineto
67782.2 33426.3 lineto
stroke
newpath
68232.1 32245.2 moveto
68288.4 32301.5 lineto
68400.9 32470.2 lineto
68457.1 32582.7 lineto
68513.4 32751.4 lineto
68569.6 33032.6 lineto
68569.6 33257.6 lineto
68513.4 33538.8 lineto
68457.1 33707.5 lineto
68400.9 33820 lineto
68288.4 33988.8 lineto
68232.1 34045 lineto
stroke
30625.2 31670.4 371.335 cir0
0 0 0 setrgbcolor
0 0 0 setrgbcolor
newpath
32742.8 31136.1 moveto
32067.9 31136.1 lineto
stroke
newpath
32405.4 31136.1 moveto
32405.4 32317.2 lineto
32292.9 32148.5 lineto
32180.4 32036 lineto
32067.9 31979.8 lineto
stroke
newpath
33249 31248.6 moveto
33305.3 31192.4 lineto
33249 31136.1 lineto
33192.8 31192.4 lineto
33249 31248.6 lineto
33249 31136.1 lineto
stroke
newpath
33980.2 31811 moveto
33867.7 31867.3 lineto
33811.4 31923.5 lineto
33755.2 32036 lineto
33755.2 32092.2 lineto
33811.4 32204.7 lineto
33867.7 32261 lineto
33980.2 32317.2 lineto
34205.1 32317.2 lineto
34317.6 32261 lineto
34373.9 32204.7 lineto
34430.1 32092.2 lineto
34430.1 32036 lineto
34373.9 31923.5 lineto
34317.6 31867.3 lineto
34205.1 31811 lineto
33980.2 31811 lineto
33867.7 31754.8 lineto
33811.4 31698.5 lineto
33755.2 31586.1 lineto
33755.2 31361.1 lineto
33811.4 31248.6 lineto
33867.7 31192.4 lineto
33980.2 31136.1 lineto
34205.1 31136.1 lineto
34317.6 31192.4 lineto
34373.9 31248.6 lineto
34430.1 31361.1 lineto
34430.1 31586.1 lineto
34373.9 31698.5 lineto
34317.6 31754.8 lineto
34205.1 31811 lineto
stroke
newpath
35161.3 32317.2 moveto
35273.8 32317.2 lineto
35386.3 32261 lineto
35442.5 32204.7 lineto
35498.7 32092.2 lineto
35555 31867.3 lineto
35555 31586.1 lineto
35498.7 31361.1 lineto
35442.5 31248.6 lineto
35386.3 31192.4 lineto
35273.8 31136.1 lineto
35161.3 31136.1 lineto
35048.8 31192.4 lineto
34992.6 31248.6 lineto
34936.3 31361.1 lineto
34880.1 31586.1 lineto
34880.1 31867.3 lineto
34936.3 32092.2 lineto
34992.6 32204.7 lineto
35048.8 32261 lineto
35161.3 32317.2 lineto
stroke
newpath
36061.2 31136.1 moveto
36061.2 31923.5 lineto
stroke
newpath
36061.2 31811 moveto
36117.4 31867.3 lineto
36229.9 31923.5 lineto
36398.6 31923.5 lineto
36511.1 31867.3 lineto
36567.4 31754.8 lineto
36567.4 31136.1 lineto
stroke
newpath
36567.4 31754.8 moveto
36623.6 31867.3 lineto
36736.1 31923.5 lineto
36904.8 31923.5 lineto
37017.3 31867.3 lineto
37073.5 31754.8 lineto
37073.5 31136.1 lineto
stroke
newpath
37636 31136.1 moveto
37636 31923.5 lineto
stroke
newpath
37636 31811 moveto
37692.2 31867.3 lineto
37804.7 31923.5 lineto
37973.4 31923.5 lineto
38085.9 31867.3 lineto
38142.2 31754.8 lineto
38142.2 31136.1 lineto
stroke
newpath
38142.2 31754.8 moveto
38198.4 31867.3 lineto
38310.9 31923.5 lineto
38479.6 31923.5 lineto
38592.1 31867.3 lineto
38648.3 31754.8 lineto
38648.3 31136.1 lineto
stroke
newpath
40954.3 32373.5 moveto
39941.9 30854.9 lineto
stroke
newpath
42472.9 32317.2 moveto
42585.4 32317.2 lineto
42697.8 32261 lineto
42754.1 32204.7 lineto
42810.3 32092.2 lineto
42866.6 31867.3 lineto
42866.6 31586.1 lineto
42810.3 31361.1 lineto
42754.1 31248.6 lineto
42697.8 31192.4 lineto
42585.4 31136.1 lineto
42472.9 31136.1 lineto
42360.4 31192.4 lineto
42304.1 31248.6 lineto
42247.9 31361.1 lineto
42191.7 31586.1 lineto
42191.7 31867.3 lineto
42247.9 32092.2 lineto
42304.1 32204.7 lineto
42360.4 32261 lineto
42472.9 32317.2 lineto
stroke
newpath
43372.8 31248.6 moveto
43429 31192.4 lineto
43372.8 31136.1 lineto
43316.5 31192.4 lineto
43372.8 31248.6 lineto
43372.8 31136.1 lineto
stroke
newpath
44160.2 32317.2 moveto
44272.6 32317.2 lineto
44385.1 32261 lineto
44441.4 32204.7 lineto
44497.6 32092.2 lineto
44553.9 31867.3 lineto
44553.9 31586.1 lineto
44497.6 31361.1 lineto
44441.4 31248.6 lineto
44385.1 31192.4 lineto
44272.6 31136.1 lineto
44160.2 31136.1 lineto
44047.7 31192.4 lineto
43991.4 31248.6 lineto
43935.2 31361.1 lineto
43878.9 31586.1 lineto
43878.9 31867.3 lineto
43935.2 32092.2 lineto
43991.4 32204.7 lineto
44047.7 32261 lineto
44160.2 32317.2 lineto
stroke
newpath
44947.6 32317.2 moveto
45735 32317.2 lineto
45228.8 31136.1 lineto
stroke
newpath
46803.6 31136.1 moveto
46128.7 31136.1 lineto
stroke
newpath
46466.1 31136.1 moveto
46466.1 32317.2 lineto
46353.6 32148.5 lineto
46241.1 32036 lineto
46128.7 31979.8 lineto
stroke
newpath
47253.5 32317.2 moveto
47253.5 32092.2 lineto
stroke
newpath
47703.5 32317.2 moveto
47703.5 32092.2 lineto
stroke
newpath
49447 30686.2 moveto
49390.7 30742.4 lineto
49278.3 30911.1 lineto
49222 31023.6 lineto
49165.8 31192.4 lineto
49109.5 31473.6 lineto
49109.5 31698.5 lineto
49165.8 31979.8 lineto
49222 32148.5 lineto
49278.3 32261 lineto
49390.7 32429.7 lineto
49447 32485.9 lineto
stroke
newpath
49784.5 32317.2 moveto
50571.9 32317.2 lineto
50065.7 31136.1 lineto
stroke
newpath
51246.8 32317.2 moveto
51359.3 32317.2 lineto
51471.7 32261 lineto
51528 32204.7 lineto
51584.2 32092.2 lineto
51640.5 31867.3 lineto
51640.5 31586.1 lineto
51584.2 31361.1 lineto
51528 31248.6 lineto
51471.7 31192.4 lineto
51359.3 31136.1 lineto
51246.8 31136.1 lineto
51134.3 31192.4 lineto
51078 31248.6 lineto
51021.8 31361.1 lineto
50965.6 31586.1 lineto
50965.6 31867.3 lineto
51021.8 32092.2 lineto
51078 32204.7 lineto
51134.3 32261 lineto
51246.8 32317.2 lineto
stroke
newpath
53046.5 31136.1 moveto
53046.5 32317.2 lineto
stroke
newpath
53552.7 31136.1 moveto
53552.7 31754.8 lineto
53496.5 31867.3 lineto
53384 31923.5 lineto
53215.3 31923.5 lineto
53102.8 31867.3 lineto
53046.5 31811 lineto
stroke
newpath
54283.9 31136.1 moveto
54171.4 31192.4 lineto
54115.2 31248.6 lineto
54058.9 31361.1 lineto
54058.9 31698.5 lineto
54115.2 31811 lineto
54171.4 31867.3 lineto
54283.9 31923.5 lineto
54452.6 31923.5 lineto
54565.1 31867.3 lineto
54621.3 31811 lineto
54677.6 31698.5 lineto
54677.6 31361.1 lineto
54621.3 31248.6 lineto
54565.1 31192.4 lineto
54452.6 31136.1 lineto
54283.9 31136.1 lineto
stroke
newpath
55352.5 31136.1 moveto
55240 31192.4 lineto
55183.8 31304.8 lineto
55183.8 32317.2 lineto
stroke
newpath
56252.4 31192.4 moveto
56139.9 31136.1 lineto
55914.9 31136.1 lineto
55802.4 31192.4 lineto
55746.2 31304.8 lineto
55746.2 31754.8 lineto
55802.4 31867.3 lineto
55914.9 31923.5 lineto
56139.9 31923.5 lineto
56252.4 31867.3 lineto
56308.6 31754.8 lineto
56308.6 31642.3 lineto
55746.2 31529.8 lineto
stroke
newpath
56758.6 31192.4 moveto
56871.1 31136.1 lineto
57096 31136.1 lineto
57208.5 31192.4 lineto
57264.8 31304.8 lineto
57264.8 31361.1 lineto
57208.5 31473.6 lineto
57096 31529.8 lineto
56927.3 31529.8 lineto
56814.8 31586.1 lineto
56758.6 31698.5 lineto
56758.6 31754.8 lineto
56814.8 31867.3 lineto
56927.3 31923.5 lineto
57096 31923.5 lineto
57208.5 31867.3 lineto
stroke
newpath
57658.5 30686.2 moveto
57714.7 30742.4 lineto
57827.2 30911.1 lineto
57883.4 31023.6 lineto
57939.7 31192.4 lineto
57995.9 31473.6 lineto
57995.9 31698.5 lineto
57939.7 31979.8 lineto
57883.4 32148.5 lineto
57827.2 32261 lineto
57714.7 32429.7 lineto
57658.5 32485.9 lineto
stroke
newpath
59795.7 30686.2 moveto
59739.5 30742.4 lineto
59627 30911.1 lineto
59570.7 31023.6 lineto
59514.5 31192.4 lineto
59458.2 31473.6 lineto
59458.2 31698.5 lineto
59514.5 31979.8 lineto
59570.7 32148.5 lineto
59627 32261 lineto
59739.5 32429.7 lineto
59795.7 32485.9 lineto
stroke
newpath
60245.6 31923.5 moveto
60245.6 31136.1 lineto
stroke
newpath
60245.6 31811 moveto
60301.9 31867.3 lineto
60414.4 31923.5 lineto
60583.1 31923.5 lineto
60695.6 31867.3 lineto
60751.8 31754.8 lineto
60751.8 31136.1 lineto
stroke
newpath
61483 31136.1 moveto
61370.5 31192.4 lineto
61314.3 31248.6 lineto
61258 31361.1 lineto
61258 31698.5 lineto
61314.3 31811 lineto
61370.5 31867.3 lineto
61483 31923.5 lineto
61651.7 31923.5 lineto
61764.2 31867.3 lineto
61820.4 31811 lineto
61876.7 31698.5 lineto
61876.7 31361.1 lineto
61820.4 31248.6 lineto
61764.2 31192.4 lineto
61651.7 31136.1 lineto
61483 31136.1 lineto
stroke
newpath
62214.1 31923.5 moveto
62664.1 31923.5 lineto
stroke
newpath
62382.9 32317.2 moveto
62382.9 31304.8 lineto
62439.1 31192.4 lineto
62551.6 31136.1 lineto
62664.1 31136.1 lineto
stroke
newpath
63957.7 31923.5 moveto
63957.7 30742.4 lineto
stroke
newpath
63957.7 31867.3 moveto
64070.2 31923.5 lineto
64295.1 31923.5 lineto
64407.6 31867.3 lineto
64463.9 31811 lineto
64520.1 31698.5 lineto
64520.1 31361.1 lineto
64463.9 31248.6 lineto
64407.6 31192.4 lineto
64295.1 31136.1 lineto
64070.2 31136.1 lineto
63957.7 31192.4 lineto
stroke
newpath
65195 31136.1 moveto
65082.5 31192.4 lineto
65026.3 31304.8 lineto
65026.3 32317.2 lineto
stroke
newpath
66151.2 31136.1 moveto
66151.2 31754.8 lineto
66094.9 31867.3 lineto
65982.4 31923.5 lineto
65757.5 31923.5 lineto
65645 31867.3 lineto
stroke
newpath
66151.2 31192.4 moveto
66038.7 31136.1 lineto
65757.5 31136.1 lineto
65645 31192.4 lineto
65588.7 31304.8 lineto
65588.7 31417.3 lineto
65645 31529.8 lineto
65757.5 31586.1 lineto
66038.7 31586.1 lineto
66151.2 31642.3 lineto
stroke
newpath
66544.9 31923.5 moveto
66994.8 31923.5 lineto
stroke
newpath
66713.6 32317.2 moveto
66713.6 31304.8 lineto
66769.8 31192.4 lineto
66882.3 31136.1 lineto
66994.8 31136.1 lineto
stroke
newpath
67838.4 31192.4 moveto
67726 31136.1 lineto
67501 31136.1 lineto
67388.5 31192.4 lineto
67332.3 31304.8 lineto
67332.3 31754.8 lineto
67388.5 31867.3 lineto
67501 31923.5 lineto
67726 31923.5 lineto
67838.4 31867.3 lineto
67894.7 31754.8 lineto
67894.7 31642.3 lineto
67332.3 31529.8 lineto
stroke
newpath
68907.1 31136.1 moveto
68907.1 32317.2 lineto
stroke
newpath
68907.1 31192.4 moveto
68794.6 31136.1 lineto
68569.6 31136.1 lineto
68457.1 31192.4 lineto
68400.9 31248.6 lineto
68344.6 31361.1 lineto
68344.6 31698.5 lineto
68400.9 31811 lineto
68457.1 31867.3 lineto
68569.6 31923.5 lineto
68794.6 31923.5 lineto
68907.1 31867.3 lineto
stroke
newpath
69357 30686.2 moveto
69413.2 30742.4 lineto
69525.7 30911.1 lineto
69582 31023.6 lineto
69638.2 31192.4 lineto
69694.5 31473.6 lineto
69694.5 31698.5 lineto
69638.2 31979.8 lineto
69582 32148.5 lineto
69525.7 32261 lineto
69413.2 32429.7 lineto
69357 32485.9 lineto
stroke
newpath
30233.2 30874.7 moveto
30233.2 29348.1 lineto
stroke
newpath
29469.9 30111.4 moveto
30996.5 30111.4 lineto
stroke
0 0 0 setrgbcolor
0 0 0 setrgbcolor
newpath
32011.7 30758.2 moveto
32742.8 30758.2 lineto
32349.1 30308.2 lineto
32517.9 30308.2 lineto
32630.3 30252 lineto
32686.6 30195.7 lineto
32742.8 30083.2 lineto
32742.8 29802 lineto
32686.6 29689.5 lineto
32630.3 29633.3 lineto
32517.9 29577.1 lineto
32180.4 29577.1 lineto
32067.9 29633.3 lineto
32011.7 29689.5 lineto
stroke
newpath
33249 29689.5 moveto
33305.3 29633.3 lineto
33249 29577.1 lineto
33192.8 29633.3 lineto
33249 29689.5 lineto
33249 29577.1 lineto
stroke
newpath
33699 30758.2 moveto
34486.4 30758.2 lineto
33980.2 29577.1 lineto
stroke
newpath
35161.3 30758.2 moveto
35273.8 30758.2 lineto
35386.3 30701.9 lineto
35442.5 30645.7 lineto
35498.7 30533.2 lineto
35555 30308.2 lineto
35555 30027 lineto
35498.7 29802 lineto
35442.5 29689.5 lineto
35386.3 29633.3 lineto
35273.8 29577.1 lineto
35161.3 29577.1 lineto
35048.8 29633.3 lineto
34992.6 29689.5 lineto
34936.3 29802 lineto
34880.1 30027 lineto
34880.1 30308.2 lineto
34936.3 30533.2 lineto
34992.6 30645.7 lineto
35048.8 30701.9 lineto
35161.3 30758.2 lineto
stroke
newpath
36061.2 29577.1 moveto
36061.2 30364.5 lineto
stroke
newpath
36061.2 30252 moveto
36117.4 30308.2 lineto
36229.9 30364.5 lineto
36398.6 30364.5 lineto
36511.1 30308.2 lineto
36567.4 30195.7 lineto
36567.4 29577.1 lineto
stroke
newpath
36567.4 30195.7 moveto
36623.6 30308.2 lineto
36736.1 30364.5 lineto
36904.8 30364.5 lineto
37017.3 30308.2 lineto
37073.5 30195.7 lineto
37073.5 29577.1 lineto
stroke
newpath
37636 29577.1 moveto
37636 30364.5 lineto
stroke
newpath
37636 30252 moveto
37692.2 30308.2 lineto
37804.7 30364.5 lineto
37973.4 30364.5 lineto
38085.9 30308.2 lineto
38142.2 30195.7 lineto
38142.2 29577.1 lineto
stroke
newpath
38142.2 30195.7 moveto
38198.4 30308.2 lineto
38310.9 30364.5 lineto
38479.6 30364.5 lineto
38592.1 30308.2 lineto
38648.3 30195.7 lineto
38648.3 29577.1 lineto
stroke
newpath
40954.3 30814.4 moveto
39941.9 29295.8 lineto
stroke
newpath
42472.9 30758.2 moveto
42585.4 30758.2 lineto
42697.8 30701.9 lineto
42754.1 30645.7 lineto
42810.3 30533.2 lineto
42866.6 30308.2 lineto
42866.6 30027 lineto
42810.3 29802 lineto
42754.1 29689.5 lineto
42697.8 29633.3 lineto
42585.4 29577.1 lineto
42472.9 29577.1 lineto
42360.4 29633.3 lineto
42304.1 29689.5 lineto
42247.9 29802 lineto
42191.7 30027 lineto
42191.7 30308.2 lineto
42247.9 30533.2 lineto
42304.1 30645.7 lineto
42360.4 30701.9 lineto
42472.9 30758.2 lineto
stroke
newpath
43372.8 29689.5 moveto
43429 29633.3 lineto
43372.8 29577.1 lineto
43316.5 29633.3 lineto
43372.8 29689.5 lineto
43372.8 29577.1 lineto
stroke
newpath
44553.9 29577.1 moveto
43878.9 29577.1 lineto
stroke
newpath
44216.4 29577.1 moveto
44216.4 30758.2 lineto
44103.9 30589.4 lineto
43991.4 30476.9 lineto
43878.9 30420.7 lineto
stroke
newpath
45566.2 30364.5 moveto
45566.2 29577.1 lineto
stroke
newpath
45285 30814.4 moveto
45003.8 29970.8 lineto
45735 29970.8 lineto
stroke
newpath
46691.1 30758.2 moveto
46466.1 30758.2 lineto
46353.6 30701.9 lineto
46297.4 30645.7 lineto
46184.9 30476.9 lineto
46128.7 30252 lineto
46128.7 29802 lineto
46184.9 29689.5 lineto
46241.1 29633.3 lineto
46353.6 29577.1 lineto
46578.6 29577.1 lineto
46691.1 29633.3 lineto
46747.3 29689.5 lineto
46803.6 29802 lineto
46803.6 30083.2 lineto
46747.3 30195.7 lineto
46691.1 30252 lineto
46578.6 30308.2 lineto
46353.6 30308.2 lineto
46241.1 30252 lineto
46184.9 30195.7 lineto
46128.7 30083.2 lineto
stroke
newpath
47253.5 30758.2 moveto
47253.5 30533.2 lineto
stroke
newpath
47703.5 30758.2 moveto
47703.5 30533.2 lineto
stroke
newpath
49447 29127.1 moveto
49390.7 29183.4 lineto
49278.3 29352.1 lineto
49222 29464.6 lineto
49165.8 29633.3 lineto
49109.5 29914.5 lineto
49109.5 30139.5 lineto
49165.8 30420.7 lineto
49222 30589.4 lineto
49278.3 30701.9 lineto
49390.7 30870.7 lineto
49447 30926.9 lineto
stroke
newpath
50403.1 30364.5 moveto
50403.1 29577.1 lineto
stroke
newpath
50121.9 30814.4 moveto
49840.7 29970.8 lineto
50571.9 29970.8 lineto
stroke
newpath
51921.7 29577.1 moveto
51921.7 30758.2 lineto
stroke
newpath
52427.9 29577.1 moveto
52427.9 30195.7 lineto
52371.6 30308.2 lineto
52259.1 30364.5 lineto
52090.4 30364.5 lineto
51977.9 30308.2 lineto
51921.7 30252 lineto
stroke
newpath
53159 29577.1 moveto
53046.5 29633.3 lineto
52990.3 29689.5 lineto
52934.1 29802 lineto
52934.1 30139.5 lineto
52990.3 30252 lineto
53046.5 30308.2 lineto
53159 30364.5 lineto
53327.8 30364.5 lineto
53440.2 30308.2 lineto
53496.5 30252 lineto
53552.7 30139.5 lineto
53552.7 29802 lineto
53496.5 29689.5 lineto
53440.2 29633.3 lineto
53327.8 29577.1 lineto
53159 29577.1 lineto
stroke
newpath
54227.6 29577.1 moveto
54115.2 29633.3 lineto
54058.9 29745.8 lineto
54058.9 30758.2 lineto
stroke
newpath
55127.5 29633.3 moveto
55015 29577.1 lineto
54790.1 29577.1 lineto
54677.6 29633.3 lineto
54621.3 29745.8 lineto
54621.3 30195.7 lineto
54677.6 30308.2 lineto
54790.1 30364.5 lineto
55015 30364.5 lineto
55127.5 30308.2 lineto
55183.8 30195.7 lineto
55183.8 30083.2 lineto
54621.3 29970.8 lineto
stroke
newpath
55633.7 29633.3 moveto
55746.2 29577.1 lineto
55971.2 29577.1 lineto
56083.7 29633.3 lineto
56139.9 29745.8 lineto
56139.9 29802 lineto
56083.7 29914.5 lineto
55971.2 29970.8 lineto
55802.4 29970.8 lineto
55690 30027 lineto
55633.7 30139.5 lineto
55633.7 30195.7 lineto
55690 30308.2 lineto
55802.4 30364.5 lineto
55971.2 30364.5 lineto
56083.7 30308.2 lineto
stroke
newpath
56533.6 29127.1 moveto
56589.8 29183.4 lineto
56702.3 29352.1 lineto
56758.6 29464.6 lineto
56814.8 29633.3 lineto
56871.1 29914.5 lineto
56871.1 30139.5 lineto
56814.8 30420.7 lineto
56758.6 30589.4 lineto
56702.3 30701.9 lineto
56589.8 30870.7 lineto
56533.6 30926.9 lineto
stroke
newpath
58670.8 29127.1 moveto
58614.6 29183.4 lineto
58502.1 29352.1 lineto
58445.9 29464.6 lineto
58389.6 29633.3 lineto
58333.4 29914.5 lineto
58333.4 30139.5 lineto
58389.6 30420.7 lineto
58445.9 30589.4 lineto
58502.1 30701.9 lineto
58614.6 30870.7 lineto
58670.8 30926.9 lineto
stroke
newpath
59120.8 30364.5 moveto
59120.8 29577.1 lineto
stroke
newpath
59120.8 30252 moveto
59177 30308.2 lineto
59289.5 30364.5 lineto
59458.2 30364.5 lineto
59570.7 30308.2 lineto
59627 30195.7 lineto
59627 29577.1 lineto
stroke
newpath
60358.1 29577.1 moveto
60245.6 29633.3 lineto
60189.4 29689.5 lineto
60133.2 29802 lineto
60133.2 30139.5 lineto
60189.4 30252 lineto
60245.6 30308.2 lineto
60358.1 30364.5 lineto
60526.9 30364.5 lineto
60639.3 30308.2 lineto
60695.6 30252 lineto
60751.8 30139.5 lineto
60751.8 29802 lineto
60695.6 29689.5 lineto
60639.3 29633.3 lineto
60526.9 29577.1 lineto
60358.1 29577.1 lineto
stroke
newpath
61089.3 30364.5 moveto
61539.2 30364.5 lineto
stroke
newpath
61258 30758.2 moveto
61258 29745.8 lineto
61314.3 29633.3 lineto
61426.7 29577.1 lineto
61539.2 29577.1 lineto
stroke
newpath
62832.8 30364.5 moveto
62832.8 29183.4 lineto
stroke
newpath
62832.8 30308.2 moveto
62945.3 30364.5 lineto
63170.3 30364.5 lineto
63282.8 30308.2 lineto
63339 30252 lineto
63395.2 30139.5 lineto
63395.2 29802 lineto
63339 29689.5 lineto
63282.8 29633.3 lineto
63170.3 29577.1 lineto
62945.3 29577.1 lineto
62832.8 29633.3 lineto
stroke
newpath
64070.2 29577.1 moveto
63957.7 29633.3 lineto
63901.4 29745.8 lineto
63901.4 30758.2 lineto
stroke
newpath
65026.3 29577.1 moveto
65026.3 30195.7 lineto
64970.1 30308.2 lineto
64857.6 30364.5 lineto
64632.6 30364.5 lineto
64520.1 30308.2 lineto
stroke
newpath
65026.3 29633.3 moveto
64913.8 29577.1 lineto
64632.6 29577.1 lineto
64520.1 29633.3 lineto
64463.9 29745.8 lineto
64463.9 29858.3 lineto
64520.1 29970.8 lineto
64632.6 30027 lineto
64913.8 30027 lineto
65026.3 30083.2 lineto
stroke
newpath
65420 30364.5 moveto
65869.9 30364.5 lineto
stroke
newpath
65588.7 30758.2 moveto
65588.7 29745.8 lineto
65645 29633.3 lineto
65757.5 29577.1 lineto
65869.9 29577.1 lineto
stroke
newpath
66713.6 29633.3 moveto
66601.1 29577.1 lineto
66376.1 29577.1 lineto
66263.6 29633.3 lineto
66207.4 29745.8 lineto
66207.4 30195.7 lineto
66263.6 30308.2 lineto
66376.1 30364.5 lineto
66601.1 30364.5 lineto
66713.6 30308.2 lineto
66769.8 30195.7 lineto
66769.8 30083.2 lineto
66207.4 29970.8 lineto
stroke
newpath
67782.2 29577.1 moveto
67782.2 30758.2 lineto
stroke
newpath
67782.2 29633.3 moveto
67669.7 29577.1 lineto
67444.7 29577.1 lineto
67332.3 29633.3 lineto
67276 29689.5 lineto
67219.8 29802 lineto
67219.8 30139.5 lineto
67276 30252 lineto
67332.3 30308.2 lineto
67444.7 30364.5 lineto
67669.7 30364.5 lineto
67782.2 30308.2 lineto
stroke
newpath
68232.1 29127.1 moveto
68288.4 29183.4 lineto
68400.9 29352.1 lineto
68457.1 29464.6 lineto
68513.4 29633.3 lineto
68569.6 29914.5 lineto
68569.6 30139.5 lineto
68513.4 30420.7 lineto
68457.1 30589.4 lineto
68400.9 30701.9 lineto
68288.4 30870.7 lineto
68232.1 30926.9 lineto
stroke
newpath
30755.5 27491.2 moveto
30755.5 28654.7 lineto
29592.1 28654.7 lineto
29592.1 27491.2 lineto
30755.5 27491.2 lineto
poly0
0 0 0 setrgbcolor
0 0 0 setrgbcolor
newpath
32011.7 28719.8 moveto
32742.8 28719.8 lineto
32349.1 28269.8 lineto
32517.9 28269.8 lineto
32630.3 28213.6 lineto
32686.6 28157.3 lineto
32742.8 28044.8 lineto
32742.8 27763.6 lineto
32686.6 27651.1 lineto
32630.3 27594.9 lineto
32517.9 27538.6 lineto
32180.4 27538.6 lineto
32067.9 27594.9 lineto
32011.7 27651.1 lineto
stroke
newpath
33249 27651.1 moveto
33305.3 27594.9 lineto
33249 27538.6 lineto
33192.8 27594.9 lineto
33249 27651.1 lineto
33249 27538.6 lineto
stroke
newpath
33867.7 27538.6 moveto
34092.7 27538.6 lineto
34205.1 27594.9 lineto
34261.4 27651.1 lineto
34373.9 27819.9 lineto
34430.1 28044.8 lineto
34430.1 28494.8 lineto
34373.9 28607.3 lineto
34317.6 28663.5 lineto
34205.1 28719.8 lineto
33980.2 28719.8 lineto
33867.7 28663.5 lineto
33811.4 28607.3 lineto
33755.2 28494.8 lineto
33755.2 28213.6 lineto
33811.4 28101.1 lineto
33867.7 28044.8 lineto
33980.2 27988.6 lineto
34205.1 27988.6 lineto
34317.6 28044.8 lineto
34373.9 28101.1 lineto
34430.1 28213.6 lineto
stroke
newpath
34992.6 27538.6 moveto
35217.5 27538.6 lineto
35330 27594.9 lineto
35386.3 27651.1 lineto
35498.7 27819.9 lineto
35555 28044.8 lineto
35555 28494.8 lineto
35498.7 28607.3 lineto
35442.5 28663.5 lineto
35330 28719.8 lineto
35105 28719.8 lineto
34992.6 28663.5 lineto
34936.3 28607.3 lineto
34880.1 28494.8 lineto
34880.1 28213.6 lineto
34936.3 28101.1 lineto
34992.6 28044.8 lineto
35105 27988.6 lineto
35330 27988.6 lineto
35442.5 28044.8 lineto
35498.7 28101.1 lineto
35555 28213.6 lineto
stroke
newpath
36061.2 27538.6 moveto
36061.2 28326.1 lineto
stroke
newpath
36061.2 28213.6 moveto
36117.4 28269.8 lineto
36229.9 28326.1 lineto
36398.6 28326.1 lineto
36511.1 28269.8 lineto
36567.4 28157.3 lineto
36567.4 27538.6 lineto
stroke
newpath
36567.4 28157.3 moveto
36623.6 28269.8 lineto
36736.1 28326.1 lineto
36904.8 28326.1 lineto
37017.3 28269.8 lineto
37073.5 28157.3 lineto
37073.5 27538.6 lineto
stroke
newpath
37636 27538.6 moveto
37636 28326.1 lineto
stroke
newpath
37636 28213.6 moveto
37692.2 28269.8 lineto
37804.7 28326.1 lineto
37973.4 28326.1 lineto
38085.9 28269.8 lineto
38142.2 28157.3 lineto
38142.2 27538.6 lineto
stroke
newpath
38142.2 28157.3 moveto
38198.4 28269.8 lineto
38310.9 28326.1 lineto
38479.6 28326.1 lineto
38592.1 28269.8 lineto
38648.3 28157.3 lineto
38648.3 27538.6 lineto
stroke
newpath
40954.3 28776 moveto
39941.9 27257.4 lineto
stroke
newpath
42472.9 28719.8 moveto
42585.4 28719.8 lineto
42697.8 28663.5 lineto
42754.1 28607.3 lineto
42810.3 28494.8 lineto
42866.6 28269.8 lineto
42866.6 27988.6 lineto
42810.3 27763.6 lineto
42754.1 27651.1 lineto
42697.8 27594.9 lineto
42585.4 27538.6 lineto
42472.9 27538.6 lineto
42360.4 27594.9 lineto
42304.1 27651.1 lineto
42247.9 27763.6 lineto
42191.7 27988.6 lineto
42191.7 28269.8 lineto
42247.9 28494.8 lineto
42304.1 28607.3 lineto
42360.4 28663.5 lineto
42472.9 28719.8 lineto
stroke
newpath
43372.8 27651.1 moveto
43429 27594.9 lineto
43372.8 27538.6 lineto
43316.5 27594.9 lineto
43372.8 27651.1 lineto
43372.8 27538.6 lineto
stroke
newpath
44553.9 27538.6 moveto
43878.9 27538.6 lineto
stroke
newpath
44216.4 27538.6 moveto
44216.4 28719.8 lineto
44103.9 28551 lineto
43991.4 28438.5 lineto
43878.9 28382.3 lineto
stroke
newpath
45622.5 28719.8 moveto
45060 28719.8 lineto
45003.8 28157.3 lineto
45060 28213.6 lineto
45172.5 28269.8 lineto
45453.7 28269.8 lineto
45566.2 28213.6 lineto
45622.5 28157.3 lineto
45678.7 28044.8 lineto
45678.7 27763.6 lineto
45622.5 27651.1 lineto
45566.2 27594.9 lineto
45453.7 27538.6 lineto
45172.5 27538.6 lineto
45060 27594.9 lineto
45003.8 27651.1 lineto
stroke
newpath
46072.4 28719.8 moveto
46859.8 28719.8 lineto
46353.6 27538.6 lineto
stroke
newpath
47253.5 28719.8 moveto
47253.5 28494.8 lineto
stroke
newpath
47703.5 28719.8 moveto
47703.5 28494.8 lineto
stroke
newpath
49447 27088.7 moveto
49390.7 27144.9 lineto
49278.3 27313.7 lineto
49222 27426.2 lineto
49165.8 27594.9 lineto
49109.5 27876.1 lineto
49109.5 28101.1 lineto
49165.8 28382.3 lineto
49222 28551 lineto
49278.3 28663.5 lineto
49390.7 28832.2 lineto
49447 28888.5 lineto
stroke
newpath
49784.5 28719.8 moveto
50515.6 28719.8 lineto
50121.9 28269.8 lineto
50290.6 28269.8 lineto
50403.1 28213.6 lineto
50459.4 28157.3 lineto
50515.6 28044.8 lineto
50515.6 27763.6 lineto
50459.4 27651.1 lineto
50403.1 27594.9 lineto
50290.6 27538.6 lineto
49953.2 27538.6 lineto
49840.7 27594.9 lineto
49784.5 27651.1 lineto
stroke
newpath
51584.2 28719.8 moveto
51021.8 28719.8 lineto
50965.6 28157.3 lineto
51021.8 28213.6 lineto
51134.3 28269.8 lineto
51415.5 28269.8 lineto
51528 28213.6 lineto
51584.2 28157.3 lineto
51640.5 28044.8 lineto
51640.5 27763.6 lineto
51584.2 27651.1 lineto
51528 27594.9 lineto
51415.5 27538.6 lineto
51134.3 27538.6 lineto
51021.8 27594.9 lineto
50965.6 27651.1 lineto
stroke
newpath
53046.5 27538.6 moveto
53046.5 28719.8 lineto
stroke
newpath
53552.7 27538.6 moveto
53552.7 28157.3 lineto
53496.5 28269.8 lineto
53384 28326.1 lineto
53215.3 28326.1 lineto
53102.8 28269.8 lineto
53046.5 28213.6 lineto
stroke
newpath
54283.9 27538.6 moveto
54171.4 27594.9 lineto
54115.2 27651.1 lineto
54058.9 27763.6 lineto
54058.9 28101.1 lineto
54115.2 28213.6 lineto
54171.4 28269.8 lineto
54283.9 28326.1 lineto
54452.6 28326.1 lineto
54565.1 28269.8 lineto
54621.3 28213.6 lineto
54677.6 28101.1 lineto
54677.6 27763.6 lineto
54621.3 27651.1 lineto
54565.1 27594.9 lineto
54452.6 27538.6 lineto
54283.9 27538.6 lineto
stroke
newpath
55352.5 27538.6 moveto
55240 27594.9 lineto
55183.8 27707.4 lineto
55183.8 28719.8 lineto
stroke
newpath
56252.4 27594.9 moveto
56139.9 27538.6 lineto
55914.9 27538.6 lineto
55802.4 27594.9 lineto
55746.2 27707.4 lineto
55746.2 28157.3 lineto
55802.4 28269.8 lineto
55914.9 28326.1 lineto
56139.9 28326.1 lineto
56252.4 28269.8 lineto
56308.6 28157.3 lineto
56308.6 28044.8 lineto
55746.2 27932.4 lineto
stroke
newpath
56758.6 27594.9 moveto
56871.1 27538.6 lineto
57096 27538.6 lineto
57208.5 27594.9 lineto
57264.8 27707.4 lineto
57264.8 27763.6 lineto
57208.5 27876.1 lineto
57096 27932.4 lineto
56927.3 27932.4 lineto
56814.8 27988.6 lineto
56758.6 28101.1 lineto
56758.6 28157.3 lineto
56814.8 28269.8 lineto
56927.3 28326.1 lineto
57096 28326.1 lineto
57208.5 28269.8 lineto
stroke
newpath
57658.5 27088.7 moveto
57714.7 27144.9 lineto
57827.2 27313.7 lineto
57883.4 27426.2 lineto
57939.7 27594.9 lineto
57995.9 27876.1 lineto
57995.9 28101.1 lineto
57939.7 28382.3 lineto
57883.4 28551 lineto
57827.2 28663.5 lineto
57714.7 28832.2 lineto
57658.5 28888.5 lineto
stroke
newpath
59795.7 27088.7 moveto
59739.5 27144.9 lineto
59627 27313.7 lineto
59570.7 27426.2 lineto
59514.5 27594.9 lineto
59458.2 27876.1 lineto
59458.2 28101.1 lineto
59514.5 28382.3 lineto
59570.7 28551 lineto
59627 28663.5 lineto
59739.5 28832.2 lineto
59795.7 28888.5 lineto
stroke
newpath
60245.6 28326.1 moveto
60245.6 27538.6 lineto
stroke
newpath
60245.6 28213.6 moveto
60301.9 28269.8 lineto
60414.4 28326.1 lineto
60583.1 28326.1 lineto
60695.6 28269.8 lineto
60751.8 28157.3 lineto
60751.8 27538.6 lineto
stroke
newpath
61483 27538.6 moveto
61370.5 27594.9 lineto
61314.3 27651.1 lineto
61258 27763.6 lineto
61258 28101.1 lineto
61314.3 28213.6 lineto
61370.5 28269.8 lineto
61483 28326.1 lineto
61651.7 28326.1 lineto
61764.2 28269.8 lineto
61820.4 28213.6 lineto
61876.7 28101.1 lineto
61876.7 27763.6 lineto
61820.4 27651.1 lineto
61764.2 27594.9 lineto
61651.7 27538.6 lineto
61483 27538.6 lineto
stroke
newpath
62214.1 28326.1 moveto
62664.1 28326.1 lineto
stroke
newpath
62382.9 28719.8 moveto
62382.9 27707.4 lineto
62439.1 27594.9 lineto
62551.6 27538.6 lineto
62664.1 27538.6 lineto
stroke
newpath
63957.7 28326.1 moveto
63957.7 27144.9 lineto
stroke
newpath
63957.7 28269.8 moveto
64070.2 28326.1 lineto
64295.1 28326.1 lineto
64407.6 28269.8 lineto
64463.9 28213.6 lineto
64520.1 28101.1 lineto
64520.1 27763.6 lineto
64463.9 27651.1 lineto
64407.6 27594.9 lineto
64295.1 27538.6 lineto
64070.2 27538.6 lineto
63957.7 27594.9 lineto
stroke
newpath
65195 27538.6 moveto
65082.5 27594.9 lineto
65026.3 27707.4 lineto
65026.3 28719.8 lineto
stroke
newpath
66151.2 27538.6 moveto
66151.2 28157.3 lineto
66094.9 28269.8 lineto
65982.4 28326.1 lineto
65757.5 28326.1 lineto
65645 28269.8 lineto
stroke
newpath
66151.2 27594.9 moveto
66038.7 27538.6 lineto
65757.5 27538.6 lineto
65645 27594.9 lineto
65588.7 27707.4 lineto
65588.7 27819.9 lineto
65645 27932.4 lineto
65757.5 27988.6 lineto
66038.7 27988.6 lineto
66151.2 28044.8 lineto
stroke
newpath
66544.9 28326.1 moveto
66994.8 28326.1 lineto
stroke
newpath
66713.6 28719.8 moveto
66713.6 27707.4 lineto
66769.8 27594.9 lineto
66882.3 27538.6 lineto
66994.8 27538.6 lineto
stroke
newpath
67838.4 27594.9 moveto
67726 27538.6 lineto
67501 27538.6 lineto
67388.5 27594.9 lineto
67332.3 27707.4 lineto
67332.3 28157.3 lineto
67388.5 28269.8 lineto
67501 28326.1 lineto
67726 28326.1 lineto
67838.4 28269.8 lineto
67894.7 28157.3 lineto
67894.7 28044.8 lineto
67332.3 27932.4 lineto
stroke
newpath
68907.1 27538.6 moveto
68907.1 28719.8 lineto
stroke
newpath
68907.1 27594.9 moveto
68794.6 27538.6 lineto
68569.6 27538.6 lineto
68457.1 27594.9 lineto
68400.9 27651.1 lineto
68344.6 27763.6 lineto
68344.6 28101.1 lineto
68400.9 28213.6 lineto
68457.1 28269.8 lineto
68569.6 28326.1 lineto
68794.6 28326.1 lineto
68907.1 28269.8 lineto
stroke
newpath
69357 27088.7 moveto
69413.2 27144.9 lineto
69525.7 27313.7 lineto
69582 27426.2 lineto
69638.2 27594.9 lineto
69694.5 27876.1 lineto
69694.5 28101.1 lineto
69638.2 28382.3 lineto
69582 28551 lineto
69525.7 28663.5 lineto
69413.2 28832.2 lineto
69357 28888.5 lineto
stroke
showpage
grestore
%%EOF
